<?xml version="1.0" encoding="UTF-8" standalone="no"?>
<!-- Created with Keyshape -->
<svg xmlns="http://www.w3.org/2000/svg" width="636px" height="155px" viewBox="0 0 636 155">
    <defs>
        <linearGradient id="Gradient-0" x1="0.5" y1="0" x2="0.5" y2="1">
            <stop offset="0" stop-color="#d3002d"/>
            <stop offset="1" stop-color="#a70014"/>
        </linearGradient>
        <linearGradient id="Gradient-1" x1="0.5" y1="0.0222234" x2="0.5" y2="1">
            <stop offset="0" stop-color="#0094ff"/>
            <stop offset="1" stop-color="#004196"/>
        </linearGradient>
        <linearGradient id="Gradient-2" x1="0.5" y1="0" x2="0.5" y2="1">
            <stop offset="0" stop-color="#2c7be3"/>
            <stop offset="1" stop-color="#031540"/>
        </linearGradient>
    </defs>
    <title>Jackpot_Platinum_Desktop_636x155</title>
    <desc>Created with Sketch.</desc>
    <path id="shadow" d="M628,19C632.418,19,636,22.5817,636,27L636,118C636,122.418,632.418,126,628,126L468,126L468,147C468,151.418,464.418,155,460,155L176,155C171.582,155,168,151.418,168,147L168,126L8,126C3.58172,126,0,122.418,0,118L0,27C0,22.5817,3.58172,19,8,19L628,19Z" fill="#D34E2D" stroke="none" stroke-width="1" fill-rule="evenodd"/>
    <path id="gradient" d="M628,17L8,17C4.68629,17,2,19.6863,2,23L2,114C2,117.314,4.68629,120,8,120L170,120L170,143C170,146.314,172.686,149,176,149L460,149C463.314,149,466,146.314,466,143L466,120L628,120C631.314,120,634,117.314,634,114L634,23C634,19.6863,631.314,17,628,17Z" stroke="none" stroke-width="4" fill="url(#Gradient-0)" stroke-opacity="1" stroke-miterlimit="4" stroke-linejoin="miter" stroke-linecap="butt" stroke-dasharray="none" stroke-dashoffset="0" fill-rule="evenodd"/>
    <path id="yellow_stroke" d="M633.657,17.3432C632.095,15.7811,630.209,15,628,15L8,15C5.79086,15,3.90524,15.781,2.34314,17.3431C0.781048,18.9052,0,20.7909,0,23L0,114C0,116.209,0.781056,118.095,2.34317,119.657C3.90523,121.219,5.79084,122,8,122L168,122L168,143C168,145.209,168.781,147.095,170.343,148.657C171.905,150.219,173.791,151,176,151L460,151C462.209,151,464.095,150.219,465.657,148.657C467.219,147.095,468,145.209,468,143L468,122L628,122C630.209,122,632.095,121.219,633.657,119.657C635.219,118.095,636,116.209,636,114L636,23C636,20.7909,635.219,18.9052,633.657,17.3432ZM8,19L628,19C629.105,19,630.047,19.3905,630.828,20.1715C631.609,20.9526,632,21.8954,632,23L632,114C632,115.105,631.609,116.048,630.828,116.829C630.048,117.61,629.105,118,628,118L464,118L464,143C464,144.105,463.61,145.048,462.829,145.829C462.048,146.61,461.105,147,460,147L176,147C174.895,147,173.952,146.61,173.171,145.829C172.39,145.048,172,144.105,172,143L172,118L8,118C6.89538,118,5.95256,117.61,5.17155,116.829C4.39052,116.048,4,115.105,4,114L4,23C4,21.8954,4.39052,20.9526,5.17157,20.1716C5.95262,19.3905,6.89543,19,8,19Z" fill="#ffa900" stroke="none" fill-rule="evenodd" fill-opacity="1" stroke-width="1"/>
    <path id="r-1" d="M616,33L20,33C18.8954,33,18,33.8954,18,35L18,102C18,103.105,18.8954,104,20,104L187,104L187,131C187,132.105,187.895,133,189,133L448,133C449.105,133,450,132.105,450,131L450,104L616,104C617.105,104,618,103.105,618,102L618,35C618,33.8954,617.105,33,616,33Z" stroke="none" stroke-width="4" fill-opacity="0.471017" fill="#000000" stroke-opacity="1" stroke-miterlimit="4" stroke-linejoin="miter" stroke-linecap="butt" stroke-dasharray="none" stroke-dashoffset="0" fill-rule="evenodd" opacity="0.5"/>
    <path id="yellow_stroke-2" d="M618.829,32.1717C618.048,31.3906,617.105,31,616,31L20,31C18.8954,31,17.9526,31.3905,17.1716,32.1716C16.3905,32.9526,16,33.8954,16,35L16,102C16,103.105,16.3906,104.048,17.1717,104.829C17.9526,105.61,18.8954,106,20,106L185,106L185,131C185,132.105,185.39,133.048,186.171,133.829C186.952,134.61,187.895,135,189,135L448,135C449.105,135,450.048,134.61,450.829,133.829C451.61,133.048,452,132.105,452,131L452,106L616,106C617.105,106,618.048,105.61,618.829,104.829C619.61,104.048,620,103.105,620,102L620,35C620,33.8954,619.61,32.9526,618.829,32.1717ZM20,35L616,35L616,102L448,102L448,131L189,131L189,102L20,102Z" fill="#ffa900" fill-opacity="1" stroke="none" fill-rule="evenodd" stroke-width="1"/>
    <g transform="translate(318,22.5) translate(-142,-22.5)">
        <rect id="Rectangle" fill="#082052" width="284" height="45" rx="5" stroke="none" stroke-width="1" fill-rule="evenodd" transform="translate(142,22.5) translate(-142,-22.5)"/>
        <rect id="Rectangle-2" stroke="url(#Gradient-1)" stroke-width="4" fill="url(#Gradient-2)" width="280" height="37" rx="3" fill-rule="evenodd" transform="translate(142,20.5) translate(-140,-18.5)"/>
    </g>
    <g transform="translate(318,83) translate(-310,-60)">
        <rect id="Rectangle-Copy-45" fill="#ffa900" width="4" height="4" stroke="none" stroke-width="1" fill-rule="evenodd" transform="translate(114,2) translate(-2,-2)"/>
        <rect id="Rectangle-Copy-55" fill="#ffa900" width="4" height="4" stroke="none" stroke-width="1" fill-rule="evenodd" transform="translate(58,2) translate(-2,-2)"/>
        <rect id="Rectangle-Copy-57" fill="#ffa900" width="4" height="4" stroke="none" stroke-width="1" fill-rule="evenodd" transform="translate(2,2) translate(-2,-2)"/>
        <rect id="Rectangle-Copy-59" fill="#ffa900" width="4" height="4" stroke="none" stroke-width="1" fill-rule="evenodd" transform="translate(2,60) translate(-2,-2)"/>
        <rect id="Rectangle-Copy-61" fill="#ffa900" width="4" height="4" stroke="none" stroke-width="1" fill-rule="evenodd" transform="translate(30,89) translate(-2,-2)"/>
        <rect id="Rectangle-Copy-63" fill="#ffa900" width="4" height="4" stroke="none" stroke-width="1" fill-rule="evenodd" transform="translate(86,89) translate(-2,-2)"/>
        <rect id="Rectangle-Copy-65" fill="#ffa900" width="4" height="4" stroke="none" stroke-width="1" fill-rule="evenodd" transform="translate(142,89) translate(-2,-2)"/>
        <rect id="Rectangle-Copy-83" fill="#ffa900" width="4" height="4" stroke="none" stroke-width="1" fill-rule="evenodd" transform="translate(170,118) translate(-2,-2)"/>
        <rect id="Rectangle-Copy-68" fill="#ffa900" width="4" height="4" stroke="none" stroke-width="1" fill-rule="evenodd" transform="translate(226,118) translate(-2,-2)"/>
        <rect id="Rectangle-Copy-70" fill="#ffa900" width="4" height="4" stroke="none" stroke-width="1" fill-rule="evenodd" transform="translate(282,118) translate(-2,-2)"/>
        <rect id="Rectangle-Copy-72" fill="#ffa900" width="4" height="4" stroke="none" stroke-width="1" fill-rule="evenodd" transform="translate(338,118) translate(-2,-2)"/>
        <rect id="Rectangle-Copy-74" fill="#ffa900" width="4" height="4" stroke="none" stroke-width="1" fill-rule="evenodd" transform="translate(394,118) translate(-2,-2)"/>
        <rect id="Rectangle-Copy-84" fill="#ffa900" width="4" height="4" stroke="none" stroke-width="1" fill-rule="evenodd" transform="translate(450,118) translate(-2,-2)"/>
        <rect id="Rectangle-Copy-77" fill="#ffa900" width="4" height="4" stroke="none" stroke-width="1" fill-rule="evenodd" transform="translate(478,89) translate(-2,-2)"/>
        <rect id="Rectangle-Copy-79" fill="#ffa900" width="4" height="4" stroke="none" stroke-width="1" fill-rule="evenodd" transform="translate(534,89) translate(-2,-2)"/>
        <rect id="Rectangle-Copy-81" fill="#ffa900" width="4" height="4" stroke="none" stroke-width="1" fill-rule="evenodd" transform="translate(590,89) translate(-2,-2)"/>
        <rect id="Rectangle-Copy-85" fill="#ffa900" width="4" height="4" stroke="none" stroke-width="1" fill-rule="evenodd" transform="translate(618,60) translate(-2,-2)"/>
        <rect id="Rectangle-Copy-87" fill="#ffa900" width="4" height="4" stroke="none" stroke-width="1" fill-rule="evenodd" transform="translate(618,2) translate(-2,-2)"/>
        <rect id="Rectangle-Copy-89" fill="#ffa900" width="4" height="4" stroke="none" stroke-width="1" fill-rule="evenodd" transform="translate(562,2) translate(-2,-2)"/>
        <rect id="Rectangle-Copy-91" fill="#ffa900" width="4" height="4" stroke="none" stroke-width="1" fill-rule="evenodd" transform="translate(506,2) translate(-2,-2)"/>
    </g>
    <g transform="translate(318,83) translate(-310,-60)">
        <rect id="Rectangle-Copy-54" fill="#ffa900" width="4" height="4" stroke="none" stroke-width="1" fill-rule="evenodd" transform="translate(86,2) translate(-2,-2)"/>
        <rect id="Rectangle-Copy-56" fill="#ffa900" width="4" height="4" stroke="none" stroke-width="1" fill-rule="evenodd" transform="translate(30,2) translate(-2,-2)"/>
        <rect id="Rectangle-Copy-58" fill="#ffa900" width="4" height="4" stroke="none" stroke-width="1" fill-rule="evenodd" transform="translate(2,31) translate(-2,-2)"/>
        <rect id="Rectangle-Copy-60" fill="#ffa900" width="4" height="4" stroke="none" stroke-width="1" fill-rule="evenodd" transform="translate(2,89) translate(-2,-2)"/>
        <rect id="Rectangle-Copy-62" fill="#ffa900" width="4" height="4" stroke="none" stroke-width="1" fill-rule="evenodd" transform="translate(58,89) translate(-2,-2)"/>
        <rect id="Rectangle-Copy-64" fill="#ffa900" width="4" height="4" stroke="none" stroke-width="1" fill-rule="evenodd" transform="translate(114,89) translate(-2,-2)"/>
        <rect id="Rectangle-Copy-66" fill="#ffa900" width="4" height="4" stroke="none" stroke-width="1" fill-rule="evenodd" transform="translate(170,89) translate(-2,-2)"/>
        <rect id="Rectangle-Copy-67" fill="#ffa900" width="4" height="4" stroke="none" stroke-width="1" fill-rule="evenodd" transform="translate(198,118) translate(-2,-2)"/>
        <rect id="Rectangle-Copy-69" fill="#ffa900" width="4" height="4" stroke="none" stroke-width="1" fill-rule="evenodd" transform="translate(254,118) translate(-2,-2)"/>
        <rect id="Rectangle-Copy-71" fill="#ffa900" width="4" height="4" stroke="none" stroke-width="1" fill-rule="evenodd" transform="translate(310,118) translate(-2,-2)"/>
        <rect id="Rectangle-Copy-73" fill="#ffa900" width="4" height="4" stroke="none" stroke-width="1" fill-rule="evenodd" transform="translate(366,118) translate(-2,-2)"/>
        <rect id="Rectangle-Copy-75" fill="#ffa900" width="4" height="4" stroke="none" stroke-width="1" fill-rule="evenodd" transform="translate(422,118) translate(-2,-2)"/>
        <rect id="Rectangle-Copy-76" fill="#ffa900" width="4" height="4" stroke="none" stroke-width="1" fill-rule="evenodd" transform="translate(450,89) translate(-2,-2)"/>
        <rect id="Rectangle-Copy-78" fill="#ffa900" width="4" height="4" stroke="none" stroke-width="1" fill-rule="evenodd" transform="translate(506,89) translate(-2,-2)"/>
        <rect id="Rectangle-Copy-80" fill="#ffa900" width="4" height="4" stroke="none" stroke-width="1" fill-rule="evenodd" transform="translate(562,89) translate(-2,-2)"/>
        <rect id="Rectangle-Copy-82" fill="#ffa900" width="4" height="4" stroke="none" stroke-width="1" fill-rule="evenodd" transform="translate(618,89) translate(-2,-2)"/>
        <rect id="Rectangle-Copy-86" fill="#ffa900" width="4" height="4" stroke="none" stroke-width="1" fill-rule="evenodd" transform="translate(618,31) translate(-2,-2)"/>
        <rect id="Rectangle-Copy-88" fill="#ffa900" width="4" height="4" stroke="none" stroke-width="1" fill-rule="evenodd" transform="translate(590,2) translate(-2,-2)"/>
        <rect id="Rectangle-Copy-90" fill="#ffa900" width="4" height="4" stroke="none" stroke-width="1" fill-rule="evenodd" transform="translate(534,2) translate(-2,-2)"/>
        <rect id="Rectangle-Copy-92" fill="#ffa900" width="4" height="4" stroke="none" stroke-width="1" fill-rule="evenodd" transform="translate(478,2) translate(-2,-2)"/>
        <rect id="Rectangle-Copy-53" fill="#ffa900" width="4" height="4" stroke="none" stroke-width="1" fill-rule="evenodd" transform="translate(142,2) translate(-2,-2)"/>
    </g>
</svg>
