<?xml version="1.0" encoding="UTF-8" standalone="no"?>
<!-- Created with Keyshape -->
<svg xmlns="http://www.w3.org/2000/svg" width="1304px" height="153px" viewBox="0 0 1304 153">
    <title>Jackpot_Platinum_Desktop_1034x153</title>
    <desc>Created with Sketch.</desc>
    <defs>
        <filter id="filter-5" x="-3.3%" y="-15.5%" width="106.5%" height="167.0%" filterUnits="objectBoundingBox">
            <feOffset dx="0" dy="4" in="SourceAlpha" result="shadowOffsetOuter1"/>
            <feGaussianBlur stdDeviation="2" in="shadowOffsetOuter1" result="shadowBlurOuter1"/>
            <feColorMatrix values="0 0 0 0 0   0 0 0 0 0   0 0 0 0 0  0 0 0 0.5 0" type="matrix" in="shadowBlurOuter1"/>
        </filter>
        <filter id="filter-7" x="-1.7%" y="-7.8%" width="103.4%" height="131.1%" filterUnits="objectBoundingBox">
            <feOffset dx="0" dy="4" in="SourceAlpha" result="shadowOffsetOuter1"/>
            <feGaussianBlur stdDeviation="2" in="shadowOffsetOuter1" result="shadowBlurOuter1"/>
            <feColorMatrix values="0 0 0 0 0.996078431   0 0 0 0 0.682352941   0 0 0 0 0.0235294118  0 0 0 0.564084353 0" type="matrix" in="shadowBlurOuter1"/>
        </filter>
        <linearGradient id="Gradient-0" x1="0.5" y1="0" x2="0.5" y2="1">
            <stop offset="0" stop-color="#0d9100"/>
            <stop offset="1" stop-color="#004d04"/>
        </linearGradient>
        <linearGradient id="Gradient-1" x1="0.5" y1="0" x2="0.5" y2="1">
            <stop offset="0.022223" stop-color="#0094ff"/>
            <stop offset="1" stop-color="#004196"/>
        </linearGradient>
        <linearGradient id="Gradient-2" x1="0.5" y1="0" x2="0.5" y2="1">
            <stop offset="0" stop-color="#2c7be3"/>
            <stop offset="1" stop-color="#031540"/>
        </linearGradient>
    </defs>
    <path id="Combined-Shape-Copy-3" d="M1296.08,16C1300.45,16,1304,19.5471,1304,23.9226L1304,116.077C1304,120.453,1300.45,124,1296.08,124L804,124L804,145.077C804,149.453,800.453,153,796.077,153L511.923,153C507.547,153,504,149.453,504,145.077L504,124L7.92263,124C3.54708,124,0,120.453,0,116.077L0,23.9226C0,19.5471,3.54708,16,7.92263,16L1296.08,16Z" fill="#D34E2D" stroke="none" stroke-width="1" fill-rule="evenodd"/>
    <path id="gradient" d="M1296.08,18L7.92263,18C4.65165,18,2,20.6517,2,23.9226L2,112.077C2,115.348,4.65165,118,7.92263,118L506,118L506,141.077C506,144.348,508.652,147,511.923,147L796.077,147C799.348,147,802,144.348,802,141.077L802,118L1296.08,118C1299.35,118,1302,115.348,1302,112.077L1302,23.9226C1302,20.6517,1299.35,18,1296.08,18Z" stroke="none" stroke-width="4" fill="url(#Gradient-0)" stroke-opacity="1" stroke-miterlimit="4" stroke-linejoin="miter" stroke-linecap="butt" stroke-dasharray="none" stroke-dashoffset="0" fill-rule="evenodd"/>
    <path id="Combined-Shape" d="M784.039,32.9807L523.961,32.9807C523.468,32.9807,523.007,33.1593,522.646,33.4803L522.083,33.981L19.9613,33.9807C18.8674,33.9807,17.9807,34.8674,17.9807,35.9613L17.9807,100.039C17.9807,101.133,18.8674,102.019,19.9613,102.019L521.981,102.019L521.981,127.039C521.981,128.133,522.867,129.019,523.961,129.019L784.039,129.019C785.133,129.019,786.019,128.133,786.019,127.039L786.019,102.019L1284.04,102.019C1285.13,102.019,1286.02,101.133,1286.02,100.039L1286.02,35.9613C1286.02,34.8674,1285.13,33.9807,1284.04,33.9807L785.917,33.981L785.354,33.4803C784.993,33.1593,784.532,32.9807,784.039,32.9807Z" stroke-opacity="0.184331" stroke="none" stroke-width="4" fill-opacity="0.471017" fill="#000000" stroke-miterlimit="4" stroke-linejoin="miter" stroke-linecap="butt" stroke-dasharray="none" stroke-dashoffset="0" fill-rule="evenodd" opacity="0.5"/>
    <path id="yellow_stroke" d="M1301.68,18.3208C1300.13,16.7736,1298.27,16,1296.08,16L7.92263,16C5.73486,16,3.86748,16.7735,2.32048,18.3205C0.773494,19.8675,0,21.7349,0,23.9226L0,112.077C0,114.265,0.773475,116.132,2.32042,117.679C3.86744,119.226,5.73484,120,7.92263,120L504,120L504,141.077C504,143.265,504.774,145.132,506.321,146.679C507.868,148.226,509.735,149,511.923,149L796.077,149C798.265,149,800.132,148.226,801.679,146.679C803.227,145.132,804,143.265,804,141.077L804,120L1296.08,120C1298.27,120,1300.13,119.226,1301.68,117.679C1303.23,116.132,1304,114.265,1304,112.077L1304,23.9226C1304,21.7351,1303.23,19.8678,1301.68,18.3208ZM7.92263,20L1296.08,20C1297.16,20,1298.09,20.3829,1298.85,21.1486C1299.62,21.9145,1300,22.8392,1300,23.9226L1300,112.077C1300,113.16,1299.62,114.085,1298.85,114.851C1298.09,115.617,1297.16,116,1296.08,116L800,116L800,141.077C800,142.16,799.617,143.085,798.851,143.851C798.085,144.617,797.16,145,796.077,145L511.923,145C510.84,145,509.915,144.617,509.149,143.851C508.383,143.085,508,142.16,508,141.077L508,116L7.92263,116C6.83948,116,5.91493,115.617,5.14897,114.851C4.38299,114.085,4,113.16,4,112.077L4,23.9226C4,22.8394,4.38297,21.9149,5.14891,21.1489C5.91486,20.383,6.83943,20,7.92263,20Z" fill="#ffa900" stroke="none" fill-rule="evenodd" fill-opacity="1" stroke-width="1"/>
    <path id="yellow_stroke-2" d="M19.9613,31.9807C18.8621,31.9807,17.9238,32.3693,17.1466,33.1466C16.3693,33.9238,15.9807,34.8621,15.9807,35.9613L15.9807,100.039C15.9807,101.138,16.3694,102.077,17.1469,102.854C17.9241,103.631,18.8622,104.019,19.9613,104.019L519.981,104.019L519.981,127.039C519.981,128.138,520.37,129.076,521.147,129.853C521.924,130.63,522.862,131.019,523.961,131.019L784.039,131.019C785.138,131.019,786.076,130.63,786.853,129.853C787.63,129.076,788.019,128.138,788.019,127.039L788.019,104.019L1284.04,104.019C1285.14,104.019,1286.07,103.631,1286.85,102.854C1287.63,102.077,1288.02,101.138,1288.02,100.039L1288.02,35.9613C1288.02,34.8621,1287.63,33.9236,1286.85,33.1459C1286.07,32.3691,1285.14,31.9807,1284.04,31.9807C1284.04,31.9807,19.9613,31.9807,19.9613,31.9807ZM19.9807,35.9807L19.9807,100.019L523.981,100.019L523.981,127.019L784.019,127.019L784.019,100.019L1284.02,100.019L1284.02,35.9807Z" fill="#ffa900" fill-opacity="1" stroke="none" fill-rule="evenodd" stroke-width="1"/>
    <g transform="translate(652.5,22) translate(-140.5,-22)">
        <rect id="Rectangle" fill="#082052" width="281" height="44" rx="4" stroke="none" stroke-width="1" fill-rule="evenodd" transform="translate(-512,0) translate(512,0)"/>
        <rect id="Rectangle-2" stroke="url(#Gradient-1)" stroke-width="4" fill="url(#Gradient-2)" width="277" height="36" rx="2" fill-rule="evenodd" transform="translate(-512,0) translate(514,2)"/>
    </g>
    <g transform="translate(652,82) translate(-644,-58)">
        <rect id="r-88" width="4" height="4" fill="#ffa900" stroke="none" stroke-width="1" fill-rule="evenodd" transform="translate(842,2) translate(-2,-2)"/>
        <rect id="r-86" width="4" height="4" fill="#ffa900" stroke="none" stroke-width="1" fill-rule="evenodd" transform="translate(898,2) translate(-2,-2)"/>
        <rect id="r-84" width="4" height="4" fill="#ffa900" stroke="none" stroke-width="1" fill-rule="evenodd" transform="translate(954,2) translate(-2,-2)"/>
        <rect id="r-82" width="4" height="4" fill="#ffa900" stroke="none" stroke-width="1" fill-rule="evenodd" transform="translate(1010,2) translate(-2,-2)"/>
        <rect id="r-80" width="4" height="4" fill="#ffa900" stroke="none" stroke-width="1" fill-rule="evenodd" transform="translate(1066,2) translate(-2,-2)"/>
        <rect id="r-78" width="4" height="4" fill="#ffa900" stroke="none" stroke-width="1" fill-rule="evenodd" transform="translate(1122,2) translate(-2,-2)"/>
        <rect id="r-76" width="4" height="4" fill="#ffa900" stroke="none" stroke-width="1" fill-rule="evenodd" transform="translate(1178,2) translate(-2,-2)"/>
        <rect id="r-74" width="4" height="4" fill="#ffa900" stroke="none" stroke-width="1" fill-rule="evenodd" transform="translate(1234,2) translate(-2,-2)"/>
        <rect id="r-72" width="4" height="4" fill="#ffa900" stroke="none" stroke-width="1" fill-rule="evenodd" transform="translate(1286,2) translate(-2,-2)"/>
        <rect id="r-70" width="4" height="4" fill="#ffa900" stroke="none" stroke-width="1" fill-rule="evenodd" transform="translate(1286,58) translate(-2,-2)"/>
        <rect id="r-68" width="4" height="4" fill="#ffa900" stroke="none" stroke-width="1" fill-rule="evenodd" transform="translate(1262,86) translate(-2,-2)"/>
        <rect id="r-66" width="4" height="4" fill="#ffa900" stroke="none" stroke-width="1" fill-rule="evenodd" transform="translate(1206,86) translate(-2,-2)"/>
        <rect id="r-64" width="4" height="4" fill="#ffa900" stroke="none" stroke-width="1" fill-rule="evenodd" transform="translate(1150,86) translate(-2,-2)"/>
        <rect id="r-62" width="4" height="4" fill="#ffa900" stroke="none" stroke-width="1" fill-rule="evenodd" transform="translate(1094,86) translate(-2,-2)"/>
        <rect id="r-60" width="4" height="4" fill="#ffa900" stroke="none" stroke-width="1" fill-rule="evenodd" transform="translate(1038,86) translate(-2,-2)"/>
        <rect id="r-58" width="4" height="4" fill="#ffa900" stroke="none" stroke-width="1" fill-rule="evenodd" transform="translate(982,86) translate(-2,-2)"/>
        <rect id="r-56" width="4" height="4" fill="#ffa900" stroke="none" stroke-width="1" fill-rule="evenodd" transform="translate(926,86) translate(-2,-2)"/>
        <rect id="r-54" width="4" height="4" fill="#ffa900" stroke="none" stroke-width="1" fill-rule="evenodd" transform="translate(870,86) translate(-2,-2)"/>
        <rect id="r-52" width="4" height="4" fill="#ffa900" stroke="none" stroke-width="1" fill-rule="evenodd" transform="translate(814,86) translate(-2,-2)"/>
        <rect id="r-50" width="4" height="4" fill="#ffa900" stroke="none" stroke-width="1" fill-rule="evenodd" transform="translate(786,114) translate(-2,-2)"/>
        <rect id="r-48" width="4" height="4" fill="#ffa900" stroke="none" stroke-width="1" fill-rule="evenodd" transform="translate(730,114) translate(-2,-2)"/>
        <rect id="r-46" width="4" height="4" fill="#ffa900" stroke="none" stroke-width="1" fill-rule="evenodd" transform="translate(674,114) translate(-2,-2)"/>
        <rect id="r-44" width="4" height="4" fill="#ffa900" stroke="none" stroke-width="1" fill-rule="evenodd" transform="translate(618,114) translate(-2,-2)"/>
        <rect id="r-42" width="4" height="4" fill="#ffa900" stroke="none" stroke-width="1" fill-rule="evenodd" transform="translate(562,114) translate(-2,-2)"/>
        <rect id="r-40" width="4" height="4" fill="#ffa900" stroke="none" stroke-width="1" fill-rule="evenodd" transform="translate(506,114) translate(-2,-2)"/>
        <rect id="r-38" width="4" height="4" fill="#ffa900" stroke="none" stroke-width="1" fill-rule="evenodd" transform="translate(478,86) translate(-2,-2)"/>
        <rect id="r-36" width="4" height="4" fill="#ffa900" stroke="none" stroke-width="1" fill-rule="evenodd" transform="translate(422,86) translate(-2,-2)"/>
        <rect id="r-34" width="4" height="4" fill="#ffa900" stroke="none" stroke-width="1" fill-rule="evenodd" transform="translate(366,86) translate(-2,-2)"/>
        <rect id="r-32" width="4" height="4" fill="#ffa900" stroke="none" stroke-width="1" fill-rule="evenodd" transform="translate(310,86) translate(-2,-2)"/>
        <rect id="r-30" width="4" height="4" fill="#ffa900" stroke="none" stroke-width="1" fill-rule="evenodd" transform="translate(254,86) translate(-2,-2)"/>
        <rect id="r-28" width="4" height="4" fill="#ffa900" stroke="none" stroke-width="1" fill-rule="evenodd" transform="translate(198,86) translate(-2,-2)"/>
        <rect id="r-26" width="4" height="4" fill="#ffa900" stroke="none" stroke-width="1" fill-rule="evenodd" transform="translate(142,86) translate(-2,-2)"/>
        <rect id="r-24" width="4" height="4" fill="#ffa900" stroke="none" stroke-width="1" fill-rule="evenodd" transform="translate(86,86) translate(-2,-2)"/>
        <rect id="r-22" width="4" height="4" fill="#ffa900" stroke="none" stroke-width="1" fill-rule="evenodd" transform="translate(30,86) translate(-2,-2)"/>
        <rect id="r-20" width="4" height="4" fill="#ffa900" stroke="none" stroke-width="1" fill-rule="evenodd" transform="translate(2,58) translate(-2,-2)"/>
        <rect id="r-18" width="4" height="4" fill="#ffa900" stroke="none" stroke-width="1" fill-rule="evenodd" transform="translate(2,2) translate(-2,-2)"/>
        <rect id="r-16" width="4" height="4" fill="#ffa900" stroke="none" stroke-width="1" fill-rule="evenodd" transform="translate(58,2) translate(-2,-2)"/>
        <rect id="r-14" width="4" height="4" fill="#ffa900" stroke="none" stroke-width="1" fill-rule="evenodd" transform="translate(114,2) translate(-2,-2)"/>
        <rect id="r-12" width="4" height="4" fill="#ffa900" stroke="none" stroke-width="1" fill-rule="evenodd" transform="translate(170,2) translate(-2,-2)"/>
        <rect id="r-10" width="4" height="4" fill="#ffa900" stroke="none" stroke-width="1" fill-rule="evenodd" transform="translate(226,2) translate(-2,-2)"/>
        <rect id="r-8" width="4" height="4" fill="#ffa900" stroke="none" stroke-width="1" fill-rule="evenodd" transform="translate(282,2) translate(-2,-2)"/>
        <rect id="r-6" width="4" height="4" fill="#ffa900" stroke="none" stroke-width="1" fill-rule="evenodd" transform="translate(338,2) translate(-2,-2)"/>
        <rect id="r-4" width="4" height="4" fill="#ffa900" stroke="none" stroke-width="1" fill-rule="evenodd" transform="translate(394,2) translate(-2,-2)"/>
        <rect id="r-2" width="4" height="4" fill="#ffa900" stroke="none" stroke-width="1" fill-rule="evenodd" transform="translate(450,2) translate(-2,-2)"/>
    </g>
    <g transform="translate(652,82) translate(-644,-58)">
        <rect id="r-89" width="4" height="4" fill="#ffa900" stroke="none" stroke-width="1" fill-rule="evenodd" transform="translate(814,2) translate(-2,-2)"/>
        <rect id="r-87" width="4" height="4" fill="#ffa900" stroke="none" stroke-width="1" fill-rule="evenodd" transform="translate(870,2) translate(-2,-2)"/>
        <rect id="r-85" width="4" height="4" fill="#ffa900" stroke="none" stroke-width="1" fill-rule="evenodd" transform="translate(926,2) translate(-2,-2)"/>
        <rect id="r-83" width="4" height="4" fill="#ffa900" stroke="none" stroke-width="1" fill-rule="evenodd" transform="translate(982,2) translate(-2,-2)"/>
        <rect id="r-81" width="4" height="4" fill="#ffa900" stroke="none" stroke-width="1" fill-rule="evenodd" transform="translate(1038,2) translate(-2,-2)"/>
        <rect id="r-79" width="4" height="4" fill="#ffa900" stroke="none" stroke-width="1" fill-rule="evenodd" transform="translate(1094,2) translate(-2,-2)"/>
        <rect id="r-77" width="4" height="4" fill="#ffa900" stroke="none" stroke-width="1" fill-rule="evenodd" transform="translate(1150,2) translate(-2,-2)"/>
        <rect id="r-75" width="4" height="4" fill="#ffa900" stroke="none" stroke-width="1" fill-rule="evenodd" transform="translate(1206,2) translate(-2,-2)"/>
        <rect id="r-73" width="4" height="4" fill="#ffa900" stroke="none" stroke-width="1" fill-rule="evenodd" transform="translate(1262,2) translate(-2,-2)"/>
        <rect id="r-71" width="4" height="4" fill="#ffa900" stroke="none" stroke-width="1" fill-rule="evenodd" transform="translate(1286,30) translate(-2,-2)"/>
        <rect id="r-69" width="4" height="4" fill="#ffa900" stroke="none" stroke-width="1" fill-rule="evenodd" transform="translate(1286,86) translate(-2,-2)"/>
        <rect id="r-67" width="4" height="4" fill="#ffa900" stroke="none" stroke-width="1" fill-rule="evenodd" transform="translate(1234,86) translate(-2,-2)"/>
        <rect id="r-65" width="4" height="4" fill="#ffa900" stroke="none" stroke-width="1" fill-rule="evenodd" transform="translate(1178,86) translate(-2,-2)"/>
        <rect id="r-63" width="4" height="4" fill="#ffa900" stroke="none" stroke-width="1" fill-rule="evenodd" transform="translate(1122,86) translate(-2,-2)"/>
        <rect id="r-61" width="4" height="4" fill="#ffa900" stroke="none" stroke-width="1" fill-rule="evenodd" transform="translate(1066,86) translate(-2,-2)"/>
        <rect id="r-59" width="4" height="4" fill="#ffa900" stroke="none" stroke-width="1" fill-rule="evenodd" transform="translate(1010,86) translate(-2,-2)"/>
        <rect id="r-57" width="4" height="4" fill="#ffa900" stroke="none" stroke-width="1" fill-rule="evenodd" transform="translate(954,86) translate(-2,-2)"/>
        <rect id="r-55" width="4" height="4" fill="#ffa900" stroke="none" stroke-width="1" fill-rule="evenodd" transform="translate(898,86) translate(-2,-2)"/>
        <rect id="r-53" width="4" height="4" fill="#ffa900" stroke="none" stroke-width="1" fill-rule="evenodd" transform="translate(842,86) translate(-2,-2)"/>
        <rect id="r-51" width="4" height="4" fill="#ffa900" stroke="none" stroke-width="1" fill-rule="evenodd" transform="translate(786,86) translate(-2,-2)"/>
        <rect id="r-49" width="4" height="4" fill="#ffa900" stroke="none" stroke-width="1" fill-rule="evenodd" transform="translate(758,114) translate(-2,-2)"/>
        <rect id="r-47" width="4" height="4" fill="#ffa900" stroke="none" stroke-width="1" fill-rule="evenodd" transform="translate(702,114) translate(-2,-2)"/>
        <rect id="r-45" width="4" height="4" fill="#ffa900" stroke="none" stroke-width="1" fill-rule="evenodd" transform="translate(646,114) translate(-2,-2)"/>
        <rect id="r-43" width="4" height="4" fill="#ffa900" stroke="none" stroke-width="1" fill-rule="evenodd" transform="translate(590,114) translate(-2,-2)"/>
        <rect id="r-41" width="4" height="4" fill="#ffa900" stroke="none" stroke-width="1" fill-rule="evenodd" transform="translate(534,114) translate(-2,-2)"/>
        <rect id="r-39" width="4" height="4" fill="#ffa900" stroke="none" stroke-width="1" fill-rule="evenodd" transform="translate(506,86) translate(-2,-2)"/>
        <rect id="r-37" width="4" height="4" fill="#ffa900" stroke="none" stroke-width="1" fill-rule="evenodd" transform="translate(450,86) translate(-2,-2)"/>
        <rect id="r-35" width="4" height="4" fill="#ffa900" stroke="none" stroke-width="1" fill-rule="evenodd" transform="translate(394,86) translate(-2,-2)"/>
        <rect id="r-33" width="4" height="4" fill="#ffa900" stroke="none" stroke-width="1" fill-rule="evenodd" transform="translate(338,86) translate(-2,-2)"/>
        <rect id="r-31" width="4" height="4" fill="#ffa900" stroke="none" stroke-width="1" fill-rule="evenodd" transform="translate(282,86) translate(-2,-2)"/>
        <rect id="r-29" width="4" height="4" fill="#ffa900" stroke="none" stroke-width="1" fill-rule="evenodd" transform="translate(226,86) translate(-2,-2)"/>
        <rect id="r-27" width="4" height="4" fill="#ffa900" stroke="none" stroke-width="1" fill-rule="evenodd" transform="translate(170,86) translate(-2,-2)"/>
        <rect id="r-25" width="4" height="4" fill="#ffa900" stroke="none" stroke-width="1" fill-rule="evenodd" transform="translate(114,86) translate(-2,-2)"/>
        <rect id="r-23" width="4" height="4" fill="#ffa900" stroke="none" stroke-width="1" fill-rule="evenodd" transform="translate(58,86) translate(-2,-2)"/>
        <rect id="r-21" width="4" height="4" fill="#ffa900" stroke="none" stroke-width="1" fill-rule="evenodd" transform="translate(2,86) translate(-2,-2)"/>
        <rect id="r-19" width="4" height="4" fill="#ffa900" stroke="none" stroke-width="1" fill-rule="evenodd" transform="translate(2,30) translate(-2,-2)"/>
        <rect id="r-17" width="4" height="4" fill="#ffa900" stroke="none" stroke-width="1" fill-rule="evenodd" transform="translate(30,2) translate(-2,-2)"/>
        <rect id="r-15" width="4" height="4" fill="#ffa900" stroke="none" stroke-width="1" fill-rule="evenodd" transform="translate(86,2) translate(-2,-2)"/>
        <rect id="r-13" width="4" height="4" fill="#ffa900" stroke="none" stroke-width="1" fill-rule="evenodd" transform="translate(142,2) translate(-2,-2)"/>
        <rect id="r-11" width="4" height="4" fill="#ffa900" stroke="none" stroke-width="1" fill-rule="evenodd" transform="translate(198,2) translate(-2,-2)"/>
        <rect id="r-9" width="4" height="4" fill="#ffa900" stroke="none" stroke-width="1" fill-rule="evenodd" transform="translate(254,2) translate(-2,-2)"/>
        <rect id="r-7" width="4" height="4" fill="#ffa900" stroke="none" stroke-width="1" fill-rule="evenodd" transform="translate(310,2) translate(-2,-2)"/>
        <rect id="r-5" width="4" height="4" fill="#ffa900" stroke="none" stroke-width="1" fill-rule="evenodd" transform="translate(366,2) translate(-2,-2)"/>
        <rect id="r-3" width="4" height="4" fill="#ffa900" stroke="none" stroke-width="1" fill-rule="evenodd" transform="translate(422,2) translate(-2,-2)"/>
        <rect id="r-1" width="4" height="4" fill="#ffa900" stroke="none" stroke-width="1" fill-rule="evenodd" transform="translate(478,2) translate(-2,-2)"/>
    </g>
</svg>
