<svg width="13" height="10" viewBox="0 0 13 10" fill="none" xmlns="http://www.w3.org/2000/svg">
<path d="M11.5 5H1M1 5L5 1M1 5L5 9" stroke="#1D9CF9" stroke-width="1.5" stroke-linecap="round" stroke-linejoin="round"/>
</svg>
