<svg width="8" height="9" viewBox="0 0 8 9" fill="none" xmlns="http://www.w3.org/2000/svg">
<rect y="4" width="8" height="5" rx="1" fill="#798CB7"/>
<path d="M1.5 3C1.5 1.61929 2.61929 0.5 4 0.5C5.38071 0.5 6.5 1.61929 6.5 3V4.5H1.5V3Z" stroke="#798CB7"/>
</svg>
