<svg width="22" height="25" viewBox="0 0 22 25" fill="none" xmlns="http://www.w3.org/2000/svg">
<circle cx="5" cy="7" r="4" stroke="white" stroke-width="2" stroke-linecap="round"/>
<circle cx="16.5" cy="17.5" r="4" stroke="white" stroke-width="2" stroke-linecap="round"/>
<path d="M18 1L3.5 23.5" stroke="white" stroke-width="2" stroke-linecap="round"/>
</svg>
