<svg width="16" height="16" viewBox="0 0 16 16" fill="none" xmlns="http://www.w3.org/2000/svg">
<path fill-rule="evenodd" clip-rule="evenodd" d="M16 8C16 12.4183 12.4183 16 8 16C3.58172 16 0 12.4183 0 8C0 3.58172 3.58172 0 8 0C12.4183 0 16 3.58172 16 8ZM6.59025 4.58305C6.54167 4.00003 7.00176 3.5 7.5868 3.5H8.4132C8.99824 3.5 9.45833 4.00003 9.40975 4.58305L9.07641 8.58305C9.03322 9.10134 8.59996 9.5 8.07987 9.5H7.92013C7.40004 9.5 6.96678 9.10134 6.92359 8.58305L6.59025 4.58305ZM8 10.5C7.44772 10.5 7 10.9477 7 11.5C7 12.0523 7.44772 12.5 8 12.5C8.55229 12.5 9 12.0523 9 11.5C9 10.9477 8.55229 10.5 8 10.5Z" fill="white"/>
</svg>
