<svg width="16" height="18" viewBox="0 0 16 18" fill="none" xmlns="http://www.w3.org/2000/svg">
<path fill-rule="evenodd" clip-rule="evenodd" d="M10.25 1.5H10.5C11.0523 1.5 11.5 1.94772 11.5 2.5C11.5 3.05228 11.0523 3.5 10.5 3.5H9V2.75C9 2.05964 9.55964 1.5 10.25 1.5ZM13 2.5C13 2.85555 12.9258 3.19377 12.792 3.5H13C14.6569 3.5 16 4.84315 16 6.5V8.5C16 9.05228 15.5523 9.5 15 9.5V15C15 16.6569 13.6569 18 12 18H4C2.34315 18 1 16.6569 1 15V9.5C0.447715 9.5 0 9.05228 0 8.5V6.5C0 4.84315 1.34315 3.5 3 3.5H3.20802C3.07422 3.19377 3 2.85555 3 2.5C3 1.11929 4.11929 0 5.5 0H5.75C6.68008 0 7.50231 0.461725 8 1.16846C8.49768 0.461725 9.31992 0 10.25 0H10.5C11.8807 0 13 1.11929 13 2.5ZM8.5 5H7.5H7H5.5H3C2.17157 5 1.5 5.67157 1.5 6.5V8H2.5H13.5H14.5V6.5C14.5 5.67157 13.8284 5 13 5H10.5H9H8.5ZM7 3.5V2.75C7 2.05964 6.44036 1.5 5.75 1.5H5.5C4.94772 1.5 4.5 1.94772 4.5 2.5C4.5 3.05228 4.94772 3.5 5.5 3.5H7ZM2.5 9.5V15C2.5 15.8284 3.17157 16.5 4 16.5H12C12.8284 16.5 13.5 15.8284 13.5 15V9.5H2.5Z" fill="#EDF1FA"/>
</svg>
