<?xml version="1.0" encoding="UTF-8"?>
<svg width="16px" height="16px" viewBox="0 0 16 16" version="1.1" xmlns="http://www.w3.org/2000/svg" xmlns:xlink="http://www.w3.org/1999/xlink">
    <!-- Generator: Sketch 54.1 (76490) - https://sketchapp.com -->
    <title>Provaiders/Aristocrat</title>
    <desc>Created with Sketch.</desc>
    <defs>
        <path d="M8,12 C4.6862915,12 2,9.3137085 2,6 C2,2.6862915 4.6862915,0 8,0 C11.3137085,0 14,2.6862915 14,6 C14,9.3137085 11.3137085,12 8,12 Z M2,14 L14,14 L14,16 L2,16 L2,14 Z" id="path-1"></path>
    </defs>
    <g id="Provaiders/Aristocrat" stroke="none" stroke-width="1" fill="none" fill-rule="evenodd">
        <mask id="mask-2" fill="white">
            <use xlink:href="#path-1"></use>
        </mask>
        <use id="Aristocrat" fill="#000000" xlink:href="#path-1"></use>
    </g>
</svg>