<?xml version="1.0" encoding="UTF-8"?>
<svg width="16px" height="16px" viewBox="0 0 16 16" version="1.1" xmlns="http://www.w3.org/2000/svg" xmlns:xlink="http://www.w3.org/1999/xlink">
    <!-- Generator: Sketch 54.1 (76490) - https://sketchapp.com -->
    <title>Provaiders/Evoplay</title>
    <desc>Created with Sketch.</desc>
    <defs>
        <path d="M1.50129298,7.5638335 L3.8085598,7.5638335 C3.76139602,7.21470884 3.63888295,6.93586008 3.44083269,6.72766302 C3.24259452,6.51946597 2.98573046,6.41517954 2.67005262,6.41517954 C2.3609514,6.41517954 2.10408734,6.51777484 1.89927255,6.72258963 C1.69426985,6.92759232 1.5617979,7.20794431 1.50129298,7.5638335 Z M2.82112701,10.808175 C2.00167994,10.808175 1.32654275,10.5479286 0.796091225,10.0272481 C0.265263898,9.50675547 -5.58139534e-05,8.83011504 -5.58139534e-05,7.99713892 C-5.58139534e-05,7.21132658 0.251922751,6.54614826 0.755691977,6.00216769 C1.2594612,5.45799922 1.89758142,5.18610288 2.67005262,5.18610288 C3.52294651,5.18610288 4.17459577,5.468146 4.6246246,6.03242015 C5.07465343,6.5966943 5.2997618,7.29174926 5.2997618,8.11796086 C5.2997618,8.19857145 5.29299728,8.33311034 5.27946823,8.52101382 L1.52139865,8.52101382 C1.59524472,8.86356186 1.74631912,9.12568722 1.97480975,9.30682617 C2.20311247,9.48834093 2.49192012,9.57891041 2.84123269,9.57891041 C3.31813172,9.57891041 3.7548194,9.39438919 4.15110784,9.02478305 L5.02767757,9.80063651 C4.48369699,10.4723914 3.74824278,10.808175 2.82112701,10.808175 Z M7.07298814,10.7275456 L4.94704818,5.28680036 L6.56921891,5.28680036 L7.7781899,8.90394232 L8.99749557,5.28680036 L10.5894138,5.28680036 L8.46347388,10.7275456 L7.07298814,10.7275456 Z M13.088004,9.48828456 C13.5111626,9.48828456 13.8503284,9.34566582 14.1056892,9.06005253 C14.3608621,8.77462715 14.4886365,8.42024119 14.4886365,7.99708255 C14.4886365,7.58745297 14.3557887,7.23644927 14.090469,6.94425936 C13.8251493,6.65206945 13.4842924,6.50588055 13.0678983,6.50588055 C12.6447397,6.50588055 12.305386,6.64868719 12.050401,6.93411257 C11.7948522,7.21972586 11.6674537,7.57392392 11.6674537,7.99708255 C11.6674537,8.40690004 11.7999256,8.75771583 12.0654332,9.04990574 C12.3305651,9.34228356 12.671422,9.48828456 13.088004,9.48828456 Z M15.1587003,9.99205379 C14.5976205,10.5362223 13.9006865,10.8081186 13.0678983,10.8081186 C12.2349222,10.8081186 11.5415583,10.5379134 10.9872431,9.99712718 C10.4331157,9.45652887 10.1559581,8.78984733 10.1559581,7.99708255 C10.1559581,7.2112702 10.436498,6.54627979 10.9973899,6.00211132 C11.5580939,5.45813075 12.2550279,5.18604651 13.088004,5.18604651 C13.9207922,5.18604651 14.6145318,5.45643962 15.1686592,5.99703793 C15.7227866,6.53782414 15.9999442,7.20469358 15.9999442,7.99708255 C15.9999442,8.7830828 15.7192164,9.44807322 15.1587003,9.99205379 Z" id="path-1"></path>
    </defs>
    <g id="Provaiders/Evoplay" stroke="none" stroke-width="1" fill="none" fill-rule="evenodd">
        <mask id="mask-2" fill="white">
            <use xlink:href="#path-1"></use>
        </mask>
        <use id="Combined-Shape" fill="#000000" fill-rule="nonzero" xlink:href="#path-1"></use>
    </g>
</svg>