<?xml version="1.0" encoding="UTF-8"?>
<svg width="16px" height="16px" viewBox="0 0 16 16" version="1.1" xmlns="http://www.w3.org/2000/svg" xmlns:xlink="http://www.w3.org/1999/xlink">
    <!-- Generator: Sketch 54.1 (76490) - https://sketchapp.com -->
    <title>Provaiders/Novomatic</title>
    <desc>Created with Sketch.</desc>
    <defs>
        <polygon id="path-1" points="13 1 13 11 3.51893276 1 0 1 0 15 3 15 3 5 12.4630924 15 16 15 16 1"></polygon>
    </defs>
    <g id="Provaiders/Novomatic" stroke="none" stroke-width="1" fill="none" fill-rule="evenodd">
        <mask id="mask-2" fill="white">
            <use xlink:href="#path-1"></use>
        </mask>
        <use id="Novomatic" fill="#000000" xlink:href="#path-1"></use>
    </g>
</svg>