<?xml version="1.0" encoding="UTF-8"?>
<svg width="16px" height="16px" viewBox="0 0 16 16" version="1.1" xmlns="http://www.w3.org/2000/svg" xmlns:xlink="http://www.w3.org/1999/xlink">
    <!-- Generator: Sketch 54.1 (76490) - https://sketchapp.com -->
    <title>Provaiders/Spinomenal</title>
    <desc>Created with Sketch.</desc>
    <defs>
        <path d="M13.583,6 L5,6 L5,5 L13.583,5 C14.527,5 15.381,5.383 16,6.001 L16,4.958 C15,1 12,0 8,0 L0,0 L0,7.583 C0.002,8.918 1.082,9.998 2.416,10 L11,10 L11,11 L2.416,11 C1.472,11 0.618,10.617 0,9.999 L0,10 C1,14 4.686,16 8,16 L16,16 L16,8.417 C15.997,7.082 14.917,6.002 13.583,6" id="path-1"></path>
    </defs>
    <g id="Provaiders/Spinomenal" stroke="none" stroke-width="1" fill="none" fill-rule="evenodd">
        <mask id="mask-2" fill="white">
            <use xlink:href="#path-1"></use>
        </mask>
        <use id="Spinomenal" fill="#000000" xlink:href="#path-1"></use>
    </g>
</svg>