<?xml version="1.0" encoding="UTF-8"?>
<svg width="16px" height="16px" viewBox="0 0 16 16" version="1.1" xmlns="http://www.w3.org/2000/svg" xmlns:xlink="http://www.w3.org/1999/xlink">
    <!-- Generator: Sketch 54.1 (76490) - https://sketchapp.com -->
    <title>Provaiders/Tomhorn</title>
    <desc>Created with Sketch.</desc>
    <defs>
        <path d="M13.6917564,6.88677146 C13.6094201,6.46293334 13.4801166,6.05093466 13.3057483,5.65667725 C13.8240916,5.5707741 14.3137592,5.32689001 14.7013681,4.93886918 C14.8736724,4.76629968 15.0178451,4.5732537 15.1323136,4.36595302 C15.2354757,4.56837203 15.3296005,4.7746349 15.4144145,4.9841564 C15.996971,6.42322803 16.1478366,8.00098893 15.8537087,9.52374386 C15.5545178,11.074779 14.7984476,12.5148165 13.6582097,13.6553302 C12.8939983,14.4207305 11.9940894,15.0155086 11.0126954,15.4134825 C9.57512121,15.9969382 7.99887659,16.1480783 6.47814847,15.853487 C4.92873736,15.5542083 3.49015088,14.7972702 2.35066784,13.6556399 C1.92041183,13.2250643 1.92041183,12.5273842 2.35057352,12.0969031 C2.7804769,11.6664051 3.47741629,11.6664051 3.90731967,12.0969031 C4.46468809,12.6542028 5.11139112,13.0815576 5.82346683,13.3708363 C6.86259194,13.7931632 8.01081785,13.9032308 9.11214426,13.6892021 C10.2399513,13.4697439 11.2699368,12.9280163 12.1007848,12.0971627 C12.6576263,11.5392889 13.0845856,10.8919824 13.3738571,10.1789776 C13.7955145,9.13896522 13.9053556,7.98939071 13.6917564,6.88677146 Z M2.30812955,9.11322854 C2.39047481,9.53711293 2.51978955,9.94911612 2.6941875,10.3433483 C2.17590136,10.4292743 1.68629248,10.6731485 1.29872207,11.0611308 C1.12642028,11.2336978 0.982246173,11.4267438 0.867768368,11.634049 C0.764603957,11.4316073 0.670480602,11.2253426 0.585675721,11.0158436 C0.00302220683,9.57653232 -0.147892773,7.99877139 0.146369127,6.47632016 C0.445572423,4.92522097 1.2016426,3.48518345 2.34188048,2.34466982 C3.10577799,1.5793955 4.00580732,0.984569877 4.98739477,0.586517546 C6.42496899,0.00306176075 8.00121361,-0.148078279 9.52194173,0.146513 C11.0712702,0.445813704 12.5100223,1.20281293 13.6494224,2.3443601 C14.0796076,2.77486481 14.079565,3.47259148 13.6495167,3.90309686 C13.2196133,4.33359489 12.5226739,4.33359489 12.0927705,3.90309686 C11.5354021,3.34579722 10.8886991,2.9184424 10.1766234,2.62916369 C9.13749826,2.2068368 7.98927235,2.09676918 6.88794595,2.31079792 C5.76013886,2.53025605 4.73015338,3.07198365 3.89930541,3.90283727 C3.34246393,4.46071107 2.91550464,5.10801763 2.62623307,5.82102242 C2.2045189,6.8611748 2.09456012,8.01076304 2.30812955,9.11322854 Z" id="path-1"></path>
    </defs>
    <g id="Provaiders/Tomhorn" stroke="none" stroke-width="1" fill="none" fill-rule="evenodd">
        <mask id="mask-2" fill="white">
            <use xlink:href="#path-1"></use>
        </mask>
        <use id="Tomhorn" fill="#000000" fill-rule="nonzero" xlink:href="#path-1"></use>
    </g>
</svg>