<?xml version="1.0" encoding="UTF-8"?>
<svg width="16px" height="16px" viewBox="0 0 16 16" version="1.1" xmlns="http://www.w3.org/2000/svg" xmlns:xlink="http://www.w3.org/1999/xlink">
    <!-- Generator: Sketch 54.1 (76490) - https://sketchapp.com -->
    <title>Provaiders/Tvbet</title>
    <desc>Created with Sketch.</desc>
    <defs>
        <path d="M-1.84297022e-13,7.66959872 L4.09250793,7.66959872 L6.97696745,13.9995376 L2.88571856,13.9995376 L-1.84297022e-13,7.66959872 Z M11.9081216,2 L16,2 L11.0689718,14 L6.97709335,14 L11.9081216,2 Z" id="path-1"></path>
    </defs>
    <g id="Provaiders/Tvbet" stroke="none" stroke-width="1" fill="none" fill-rule="evenodd">
        <mask id="mask-2" fill="white">
            <use xlink:href="#path-1"></use>
        </mask>
        <use fill="#000000" xlink:href="#path-1"></use>
    </g>
</svg>