<?xml version="1.0" encoding="UTF-8" standalone="no"?>
<!-- Created with Keyshape -->
<svg xmlns="http://www.w3.org/2000/svg" width="310" height="79" viewBox="0 0 310 79" style="background: rgba(0,10,26,0.00);">
    <title>Jackpot_Gold_Mob_310x79</title>
    <desc>Created with Sketch.</desc>
    <defs>
        <symbol id="Symbol-2" preserveAspectRatio="none" width="129.562" height="32.6836" viewBox="0 0 129.562 32.6836" overflow="visible">
            <path id="summa" fill="#FEAE06" filter="url(#Filter-0)" d="M-51.9844,-5.35547C-51.9844,-4.11328,-52.4336,-3.11523,-53.332,-2.36133C-54.2305,-1.60742,-55.4883,-1.15625,-57.1055,-1.00781L-57.1055,1.39453L-58.7109,1.39453L-58.7109,-0.960938C-60.6172,-1,-62.2891,-1.33594,-63.7266,-1.96875L-63.7266,-5.0625C-63.0469,-4.72656,-62.2285,-4.42969,-61.2715,-4.17188C-60.3145,-3.91406,-59.4609,-3.76172,-58.7109,-3.71484L-58.7109,-7.34766L-59.4961,-7.65234C-61.043,-8.26172,-62.1387,-8.92383,-62.7832,-9.63867C-63.4277,-10.3535,-63.75,-11.2383,-63.75,-12.293C-63.75,-13.4258,-63.3066,-14.3574,-62.4199,-15.0879C-61.5332,-15.8184,-60.2969,-16.2617,-58.7109,-16.418L-58.7109,-18.2109L-57.1055,-18.2109L-57.1055,-16.4648C-55.3164,-16.3867,-53.6992,-16.0273,-52.2539,-15.3867L-53.3555,-12.6445C-54.5742,-13.1445,-55.8242,-13.4492,-57.1055,-13.5586L-57.1055,-10.1016C-55.582,-9.51562,-54.498,-9.00781,-53.8535,-8.57812C-53.209,-8.14844,-52.7363,-7.67578,-52.4355,-7.16016C-52.1348,-6.64453,-51.9844,-6.04297,-51.9844,-5.35547ZM-55.5117,-5.17969C-55.5117,-5.50781,-55.6445,-5.78516,-55.9102,-6.01172C-56.1758,-6.23828,-56.5742,-6.47266,-57.1055,-6.71484L-57.1055,-3.79688C-56.043,-3.97656,-55.5117,-4.4375,-55.5117,-5.17969ZM-60.2227,-12.293C-60.2227,-11.9492,-60.1035,-11.666,-59.8652,-11.4434C-59.627,-11.2207,-59.2422,-10.9922,-58.7109,-10.7578L-58.7109,-13.5117C-59.7188,-13.3633,-60.2227,-12.957,-60.2227,-12.293ZM-32.5742,-13.3008C-32.5742,-12.2305,-32.8984,-11.3203,-33.5469,-10.5703C-34.1953,-9.82031,-35.1055,-9.30469,-36.2773,-9.02344L-36.2773,-8.95312C-34.8945,-8.78125,-33.8477,-8.36133,-33.1367,-7.69336C-32.4258,-7.02539,-32.0703,-6.125,-32.0703,-4.99219C-32.0703,-3.34375,-32.668,-2.06055,-33.8633,-1.14258C-35.0586,-0.224609,-36.7656,0.234375,-38.9844,0.234375C-40.8438,0.234375,-42.4922,-0.0742188,-43.9297,-0.691406L-43.9297,-3.77344C-43.2656,-3.4375,-42.5352,-3.16406,-41.7383,-2.95312C-40.9414,-2.74219,-40.1523,-2.63672,-39.3711,-2.63672C-38.1758,-2.63672,-37.293,-2.83984,-36.7227,-3.24609C-36.1523,-3.65234,-35.8672,-4.30469,-35.8672,-5.20312C-35.8672,-6.00781,-36.1953,-6.57812,-36.8516,-6.91406C-37.5078,-7.25,-38.5547,-7.41797,-39.9922,-7.41797L-41.293,-7.41797L-41.293,-10.1953L-39.9688,-10.1953C-38.6406,-10.1953,-37.6699,-10.3691,-37.0566,-10.7168C-36.4434,-11.0645,-36.1367,-11.6602,-36.1367,-12.5039C-36.1367,-13.8008,-36.9492,-14.4492,-38.5742,-14.4492C-39.1367,-14.4492,-39.709,-14.3555,-40.291,-14.168C-40.873,-13.9805,-41.5195,-13.6562,-42.2305,-13.1953L-43.9062,-15.6914C-42.3438,-16.8164,-40.4805,-17.3789,-38.3164,-17.3789C-36.543,-17.3789,-35.1426,-17.0195,-34.1152,-16.3008C-33.0879,-15.582,-32.5742,-14.582,-32.5742,-13.3008ZM-18.2969,-8.56641C-18.2969,-5.57422,-18.7871,-3.35938,-19.7676,-1.92188C-20.748,-0.484375,-22.2578,0.234375,-24.2969,0.234375C-26.2734,0.234375,-27.7637,-0.507812,-28.7676,-1.99219C-29.7715,-3.47656,-30.2734,-5.66797,-30.2734,-8.56641C-30.2734,-11.5898,-29.7852,-13.8184,-28.8086,-15.252C-27.832,-16.6855,-26.3281,-17.4023,-24.2969,-17.4023C-22.3203,-17.4023,-20.8262,-16.6523,-19.8145,-15.1523C-18.8027,-13.6523,-18.2969,-11.457,-18.2969,-8.56641ZM-26.6758,-8.56641C-26.6758,-6.46484,-26.4941,-4.95898,-26.1309,-4.04883C-25.7676,-3.13867,-25.1562,-2.68359,-24.2969,-2.68359C-23.4531,-2.68359,-22.8438,-3.14453,-22.4688,-4.06641C-22.0938,-4.98828,-21.9062,-6.48828,-21.9062,-8.56641C-21.9062,-10.668,-22.0957,-12.1777,-22.4746,-13.0957C-22.8535,-14.0137,-23.4609,-14.4727,-24.2969,-14.4727C-25.1484,-14.4727,-25.7578,-14.0137,-26.125,-13.0957C-26.4922,-12.1777,-26.6758,-10.668,-26.6758,-8.56641ZM-4.59375,-8.56641C-4.59375,-5.57422,-5.08398,-3.35938,-6.06445,-1.92188C-7.04492,-0.484375,-8.55469,0.234375,-10.5938,0.234375C-12.5703,0.234375,-14.0605,-0.507812,-15.0645,-1.99219C-16.0684,-3.47656,-16.5703,-5.66797,-16.5703,-8.56641C-16.5703,-11.5898,-16.082,-13.8184,-15.1055,-15.252C-14.1289,-16.6855,-12.625,-17.4023,-10.5938,-17.4023C-8.61719,-17.4023,-7.12305,-16.6523,-6.11133,-15.1523C-5.09961,-13.6523,-4.59375,-11.457,-4.59375,-8.56641ZM-12.9727,-8.56641C-12.9727,-6.46484,-12.791,-4.95898,-12.4277,-4.04883C-12.0645,-3.13867,-11.4531,-2.68359,-10.5938,-2.68359C-9.75,-2.68359,-9.14062,-3.14453,-8.76562,-4.06641C-8.39062,-4.98828,-8.20312,-6.48828,-8.20312,-8.56641C-8.20312,-10.668,-8.39258,-12.1777,-8.77148,-13.0957C-9.15039,-14.0137,-9.75781,-14.4727,-10.5938,-14.4727C-11.4453,-14.4727,-12.0547,-14.0137,-12.4219,-13.0957C-12.7891,-12.1777,-12.9727,-10.668,-12.9727,-8.56641ZM9.10938,-8.56641C9.10938,-5.57422,8.61914,-3.35938,7.63867,-1.92188C6.6582,-0.484375,5.14844,0.234375,3.10938,0.234375C1.13281,0.234375,-0.357422,-0.507812,-1.36133,-1.99219C-2.36523,-3.47656,-2.86719,-5.66797,-2.86719,-8.56641C-2.86719,-11.5898,-2.37891,-13.8184,-1.40234,-15.252C-0.425781,-16.6855,1.07812,-17.4023,3.10938,-17.4023C5.08594,-17.4023,6.58008,-16.6523,7.5918,-15.1523C8.60352,-13.6523,9.10938,-11.457,9.10938,-8.56641ZM0.730469,-8.56641C0.730469,-6.46484,0.912109,-4.95898,1.27539,-4.04883C1.63867,-3.13867,2.25,-2.68359,3.10938,-2.68359C3.95312,-2.68359,4.5625,-3.14453,4.9375,-4.06641C5.3125,-4.98828,5.5,-6.48828,5.5,-8.56641C5.5,-10.668,5.31055,-12.1777,4.93164,-13.0957C4.55273,-14.0137,3.94531,-14.4727,3.10938,-14.4727C2.25781,-14.4727,1.64844,-14.0137,1.28125,-13.0957C0.914062,-12.1777,0.730469,-10.668,0.730469,-8.56641ZM22.8125,-8.56641C22.8125,-5.57422,22.3223,-3.35938,21.3418,-1.92188C20.3613,-0.484375,18.8516,0.234375,16.8125,0.234375C14.8359,0.234375,13.3457,-0.507812,12.3418,-1.99219C11.3379,-3.47656,10.8359,-5.66797,10.8359,-8.56641C10.8359,-11.5898,11.3242,-13.8184,12.3008,-15.252C13.2773,-16.6855,14.7812,-17.4023,16.8125,-17.4023C18.7891,-17.4023,20.2832,-16.6523,21.2949,-15.1523C22.3066,-13.6523,22.8125,-11.457,22.8125,-8.56641ZM14.4336,-8.56641C14.4336,-6.46484,14.6152,-4.95898,14.9785,-4.04883C15.3418,-3.13867,15.9531,-2.68359,16.8125,-2.68359C17.6562,-2.68359,18.2656,-3.14453,18.6406,-4.06641C19.0156,-4.98828,19.2031,-6.48828,19.2031,-8.56641C19.2031,-10.668,19.0137,-12.1777,18.6348,-13.0957C18.2559,-14.0137,17.6484,-14.4727,16.8125,-14.4727C15.9609,-14.4727,15.3516,-14.0137,14.9844,-13.0957C14.6172,-12.1777,14.4336,-10.668,14.4336,-8.56641ZM36.5156,-8.56641C36.5156,-5.57422,36.0254,-3.35938,35.0449,-1.92188C34.0645,-0.484375,32.5547,0.234375,30.5156,0.234375C28.5391,0.234375,27.0488,-0.507812,26.0449,-1.99219C25.041,-3.47656,24.5391,-5.66797,24.5391,-8.56641C24.5391,-11.5898,25.0273,-13.8184,26.0039,-15.252C26.9805,-16.6855,28.4844,-17.4023,30.5156,-17.4023C32.4922,-17.4023,33.9863,-16.6523,34.998,-15.1523C36.0098,-13.6523,36.5156,-11.457,36.5156,-8.56641ZM28.1367,-8.56641C28.1367,-6.46484,28.3184,-4.95898,28.6816,-4.04883C29.0449,-3.13867,29.6562,-2.68359,30.5156,-2.68359C31.3594,-2.68359,31.9688,-3.14453,32.3438,-4.06641C32.7188,-4.98828,32.9062,-6.48828,32.9062,-8.56641C32.9062,-10.668,32.7168,-12.1777,32.3379,-13.0957C31.959,-14.0137,31.3516,-14.4727,30.5156,-14.4727C29.6641,-14.4727,29.0547,-14.0137,28.6875,-13.0957C28.3203,-12.1777,28.1367,-10.668,28.1367,-8.56641ZM50.2188,-8.56641C50.2188,-5.57422,49.7285,-3.35938,48.748,-1.92188C47.7676,-0.484375,46.2578,0.234375,44.2188,0.234375C42.2422,0.234375,40.752,-0.507812,39.748,-1.99219C38.7441,-3.47656,38.2422,-5.66797,38.2422,-8.56641C38.2422,-11.5898,38.7305,-13.8184,39.707,-15.252C40.6836,-16.6855,42.1875,-17.4023,44.2188,-17.4023C46.1953,-17.4023,47.6895,-16.6523,48.7012,-15.1523C49.7129,-13.6523,50.2188,-11.457,50.2188,-8.56641ZM41.8398,-8.56641C41.8398,-6.46484,42.0215,-4.95898,42.3848,-4.04883C42.748,-3.13867,43.3594,-2.68359,44.2188,-2.68359C45.0625,-2.68359,45.6719,-3.14453,46.0469,-4.06641C46.4219,-4.98828,46.6094,-6.48828,46.6094,-8.56641C46.6094,-10.668,46.4199,-12.1777,46.041,-13.0957C45.6621,-14.0137,45.0547,-14.4727,44.2188,-14.4727C43.3672,-14.4727,42.7578,-14.0137,42.3906,-13.0957C42.0234,-12.1777,41.8398,-10.668,41.8398,-8.56641ZM63.9219,-8.56641C63.9219,-5.57422,63.4316,-3.35938,62.4512,-1.92188C61.4707,-0.484375,59.9609,0.234375,57.9219,0.234375C55.9453,0.234375,54.4551,-0.507812,53.4512,-1.99219C52.4473,-3.47656,51.9453,-5.66797,51.9453,-8.56641C51.9453,-11.5898,52.4336,-13.8184,53.4102,-15.252C54.3867,-16.6855,55.8906,-17.4023,57.9219,-17.4023C59.8984,-17.4023,61.3926,-16.6523,62.4043,-15.1523C63.416,-13.6523,63.9219,-11.457,63.9219,-8.56641ZM55.543,-8.56641C55.543,-6.46484,55.7246,-4.95898,56.0879,-4.04883C56.4512,-3.13867,57.0625,-2.68359,57.9219,-2.68359C58.7656,-2.68359,59.375,-3.14453,59.75,-4.06641C60.125,-4.98828,60.3125,-6.48828,60.3125,-8.56641C60.3125,-10.668,60.123,-12.1777,59.7441,-13.0957C59.3652,-14.0137,58.7578,-14.4727,57.9219,-14.4727C57.0703,-14.4727,56.4609,-14.0137,56.0938,-13.0957C55.7266,-12.1777,55.543,-10.668,55.543,-8.56641Z" transform="translate(64.7812,16.3418) translate(0,9.31055)"/>
        </symbol>
        <symbol id="Symbol-1" preserveAspectRatio="none" width="59.9133" height="14.98" viewBox="0 0 59.9133 14.98" overflow="visible">
            <g transform="translate(29.9566,7.48999) translate(-29.9566,-7.48999)">
                <path id="Summa-30000000" fill="#FEAE06" filter="url(#Filter-1)" d="M5.62354,-6.09619C5.62354,-5.60563,5.47493,-5.18848,5.17773,-4.84473C4.88053,-4.50098,4.46338,-4.26465,3.92627,-4.13574L3.92627,-4.10352C4.56006,-4.02474,5.03988,-3.83228,5.36572,-3.52612C5.69157,-3.21997,5.85449,-2.80729,5.85449,-2.28809C5.85449,-1.53255,5.58057,-0.944417,5.03271,-0.523682C4.48486,-0.102946,3.70247,0.107422,2.68555,0.107422C1.83333,0.107422,1.0778,-0.0340169,0.418945,-0.316895L0.418945,-1.72949C0.723307,-1.57552,1.05811,-1.4502,1.42334,-1.35352C1.78857,-1.25684,2.15023,-1.2085,2.5083,-1.2085C3.05615,-1.2085,3.46077,-1.3016,3.72217,-1.48779C3.98356,-1.67399,4.11426,-1.97298,4.11426,-2.38477C4.11426,-2.75358,3.96387,-3.01497,3.66309,-3.16895C3.3623,-3.32292,2.88249,-3.3999,2.22363,-3.3999L1.62744,-3.3999L1.62744,-4.67285L2.23438,-4.67285C2.8431,-4.67285,3.288,-4.75252,3.56909,-4.91187C3.85018,-5.07121,3.99072,-5.34424,3.99072,-5.73096C3.99072,-6.32536,3.61833,-6.62256,2.87354,-6.62256C2.61572,-6.62256,2.35343,-6.57959,2.08667,-6.49365C1.81991,-6.40771,1.5236,-6.25911,1.19775,-6.04785L0.429688,-7.19189C1.14583,-7.70752,1.99984,-7.96533,2.9917,-7.96533C3.80452,-7.96533,4.44637,-7.80062,4.91724,-7.47119C5.3881,-7.14176,5.62354,-6.68343,5.62354,-6.09619ZM12.168,-3.92627C12.168,-2.55485,11.9433,-1.53971,11.4939,-0.880859C11.0445,-0.222005,10.3525,0.107422,9.41797,0.107422C8.51204,0.107422,7.82902,-0.232747,7.3689,-0.913086C6.90877,-1.59342,6.67871,-2.59782,6.67871,-3.92627C6.67871,-5.31201,6.90251,-6.33341,7.3501,-6.99048C7.79769,-7.64754,8.48698,-7.97607,9.41797,-7.97607C10.3239,-7.97607,11.0087,-7.63232,11.4724,-6.94482C11.9361,-6.25732,12.168,-5.25114,12.168,-3.92627ZM8.32764,-3.92627C8.32764,-2.96305,8.41089,-2.27287,8.57739,-1.85571C8.7439,-1.43856,9.02409,-1.22998,9.41797,-1.22998C9.80469,-1.22998,10.084,-1.44124,10.2559,-1.86377C10.4277,-2.2863,10.5137,-2.9738,10.5137,-3.92627C10.5137,-4.88949,10.4268,-5.58146,10.2532,-6.0022C10.0795,-6.42293,9.80111,-6.6333,9.41797,-6.6333C9.02767,-6.6333,8.74837,-6.42293,8.58008,-6.0022C8.41178,-5.58146,8.32764,-4.88949,8.32764,-3.92627ZM18.4492,-3.92627C18.4492,-2.55485,18.2245,-1.53971,17.7751,-0.880859C17.3258,-0.222005,16.6338,0.107422,15.6992,0.107422C14.7933,0.107422,14.1103,-0.232747,13.6501,-0.913086C13.19,-1.59342,12.96,-2.59782,12.96,-3.92627C12.96,-5.31201,13.1838,-6.33341,13.6313,-6.99048C14.0789,-7.64754,14.7682,-7.97607,15.6992,-7.97607C16.6051,-7.97607,17.29,-7.63232,17.7537,-6.94482C18.2174,-6.25732,18.4492,-5.25114,18.4492,-3.92627ZM14.6089,-3.92627C14.6089,-2.96305,14.6921,-2.27287,14.8586,-1.85571C15.0251,-1.43856,15.3053,-1.22998,15.6992,-1.22998C16.0859,-1.22998,16.3652,-1.44124,16.5371,-1.86377C16.709,-2.2863,16.7949,-2.9738,16.7949,-3.92627C16.7949,-4.88949,16.7081,-5.58146,16.5344,-6.0022C16.3608,-6.42293,16.0824,-6.6333,15.6992,-6.6333C15.3089,-6.6333,15.0296,-6.42293,14.8613,-6.0022C14.693,-5.58146,14.6089,-4.88949,14.6089,-3.92627ZM24.7305,-3.92627C24.7305,-2.55485,24.5058,-1.53971,24.0564,-0.880859C23.607,-0.222005,22.915,0.107422,21.9805,0.107422C21.0745,0.107422,20.3915,-0.232747,19.9314,-0.913086C19.4713,-1.59342,19.2412,-2.59782,19.2412,-3.92627C19.2412,-5.31201,19.465,-6.33341,19.9126,-6.99048C20.3602,-7.64754,21.0495,-7.97607,21.9805,-7.97607C22.8864,-7.97607,23.5712,-7.63232,24.0349,-6.94482C24.4986,-6.25732,24.7305,-5.25114,24.7305,-3.92627ZM20.8901,-3.92627C20.8901,-2.96305,20.9734,-2.27287,21.1399,-1.85571C21.3064,-1.43856,21.5866,-1.22998,21.9805,-1.22998C22.3672,-1.22998,22.6465,-1.44124,22.8184,-1.86377C22.9902,-2.2863,23.0762,-2.9738,23.0762,-3.92627C23.0762,-4.88949,22.9893,-5.58146,22.8157,-6.0022C22.642,-6.42293,22.3636,-6.6333,21.9805,-6.6333C21.5902,-6.6333,21.3109,-6.42293,21.1426,-6.0022C20.9743,-5.58146,20.8901,-4.88949,20.8901,-3.92627ZM31.0117,-3.92627C31.0117,-2.55485,30.787,-1.53971,30.3376,-0.880859C29.8883,-0.222005,29.1963,0.107422,28.2617,0.107422C27.3558,0.107422,26.6728,-0.232747,26.2126,-0.913086C25.7525,-1.59342,25.5225,-2.59782,25.5225,-3.92627C25.5225,-5.31201,25.7463,-6.33341,26.1938,-6.99048C26.6414,-7.64754,27.3307,-7.97607,28.2617,-7.97607C29.1676,-7.97607,29.8525,-7.63232,30.3162,-6.94482C30.7799,-6.25732,31.0117,-5.25114,31.0117,-3.92627ZM27.1714,-3.92627C27.1714,-2.96305,27.2546,-2.27287,27.4211,-1.85571C27.5876,-1.43856,27.8678,-1.22998,28.2617,-1.22998C28.6484,-1.22998,28.9277,-1.44124,29.0996,-1.86377C29.2715,-2.2863,29.3574,-2.9738,29.3574,-3.92627C29.3574,-4.88949,29.2706,-5.58146,29.0969,-6.0022C28.9233,-6.42293,28.6449,-6.6333,28.2617,-6.6333C27.8714,-6.6333,27.5921,-6.42293,27.4238,-6.0022C27.2555,-5.58146,27.1714,-4.88949,27.1714,-3.92627ZM37.293,-3.92627C37.293,-2.55485,37.0683,-1.53971,36.6189,-0.880859C36.1695,-0.222005,35.4775,0.107422,34.543,0.107422C33.637,0.107422,32.954,-0.232747,32.4939,-0.913086C32.0338,-1.59342,31.8037,-2.59782,31.8037,-3.92627C31.8037,-5.31201,32.0275,-6.33341,32.4751,-6.99048C32.9227,-7.64754,33.612,-7.97607,34.543,-7.97607C35.4489,-7.97607,36.1337,-7.63232,36.5974,-6.94482C37.0611,-6.25732,37.293,-5.25114,37.293,-3.92627ZM33.4526,-3.92627C33.4526,-2.96305,33.5359,-2.27287,33.7024,-1.85571C33.8689,-1.43856,34.1491,-1.22998,34.543,-1.22998C34.9297,-1.22998,35.209,-1.44124,35.3809,-1.86377C35.5527,-2.2863,35.6387,-2.9738,35.6387,-3.92627C35.6387,-4.88949,35.5518,-5.58146,35.3782,-6.0022C35.2045,-6.42293,34.9261,-6.6333,34.543,-6.6333C34.1527,-6.6333,33.8734,-6.42293,33.7051,-6.0022C33.5368,-5.58146,33.4526,-4.88949,33.4526,-3.92627ZM43.5742,-3.92627C43.5742,-2.55485,43.3495,-1.53971,42.9001,-0.880859C42.4508,-0.222005,41.7588,0.107422,40.8242,0.107422C39.9183,0.107422,39.2353,-0.232747,38.7751,-0.913086C38.315,-1.59342,38.085,-2.59782,38.085,-3.92627C38.085,-5.31201,38.3088,-6.33341,38.7563,-6.99048C39.2039,-7.64754,39.8932,-7.97607,40.8242,-7.97607C41.7301,-7.97607,42.415,-7.63232,42.8787,-6.94482C43.3424,-6.25732,43.5742,-5.25114,43.5742,-3.92627ZM39.7339,-3.92627C39.7339,-2.96305,39.8171,-2.27287,39.9836,-1.85571C40.1501,-1.43856,40.4303,-1.22998,40.8242,-1.22998C41.2109,-1.22998,41.4902,-1.44124,41.6621,-1.86377C41.834,-2.2863,41.9199,-2.9738,41.9199,-3.92627C41.9199,-4.88949,41.8331,-5.58146,41.6594,-6.0022C41.4858,-6.42293,41.2074,-6.6333,40.8242,-6.6333C40.4339,-6.6333,40.1546,-6.42293,39.9863,-6.0022C39.818,-5.58146,39.7339,-4.88949,39.7339,-3.92627ZM49.8555,-3.92627C49.8555,-2.55485,49.6308,-1.53971,49.1814,-0.880859C48.732,-0.222005,48.04,0.107422,47.1055,0.107422C46.1995,0.107422,45.5165,-0.232747,45.0564,-0.913086C44.5963,-1.59342,44.3662,-2.59782,44.3662,-3.92627C44.3662,-5.31201,44.59,-6.33341,45.0376,-6.99048C45.4852,-7.64754,46.1745,-7.97607,47.1055,-7.97607C48.0114,-7.97607,48.6962,-7.63232,49.1599,-6.94482C49.6236,-6.25732,49.8555,-5.25114,49.8555,-3.92627ZM46.0151,-3.92627C46.0151,-2.96305,46.0984,-2.27287,46.2649,-1.85571C46.4314,-1.43856,46.7116,-1.22998,47.1055,-1.22998C47.4922,-1.22998,47.7715,-1.44124,47.9434,-1.86377C48.1152,-2.2863,48.2012,-2.9738,48.2012,-3.92627C48.2012,-4.88949,48.1143,-5.58146,47.9407,-6.0022C47.767,-6.42293,47.4886,-6.6333,47.1055,-6.6333C46.7152,-6.6333,46.4359,-6.42293,46.2676,-6.0022C46.0993,-5.58146,46.0151,-4.88949,46.0151,-3.92627Z" transform="translate(34.7883,7.48999) translate(-25.125,4.26733)"/>
                <path id="Summa-2" fill="#FEAE06" filter="url(#Filter-1)" d="M-0.416016,-2.45459C-0.416016,-1.88525,-0.621908,-1.42782,-1.03369,-1.08228C-1.44548,-0.736735,-2.02197,-0.529948,-2.76318,-0.461914L-2.76318,0.63916L-3.49902,0.63916L-3.49902,-0.44043C-4.37272,-0.458333,-5.139,-0.612305,-5.79785,-0.902344L-5.79785,-2.32031C-5.48633,-2.16634,-5.11125,-2.03027,-4.67261,-1.91211C-4.23397,-1.79395,-3.84277,-1.72412,-3.49902,-1.70264L-3.49902,-3.36768L-3.85889,-3.50732C-4.56787,-3.78662,-5.07007,-4.09009,-5.36548,-4.41772C-5.66089,-4.74536,-5.80859,-5.15088,-5.80859,-5.63428C-5.80859,-6.15348,-5.60539,-6.58049,-5.19897,-6.91528C-4.79256,-7.25008,-4.22591,-7.45329,-3.49902,-7.5249L-3.49902,-8.34668L-2.76318,-8.34668L-2.76318,-7.54639C-1.9432,-7.51058,-1.20199,-7.34587,-0.539551,-7.05225L-1.04443,-5.79541C-1.60303,-6.02458,-2.17594,-6.16423,-2.76318,-6.21436L-2.76318,-4.62988C-2.06494,-4.36133,-1.56812,-4.12858,-1.27271,-3.93164C-0.977295,-3.7347,-0.760661,-3.51807,-0.622803,-3.28174C-0.484945,-3.04541,-0.416016,-2.76969,-0.416016,-2.45459ZM-2.03271,-2.37402C-2.03271,-2.52441,-2.09359,-2.65153,-2.21533,-2.75537C-2.33708,-2.85921,-2.51969,-2.96663,-2.76318,-3.07764L-2.76318,-1.74023C-2.2762,-1.82259,-2.03271,-2.03385,-2.03271,-2.37402ZM-4.19189,-5.63428C-4.19189,-5.47673,-4.13729,-5.34692,-4.02808,-5.24487C-3.91886,-5.14282,-3.74251,-5.03809,-3.49902,-4.93066L-3.49902,-6.19287C-3.96094,-6.12484,-4.19189,-5.93864,-4.19189,-5.63428Z" transform="translate(3.14062,7.48999) translate(3.14062,4.26733)"/>
            </g>
        </symbol>
        <filter id="filter-5" x="-3.2%" y="-10.0%" width="106.5%" height="140.0%" filterUnits="objectBoundingBox">
            <feOffset dx="0" dy="1" in="SourceAlpha" result="shadowOffsetOuter1"/>
            <feGaussianBlur stdDeviation="0.5" in="shadowOffsetOuter1" result="shadowBlurOuter1"/>
            <feColorMatrix values="0 0 0 0 0   0 0 0 0 0   0 0 0 0 0  0 0 0 0.5 0" type="matrix" in="shadowBlurOuter1"/>
        </filter>
        <filter id="filter-7" x="-4.2%" y="-9.1%" width="108.3%" height="136.4%" filterUnits="objectBoundingBox">
            <feOffset dx="0" dy="1" in="SourceAlpha" result="shadowOffsetOuter1"/>
            <feGaussianBlur stdDeviation="0.5" in="shadowOffsetOuter1" result="shadowBlurOuter1"/>
            <feColorMatrix values="0 0 0 0 0   0 0 0 0 0   0 0 0 0 0  0 0 0 0.5 0" type="matrix" in="shadowBlurOuter1"/>
        </filter>
        <filter id="filter-9" x="-2.6%" y="-7.7%" width="105.3%" height="130.8%" filterUnits="objectBoundingBox">
            <feOffset dx="0" dy="1" in="SourceAlpha" result="shadowOffsetOuter1"/>
            <feGaussianBlur stdDeviation="0.5" in="shadowOffsetOuter1" result="shadowBlurOuter1"/>
            <feColorMatrix values="0 0 0 0 0.996078431   0 0 0 0 0.682352941   0 0 0 0 0.0235294118  0 0 0 0.564084353 0" type="matrix" in="shadowBlurOuter1"/>
        </filter>
        <filter id="filter-2" x="-3.3%" y="-11.1%" width="106.5%" height="144.4%" filterUnits="objectBoundingBox">
            <feOffset dx="0" dy="2" in="SourceAlpha" result="shadowOffsetOuter1"/>
            <feGaussianBlur stdDeviation="1" in="shadowOffsetOuter1" result="shadowBlurOuter1"/>
            <feColorMatrix values="0 0 0 0 0   0 0 0 0 0   0 0 0 0 0  0 0 0 0.5 0" type="matrix" in="shadowBlurOuter1"/>
        </filter>
        <filter id="filter-3" x="-1.7%" y="-7.7%" width="103.3%" height="130.8%" filterUnits="objectBoundingBox">
            <feOffset dx="0" dy="2" in="SourceAlpha" result="shadowOffsetOuter1"/>
            <feGaussianBlur stdDeviation="1" in="shadowOffsetOuter1" result="shadowBlurOuter1"/>
            <feColorMatrix values="0 0 0 0 0.996078431   0 0 0 0 0.682352941   0 0 0 0 0.0235294118  0 0 0 0.564084353 0" type="matrix" in="shadowBlurOuter1"/>
        </filter>
        <filter id="Filter-0" color-interpolation-filters="sRGB">
            <feGaussianBlur in="SourceAlpha" stdDeviation="2"/>
            <feOffset dx="0" dy="1" result="offsetblur"/>
            <feFlood flood-color="#feae06" flood-opacity="0.5"/>
            <feComposite in2="offsetblur" operator="in"/>
            <feMerge>
                <feMergeNode/>
                <feMergeNode in="SourceGraphic"/>
            </feMerge>
        </filter>
        <filter id="Filter-1" color-interpolation-filters="sRGB">
            <feGaussianBlur in="SourceAlpha" stdDeviation="1"/>
            <feOffset dx="0" dy="1" result="offsetblur"/>
            <feFlood flood-color="#feae06" flood-opacity="0.5"/>
            <feComposite in2="offsetblur" operator="in"/>
            <feMerge>
                <feMergeNode/>
                <feMergeNode in="SourceGraphic"/>
            </feMerge>
        </filter>
        <linearGradient id="Gradient-0" x1="0.5" y1="0" x2="0.5" y2="1">
            <stop offset="0" stop-color="#0099bd"/>
            <stop offset="1" stop-color="#006088"/>
        </linearGradient>
        <linearGradient id="Gradient-1" x1="0.5" y1="0" x2="0.5" y2="1">
            <stop offset="0.022223" stop-color="#0094ff"/>
            <stop offset="1" stop-color="#004196"/>
        </linearGradient>
        <linearGradient id="Gradient-2" x1="0.5" y1="0" x2="0.5" y2="1">
            <stop offset="0" stop-color="#2c7be3"/>
            <stop offset="1" stop-color="#031540"/>
        </linearGradient>
    </defs>
    <g transform="translate(155,39.5) translate(-155,-39.5)">
        <g id="Work" stroke="none" stroke-width="1" fill="none" fill-rule="evenodd">
            <g id="с7_mobile_320_jackpot_05" transform="translate(-5,-374)">
                <g id="Jackpot_Platinum_310x79" transform="translate(5,374)">
                    <path id="Combined-Shape-Copy-2" d="M306,10C308.209,10,310,11.7909,310,14L310,61C310,63.2091,308.209,65,306,65L232,65L232,75C232,77.2091,230.209,79,228,79L83,79C80.7909,79,79,77.2091,79,75L79,65L4,65C1.79086,65,0,63.2091,0,61L0,14C0,11.7909,1.79086,10,4,10L306,10Z" fill="#D34E2D"/>
                    <path id="Gradient" d="M306,9L4,9C2.34315,9,1,10.3431,1,12L1,59C1,60.6569,2.34315,62,4,62L80,62L80,73C80,74.6569,81.3431,76,83,76L228,76C229.657,76,231,74.6569,231,73L231,62L306,62C307.657,62,309,60.6569,309,59L309,12C309,10.3431,307.657,9,306,9Z" stroke="none" stroke-width="2" fill="url(#Gradient-0)" stroke-opacity="1" stroke-miterlimit="4" stroke-linejoin="miter" stroke-linecap="butt" stroke-dasharray="none" stroke-dashoffset="0"/>
                    <path d="M308.828,9.17156C308.047,8.39052,307.105,8,306,8L4,8C2.89543,8,1.95262,8.39052,1.17158,9.17155C0.390526,9.95259,0,10.8954,0,12L0,59C0,60.1046,0.390526,61.0474,1.17158,61.8284C1.95262,62.6095,2.89543,63,4,63L79,63L79,73C79,74.1046,79.3905,75.0474,80.1716,75.8284C80.9526,76.6095,81.8954,77,83,77L228,77C229.105,77,230.047,76.6095,230.828,75.8284C231.609,75.0474,232,74.1046,232,73L232,63L306,63C307.105,63,308.047,62.6095,308.828,61.8284C309.609,61.0474,310,60.1046,310,59L310,12C310,10.8954,309.609,9.9526,308.828,9.17156ZM4,10L306,10C306.552,10,307.024,10.1953,307.414,10.5858C307.805,10.9763,308,11.4477,308,12L308,59C308,59.5523,307.805,60.0237,307.414,60.4142C307.024,60.8047,306.552,61,306,61L230,61L230,73C230,73.5523,229.805,74.0237,229.414,74.4142C229.024,74.8047,228.552,75,228,75L83,75C82.4477,75,81.9763,74.8047,81.5858,74.4142C81.1953,74.0237,81,73.5523,81,73L81,61L4,61C3.44771,61,2.9763,60.8047,2.58578,60.4142C2.19526,60.0237,2,59.5523,2,59L2,12C2,11.4477,2.19526,10.9763,2.58578,10.5858C2.9763,10.1953,3.44771,10,4,10Z" fill="#ffa900" stroke="none" fill-rule="evenodd" fill-opacity="1"/>
                    <path id="Black" d="M300,17L10,17C9.44772,17,9,17.4477,9,18L9,53C9,53.5523,9.44772,54,10,54L88,54L88,67C88,67.5523,88.4477,68,89,68L222,68C222.552,68,223,67.5523,223,67L223,54L300,54C300.552,54,301,53.5523,301,53L301,18C301,17.4477,300.552,17,300,17Z" stroke-opacity="0.184331" stroke="none" stroke-width="2" fill-opacity="0.471017" fill="#000000" opacity="0.5"/>
                    <path id="Combined-Shape-3" d="M301.414,16.5857C301.023,16.1952,300.552,16,300,16L10,16C9.44772,16,8.97632,16.1953,8.58579,16.5858C8.19526,16.9763,8,17.4477,8,18L8,53C8,53.5523,8.19526,54.0237,8.58579,54.4142C8.97631,54.8047,9.44772,55,10,55L87,55L87,67C87,67.5523,87.1953,68.0237,87.5858,68.4142C87.9763,68.8047,88.4477,69,89,69L222,69C222.552,69,223.023,68.8048,223.414,68.4143C223.805,68.0237,224,67.5523,224,67L224,55L300,55C300.552,55,301.023,54.8048,301.414,54.4143C301.805,54.0237,302,53.5523,302,53L302,18C302,17.4477,301.805,16.9763,301.414,16.5857ZM10,18L300,18L300,53L222,53L222,67L89,67L89,53L10,53Z" fill="#ffa900" fill-opacity="1" stroke="none" fill-rule="evenodd"/>
                    <rect id="Rectangle-2" fill="#082052" width="143" height="22" rx="2" transform="translate(0,0) translate(84,0)"/>
                    <rect id="Rectangle-3" stroke="url(#Gradient-1)" stroke-width="2" fill="url(#Gradient-2)" width="141" height="18" rx="2" transform="translate(0,0) translate(85,1)"/>
                </g>
            </g>
        </g>
        <g transform="translate(155,42.5) translate(-151,-30.5)">
            <rect id="r-1" width="2" height="2" fill="#ffa900" stroke="none" transform="translate(67,1) translate(-1,-1)"/>
            <rect id="r-3" width="2" height="2" fill="#ffa900" stroke="none" transform="translate(41,1) translate(-1,-1)"/>
            <rect id="r-5" width="2" height="2" fill="#ffa900" stroke="none" transform="translate(15,1) translate(-1,-1)"/>
            <rect id="r-7" width="2" height="2" fill="#ffa900" stroke="none" transform="translate(1,16) translate(-1,-1)"/>
            <rect id="r-9" width="2" height="2" fill="#ffa900" stroke="none" transform="translate(1,46) translate(-1,-1)"/>
            <rect id="r-11" width="2" height="2" fill="#ffa900" stroke="none" transform="translate(28,46) translate(-1,-1)"/>
            <rect id="r-13" width="2" height="2" fill="#ffa900" stroke="none" transform="translate(54,46) translate(-1,-1)"/>
            <rect id="r-15" width="2" height="2" fill="#ffa900" stroke="none" transform="translate(80,46) translate(-1,-1)"/>
            <rect id="r-17" width="2" height="2" fill="#ffa900" stroke="none" transform="translate(92,60) translate(-1,-1)"/>
            <rect id="r-19" width="2" height="2" fill="#ffa900" stroke="none" transform="translate(118,60) translate(-1,-1)"/>
            <rect id="r-21" width="2" height="2" fill="#ffa900" stroke="none" transform="translate(144,60) translate(-1,-1)"/>
            <rect id="r-23" width="2" height="2" fill="#ffa900" stroke="none" transform="translate(170,60) translate(-1,-1)"/>
            <rect id="r-25" width="2" height="2" fill="#ffa900" stroke="none" transform="translate(196,60) translate(-1,-1)"/>
            <rect id="r-27" width="2" height="2" fill="#ffa900" stroke="none" transform="translate(223,60) translate(-1,-1)"/>
            <rect id="r-29" width="2" height="2" fill="#ffa900" stroke="none" transform="translate(236,46) translate(-1,-1)"/>
            <rect id="r-31" width="2" height="2" fill="#ffa900" stroke="none" transform="translate(262,46) translate(-1,-1)"/>
            <rect id="r-33" width="2" height="2" fill="#ffa900" stroke="none" transform="translate(288,46) translate(-1,-1)"/>
            <rect id="r-35" width="2" height="2" fill="#ffa900" stroke="none" transform="translate(301,31) translate(-1,-1)"/>
            <rect id="r-37" width="2" height="2" fill="#ffa900" stroke="none" transform="translate(301,1) translate(-1,-1)"/>
            <rect id="r-39" width="2" height="2" fill="#ffa900" stroke="none" transform="translate(275,1) translate(-1,-1)"/>
            <rect id="r-41" width="2" height="2" fill="#ffa900" stroke="none" transform="translate(249,1) translate(-1,-1)"/>
        </g>
        <g transform="translate(155,42.5) translate(-151,-30.5)">
            <rect id="r-2" width="2" height="2" fill="#ffba33" stroke="none" transform="translate(54,1) translate(-1,-1)"/>
            <rect id="r-4" width="2" height="2" fill="#ffba33" stroke="none" transform="translate(28,1) translate(-1,-1)"/>
            <rect id="r-6" width="2" height="2" fill="#ffba33" stroke="none" transform="translate(1,1) translate(-1,-1)"/>
            <rect id="r-8" width="2" height="2" fill="#ffba33" stroke="none" transform="translate(1,31) translate(-1,-1)"/>
            <rect id="r-10" width="2" height="2" fill="#ffba33" stroke="none" transform="translate(15,46) translate(-1,-1)"/>
            <rect id="r-12" width="2" height="2" fill="#ffba33" stroke="none" transform="translate(41,46) translate(-1,-1)"/>
            <rect id="r-14" width="2" height="2" fill="#ffba33" stroke="none" transform="translate(67,46) translate(-1,-1)"/>
            <rect id="r-16" width="2" height="2" fill="#ffba33" stroke="none" transform="translate(80,60) translate(-1,-1)"/>
            <rect id="r-18" width="2" height="2" fill="#ffba33" stroke="none" transform="translate(105,60) translate(-1,-1)"/>
            <rect id="r-20" width="2" height="2" fill="#ffba33" stroke="none" transform="translate(131,60) translate(-1,-1)"/>
            <rect id="r-22" width="2" height="2" fill="#ffba33" stroke="none" transform="translate(157,60) translate(-1,-1)"/>
            <rect id="r-24" width="2" height="2" fill="#ffba33" stroke="none" transform="translate(183,60) translate(-1,-1)"/>
            <rect id="r-26" width="2" height="2" fill="#ffba33" stroke="none" transform="translate(209,60) translate(-1,-1)"/>
            <rect id="r-28" width="2" height="2" fill="#ffba33" stroke="none" transform="translate(223,46) translate(-1,-1)"/>
            <rect id="r-30" width="2" height="2" fill="#ffba33" stroke="none" transform="translate(249,46) translate(-1,-1)"/>
            <rect id="r-32" width="2" height="2" fill="#ffba33" stroke="none" transform="translate(275,46) translate(-1,-1)"/>
            <rect id="r-34" width="2" height="2" fill="#ffba33" stroke="none" transform="translate(301,46) translate(-1,-1)"/>
            <rect id="r-36" width="2" height="2" fill="#ffba33" stroke="none" transform="translate(301,16) translate(-1,-1)"/>
            <rect id="r-38" width="2" height="2" fill="#ffba33" stroke="none" transform="translate(288,1) translate(-1,-1)"/>
            <rect id="r-40" width="2" height="2" fill="#ffba33" stroke="none" transform="translate(262,1) translate(-1,-1)"/>
            <rect id="r-42" width="2" height="2" fill="#ffba33" stroke="none" transform="translate(236,1) translate(-1,-1)"/>
        </g>
    </g>
</svg>
