<?xml version="1.0" encoding="UTF-8" standalone="no"?>
<!-- Created with Keyshape -->
<svg xmlns="http://www.w3.org/2000/svg" width="249px" height="101px" viewBox="0 0 249 101">
    <title>Jackpot_Platinum_Desktop_249x101</title>
    <desc>Created with Sketch.</desc>
    <defs>
        <symbol id="Symbol-1" preserveAspectRatio="none" width="228" height="67" viewBox="0 0 228 67" overflow="visible">
            <path id="yellow_stroke" d="M238.414,21.5857C238.023,21.1952,237.552,21,237,21L13,21C12.4477,21,11.9763,21.1953,11.5858,21.5858C11.1953,21.9763,11,22.4477,11,23L11,67C11,67.5523,11.1953,68.0237,11.5858,68.4142C11.9763,68.8047,12.4477,69,13,69L48,69L48,86C48,86.5523,48.1953,87.0237,48.5858,87.4142C48.9763,87.8047,49.4477,88,50,88L199,88C199.552,88,200.023,87.8048,200.414,87.4143C200.805,87.0237,201,86.5523,201,86L201,69L237,69C237.552,69,238.023,68.8048,238.414,68.4143C238.805,68.0237,239,67.5523,239,67L239,23C239,22.4477,238.805,21.9763,238.414,21.5857ZM13,23L237,23L237,67L199,67L199,86L50,86L50,67L13,67Z" fill="#ffa900" fill-opacity="1" fill-rule="evenodd" stroke="none" transform="translate(-11,-21)"/>
        </symbol>
        <filter id="filter-5" x="-3.5%" y="-13.0%" width="107.0%" height="152.2%" filterUnits="objectBoundingBox">
            <feOffset dx="0" dy="3" in="SourceAlpha" result="shadowOffsetOuter1"/>
            <feGaussianBlur stdDeviation="1.5" in="shadowOffsetOuter1" result="shadowBlurOuter1"/>
            <feColorMatrix values="0 0 0 0 0   0 0 0 0 0   0 0 0 0 0  0 0 0 0.5 0" type="matrix" in="shadowBlurOuter1"/>
        </filter>
        <filter id="filter-7" x="-2.6%" y="-8.8%" width="105.3%" height="135.3%" filterUnits="objectBoundingBox">
            <feOffset dx="0" dy="3" in="SourceAlpha" result="shadowOffsetOuter1"/>
            <feGaussianBlur stdDeviation="1.5" in="shadowOffsetOuter1" result="shadowBlurOuter1"/>
            <feColorMatrix values="0 0 0 0 0.996078431   0 0 0 0 0.682352941   0 0 0 0 0.0235294118  0 0 0 0.564084353 0" type="matrix" in="shadowBlurOuter1"/>
        </filter>
        <linearGradient id="Gradient-0" x1="0.5" y1="0" x2="0.5" y2="1">
            <stop offset="0" stop-color="#853ae9"/>
            <stop offset="1" stop-color="#411c8d"/>
        </linearGradient>
        <linearGradient id="Gradient-1" x1="0.5" y1="0" x2="0.5" y2="1">
            <stop offset="0.022223" stop-color="#0094ff"/>
            <stop offset="1" stop-color="#004196"/>
        </linearGradient>
        <linearGradient id="Gradient-2" x1="0.5" y1="0" x2="0.5" y2="1">
            <stop offset="0" stop-color="#2c7be3"/>
            <stop offset="1" stop-color="#031540"/>
        </linearGradient>
    </defs>
    <path id="Combined-Shape-Copy-2" d="M244,12C246.761,12,249,14.2386,249,17L249,77C249,79.7614,246.761,82,244,82L212,82L212,96C212,98.7614,209.761,101,207,101L42,101C39.2386,101,37,98.7614,37,96L37,82L5,82C2.23858,82,0,79.7614,0,77L0,17C0,14.2386,2.23858,12,5,12L244,12Z" fill="#D34E2D" stroke="none" stroke-width="1" fill-rule="evenodd"/>
    <path id="gradient" d="M244,11L5,11C2.79086,11,1,12.7909,1,15L1,75C1,77.2091,2.79086,79,5,79L38,79L38,94C38,96.2091,39.7909,98,42,98L207,98C209.209,98,211,96.2091,211,94L211,79L244,79C246.209,79,248,77.2091,248,75L248,15C248,12.7909,246.209,11,244,11Z" stroke="none" stroke-width="2" fill="url(#Gradient-0)" fill-rule="evenodd" stroke-opacity="1" stroke-miterlimit="4" stroke-linejoin="miter" stroke-linecap="butt" stroke-dasharray="none" stroke-dashoffset="0"/>
    <path id="Combined-Shape" d="M237,22L13,22C12.4477,22,12,22.4477,12,23L12,67C12,67.5523,12.4477,68,13,68L21.125,68L49,68L49,86C49,86.5523,49.4477,87,50,87L199,87C199.552,87,200,86.5523,200,86L200,68L237,68C237.552,68,238,67.5523,238,67L238,23C238,22.4477,237.552,22,237,22Z" stroke-opacity="1" stroke="none" stroke-width="2" fill-opacity="0.471017" fill="#000000" fill-rule="evenodd" stroke-miterlimit="4" stroke-linejoin="miter" stroke-linecap="butt" stroke-dasharray="none" stroke-dashoffset="0" opacity="0.5"/>
    <path id="yellow_stroke-3" d="M247.535,11.4645C246.559,10.4882,245.381,10,244,10L5,10C3.61929,10,2.44078,10.4882,1.46446,11.4645C0.488154,12.4408,0,13.6193,0,15L0,75C0,76.3807,0.488154,77.5592,1.46446,78.5355C2.44078,79.5118,3.61929,80,5,80L37,80L37,94C37,95.3807,37.4882,96.5592,38.4645,97.5355C39.4408,98.5118,40.6193,99,42,99L207,99C208.381,99,209.559,98.5118,210.535,97.5355C211.512,96.5592,212,95.3807,212,94L212,80L244,80C245.381,80,246.559,79.5118,247.535,78.5355C248.512,77.5592,249,76.3807,249,75L249,15C249,13.6193,248.512,12.4408,247.535,11.4645ZM5,12L244,12C244.828,12,245.535,12.2929,246.121,12.8787C246.707,13.4645,247,14.1716,247,15L247,75C247,75.8284,246.707,76.5355,246.121,77.1213C245.535,77.7071,244.828,78,244,78L210,78L210,94C210,94.8284,209.707,95.5355,209.121,96.1213C208.535,96.7071,207.828,97,207,97L42,97C41.1716,97,40.4645,96.7071,39.8787,96.1213C39.2929,95.5355,39,94.8284,39,94L39,78L5,78C4.17158,78,3.46447,77.7071,2.87868,77.1213C2.29289,76.5355,2,75.8284,2,75L2,15C2,14.1716,2.29289,13.4645,2.87868,12.8787C3.46447,12.2929,4.17158,12,5,12Z" fill="#ffa900" fill-rule="evenodd" stroke="none" fill-opacity="1"/>
    <path id="yellow_stroke-2" d="M238.414,21.5857C238.023,21.1952,237.552,21,237,21L13,21C12.4477,21,11.9763,21.1953,11.5858,21.5858C11.1953,21.9763,11,22.4477,11,23L11,67C11,67.5523,11.1953,68.0237,11.5858,68.4142C11.9763,68.8047,12.4477,69,13,69L48,69L48,86C48,86.5523,48.1953,87.0237,48.5858,87.4142C48.9763,87.8047,49.4477,88,50,88L199,88C199.552,88,200.023,87.8048,200.414,87.4143C200.805,87.0237,201,86.5523,201,86L201,69L237,69C237.552,69,238.023,68.8048,238.414,68.4143C238.805,68.0237,239,67.5523,239,67L239,23C239,22.4477,238.805,21.9763,238.414,21.5857ZM13,23L237,23L237,67L199,67L199,86L50,86L50,67L13,67Z" fill="#ffa900" fill-opacity="1" fill-rule="evenodd" stroke="none"/>
    <g transform="translate(124.5,14.5) translate(-87.5,-14.5)">
        <rect id="Rectangle" fill="#082052" width="175" height="29" rx="4" stroke="none" stroke-width="1" fill-rule="evenodd" transform="translate(-37,0) translate(37,0)"/>
        <rect id="Rectangle-2" stroke="url(#Gradient-1)" stroke-width="2" fill="url(#Gradient-2)" width="173" height="24" rx="3" fill-rule="evenodd" transform="translate(-37,0) translate(38,1)"/>
    </g>
    <g transform="translate(124.5,54.5) translate(-119.5,-39.5)">
        <rect id="r-24" width="3" height="3" fill="#ffba33" stroke="none" stroke-width="1" fill-rule="evenodd" transform="translate(217.5,1.5) translate(-1.5,-1.5)"/>
        <rect id="r-22" width="3" height="3" fill="#ffba33" stroke="none" stroke-width="1" fill-rule="evenodd" transform="translate(237.5,20.5) translate(-1.5,-1.5)"/>
        <rect id="r-20" width="3" height="3" fill="#ffba33" stroke="none" stroke-width="1" fill-rule="evenodd" transform="translate(237.5,58.5) translate(-1.5,-1.5)"/>
        <rect id="r-18" width="3" height="3" fill="#ffba33" stroke="none" stroke-width="1" fill-rule="evenodd" transform="translate(200.5,58.5) translate(-1.5,-1.5)"/>
        <rect id="r-16" width="3" height="3" fill="#ffba33" stroke="none" stroke-width="1" fill-rule="evenodd" transform="translate(182.5,77.5) translate(-1.5,-1.5)"/>
        <rect id="r-14" width="3" height="3" fill="#ffba33" stroke="none" stroke-width="1" fill-rule="evenodd" transform="translate(146.5,77.5) translate(-1.5,-1.5)"/>
        <rect id="r-12" width="3" height="3" fill="#ffba33" stroke="none" stroke-width="1" fill-rule="evenodd" transform="translate(110.5,77.5) translate(-1.5,-1.5)"/>
        <rect id="r-10" width="3" height="3" fill="#ffba33" stroke="none" stroke-width="1" fill-rule="evenodd" transform="translate(74.5,77.5) translate(-1.5,-1.5)"/>
        <rect id="r-8" width="3" height="3" fill="#ffba33" stroke="none" stroke-width="1" fill-rule="evenodd" transform="translate(38.5,77.5) translate(-1.5,-1.5)"/>
        <rect id="r-6" width="3" height="3" fill="#ffba33" stroke="none" stroke-width="1" fill-rule="evenodd" transform="translate(20.5,58.5) translate(-1.5,-1.5)"/>
        <rect id="r-4" fill="#ffba33" width="3" height="3" stroke="none" stroke-width="1" fill-rule="evenodd" transform="translate(1.5,39.5) translate(-1.5,-1.5)"/>
        <rect id="r-2" width="3" height="3" fill="#ffba33" stroke="none" stroke-width="1" fill-rule="evenodd" transform="translate(1.5,1.5) translate(-1.5,-1.5)"/>
    </g>
    <g transform="translate(124.5,54.5) translate(-119.5,-39.5)">
        <rect id="r-23" width="3" height="3" fill="#ffa900" stroke="none" stroke-width="1" fill-rule="evenodd" transform="translate(237.5,1.5) translate(-1.5,-1.5)"/>
        <rect id="r-21" width="3" height="3" fill="#ffa900" stroke="none" stroke-width="1" fill-rule="evenodd" transform="translate(237.5,39.5) translate(-1.5,-1.5)"/>
        <rect id="r-19" width="3" height="3" fill="#ffa900" stroke="none" stroke-width="1" fill-rule="evenodd" transform="translate(218.5,58.5) translate(-1.5,-1.5)"/>
        <rect id="r-17" width="3" height="3" fill="#ffa900" stroke="none" stroke-width="1" fill-rule="evenodd" transform="translate(200.5,77.5) translate(-1.5,-1.5)"/>
        <rect id="r-15" width="3" height="3" fill="#ffa900" stroke="none" stroke-width="1" fill-rule="evenodd" transform="translate(164.5,77.5) translate(-1.5,-1.5)"/>
        <rect id="r-13" width="3" height="3" fill="#ffa900" stroke="none" stroke-width="1" fill-rule="evenodd" transform="translate(128.5,77.5) translate(-1.5,-1.5)"/>
        <rect id="r-11" width="3" height="3" fill="#ffa900" stroke="none" stroke-width="1" fill-rule="evenodd" transform="translate(92.5,77.5) translate(-1.5,-1.5)"/>
        <rect id="r-9" width="3" height="3" fill="#ffa900" stroke="none" stroke-width="1" fill-rule="evenodd" transform="translate(56.5,77.5) translate(-1.5,-1.5)"/>
        <rect id="r-7" width="3" height="3" fill="#ffa900" stroke="none" stroke-width="1" fill-rule="evenodd" transform="translate(38.5,58.5) translate(-1.5,-1.5)"/>
        <rect id="r-5" width="3" height="3" fill="#ffa900" stroke="none" stroke-width="1" fill-rule="evenodd" transform="translate(1.5,58.5) translate(-1.5,-1.5)"/>
        <rect id="r-3" fill="#ffa900" width="3" height="3" stroke="none" stroke-width="1" fill-rule="evenodd" transform="translate(1.5,20.5) translate(-1.5,-1.5)"/>
        <rect id="r-1" width="3" height="3" fill="#ffa900" stroke="none" stroke-width="1" fill-rule="evenodd" transform="translate(20.5,1.5) translate(-1.5,-1.5)"/>
    </g>
</svg>
