<?xml version="1.0" encoding="UTF-8" standalone="no"?>
<!-- Created with Keyshape -->
<svg xmlns="http://www.w3.org/2000/svg" width="249px" height="156px" viewBox="0 0 249 156">
    <title>Jackpot_Platinum_Desktop_249x156</title>
    <desc>Created with Sketch.</desc>
    <defs>
        <filter id="filter-5" x="-3.5%" y="-9.7%" width="107.0%" height="138.7%" filterUnits="objectBoundingBox">
            <feOffset dx="0" dy="3" in="SourceAlpha" result="shadowOffsetOuter1"/>
            <feGaussianBlur stdDeviation="1.5" in="shadowOffsetOuter1" result="shadowBlurOuter1"/>
            <feColorMatrix values="0 0 0 0 0   0 0 0 0 0   0 0 0 0 0  0 0 0 0.5 0" type="matrix" in="shadowBlurOuter1"/>
        </filter>
        <filter id="filter-7" x="-2.6%" y="-8.8%" width="105.3%" height="135.3%" filterUnits="objectBoundingBox">
            <feOffset dx="0" dy="3" in="SourceAlpha" result="shadowOffsetOuter1"/>
            <feGaussianBlur stdDeviation="1.5" in="shadowOffsetOuter1" result="shadowBlurOuter1"/>
            <feColorMatrix values="0 0 0 0 0.996078431   0 0 0 0 0.682352941   0 0 0 0 0.0235294118  0 0 0 0.564084353 0" type="matrix" in="shadowBlurOuter1"/>
        </filter>
        <linearGradient id="Gradient-0" x1="0.5" y1="0" x2="0.5" y2="1">
            <stop offset="0" stop-color="#853ae9"/>
            <stop offset="1" stop-color="#411c8d"/>
        </linearGradient>
        <linearGradient id="Gradient-1" x1="0.5" y1="0" x2="0.5" y2="1">
            <stop offset="0.022223" stop-color="#0094ff"/>
            <stop offset="1" stop-color="#004196"/>
        </linearGradient>
        <linearGradient id="Gradient-2" x1="0.5" y1="0" x2="0.5" y2="1">
            <stop offset="0" stop-color="#2c7be3"/>
            <stop offset="1" stop-color="#031540"/>
        </linearGradient>
    </defs>
    <path id="gradient" d="M244,11L5,11C2.79086,11,1,12.7909,1,15L1,113C1,115.209,2.79086,117,5,117L38,117L38,151C38,153.209,39.7909,155,42,155L207,155C209.209,155,211,153.209,211,151L211,117L244,117C246.209,117,248,115.209,248,113L248,15C248,12.7909,246.209,11,244,11Z" stroke="none" stroke-width="2" fill="url(#Gradient-0)" stroke-opacity="1" stroke-miterlimit="4" stroke-linejoin="miter" stroke-linecap="butt" stroke-dasharray="none" stroke-dashoffset="0" fill-rule="evenodd"/>
    <path id="Combined-Shape" d="M237,22L13,22C12.4477,22,12,22.4477,12,23L12,105C12,105.552,12.4477,106,13,106L49,106L49,143C49,143.552,49.4477,144,50,144L199,144C199.552,144,200,143.552,200,143L200,106L237,106C237.552,106,238,105.552,238,105L238,23C238,22.4477,237.552,22,237,22Z" stroke-opacity="0.184331" stroke="none" stroke-width="2" fill-opacity="0.471017" fill="#000000" stroke-miterlimit="4" stroke-linejoin="miter" stroke-linecap="butt" stroke-dasharray="none" stroke-dashoffset="0" fill-rule="evenodd" opacity="0.5"/>
    <path id="yellow_stroke" d="M247.535,11.4645C246.559,10.4882,245.381,10,244,10L5,10C3.61929,10,2.44078,10.4882,1.46446,11.4645C0.488154,12.4408,0,13.6193,0,15L0,113C0,114.381,0.488152,115.559,1.46446,116.535C2.44078,117.512,3.6193,118,5,118L37,118L37,151C37,152.381,37.4882,153.559,38.4645,154.535C39.4408,155.512,40.6193,156,42,156L207,156C208.381,156,209.559,155.512,210.535,154.535C211.512,153.559,212,152.381,212,151L212,118L244,118C245.381,118,246.559,117.512,247.535,116.535C248.512,115.559,249,114.381,249,113L249,15C249,13.6193,248.512,12.4408,247.535,11.4645ZM5,12L244,12C244.828,12,245.535,12.2929,246.121,12.8787C246.707,13.4645,247,14.1716,247,15L247,113C247,113.828,246.707,114.535,246.121,115.121C245.535,115.707,244.828,116,244,116L210,116L210,151C210,151.828,209.707,152.535,209.121,153.121C208.535,153.707,207.828,154,207,154L42,154C41.1716,154,40.4645,153.707,39.8787,153.121C39.2929,152.535,39,151.828,39,151L39,116L5,116C4.17159,116,3.46449,115.707,2.87869,115.121C2.2929,114.535,2,113.828,2,113L2,15C2,14.1716,2.29289,13.4645,2.87868,12.8787C3.46447,12.2929,4.17158,12,5,12Z" fill="#ffa900" stroke="none" fill-rule="evenodd" fill-opacity="1" stroke-width="1"/>
    <path id="yellow_stroke-2" d="M238.414,21.5857C238.023,21.1952,237.552,21,237,21L13,21C12.4477,21,11.9763,21.1953,11.5858,21.5858C11.1953,21.9763,11,22.4477,11,23L11,105C11,105.552,11.1952,106.023,11.5857,106.414C11.9763,106.805,12.4477,107,13,107L48,107L48,143C48,143.552,48.1952,144.023,48.5857,144.414C48.9763,144.805,49.4477,145,50,145L199,145C199.552,145,200.024,144.805,200.414,144.414C200.805,144.024,201,143.552,201,143L201,107L237,107C237.552,107,238.024,106.805,238.414,106.414C238.805,106.024,239,105.552,239,105L239,23C239,22.4477,238.805,21.9763,238.414,21.5857ZM13,23L237,23L237,105L199,105L199,143L50,143L50,105L13,105Z" fill="#ffa900" fill-opacity="1" stroke="none" fill-rule="evenodd" stroke-width="1"/>
    <g stroke="none" stroke-width="1" fill="none" fill-rule="evenodd" transform="translate(124.5,17.5) translate(-87.5,-17.5)">
        <rect id="Rectangle" fill="#082052" width="175" height="35" rx="4" transform="translate(-37,0) translate(37,0)"/>
        <rect id="Rectangle-2" stroke="url(#Gradient-1)" stroke-width="2" fill="url(#Gradient-2)" width="173" height="30" rx="3" transform="translate(-37,0) translate(38,1)"/>
    </g>
    <g transform="translate(124.5,83) translate(-119.5,-68)">
        <rect id="r-30" width="3" height="3" fill="#ffa900" stroke="none" stroke-width="1" fill-rule="evenodd" transform="translate(217.5,1.5) translate(-1.5,-1.5)"/>
        <rect id="r-28" width="3" height="3" fill="#ffa900" stroke="none" stroke-width="1" fill-rule="evenodd" transform="translate(237.5,20.5) translate(-1.5,-1.5)"/>
        <rect id="r-26" width="3" height="3" fill="#ffa900" stroke="none" stroke-width="1" fill-rule="evenodd" transform="translate(237.5,58.5) translate(-1.5,-1.5)"/>
        <rect id="r-24" width="3" height="3" fill="#ffa900" stroke="none" stroke-width="1" fill-rule="evenodd" transform="translate(237.5,96.5) translate(-1.5,-1.5)"/>
        <rect id="r-22" width="3" height="3" fill="#ffa900" stroke="none" stroke-width="1" fill-rule="evenodd" transform="translate(200.5,96.5) translate(-1.5,-1.5)"/>
        <rect id="r-20" width="3" height="3" fill="#ffa900" stroke="none" stroke-width="1" fill-rule="evenodd" transform="translate(200.5,134.5) translate(-1.5,-1.5)"/>
        <rect id="r-18" width="3" height="3" fill="#ffa900" stroke="none" stroke-width="1" fill-rule="evenodd" transform="translate(164.5,134.5) translate(-1.5,-1.5)"/>
        <rect id="r-16" width="3" height="3" fill="#ffa900" stroke="none" stroke-width="1" fill-rule="evenodd" transform="translate(128.5,134.5) translate(-1.5,-1.5)"/>
        <rect id="r-14" width="3" height="3" fill="#ffa900" stroke="none" stroke-width="1" fill-rule="evenodd" transform="translate(92.5,134.5) translate(-1.5,-1.5)"/>
        <rect id="r-12" width="3" height="3" fill="#ffa900" stroke="none" stroke-width="1" fill-rule="evenodd" transform="translate(56.5,134.5) translate(-1.5,-1.5)"/>
        <rect id="r-10" width="3" height="3" fill="#ffa900" stroke="none" stroke-width="1" fill-rule="evenodd" transform="translate(38.5,115.5) translate(-1.5,-1.5)"/>
        <rect id="r-8" width="3" height="3" fill="#ffa900" stroke="none" stroke-width="1" fill-rule="evenodd" transform="translate(20.5,96.5) translate(-1.5,-1.5)"/>
        <rect id="r-6" width="3" height="3" fill="#ffa900" stroke="none" stroke-width="1" fill-rule="evenodd" transform="translate(1.5,77.5) translate(-1.5,-1.5)"/>
        <rect id="r-4" fill="#ffa900" width="3" height="3" stroke="none" stroke-width="1" fill-rule="evenodd" transform="translate(1.5,39.5) translate(-1.5,-1.5)"/>
        <rect id="r-2" width="3" height="3" fill="#ffa900" stroke="none" stroke-width="1" fill-rule="evenodd" transform="translate(1.5,1.5) translate(-1.5,-1.5)"/>
    </g>
    <g transform="translate(124.5,83) translate(-119.5,-68)">
        <rect id="r-29" width="3" height="3" fill="#ffa900" stroke="none" stroke-width="1" fill-rule="evenodd" transform="translate(237.5,1.5) translate(-1.5,-1.5)"/>
        <rect id="r-27" width="3" height="3" fill="#ffa900" stroke="none" stroke-width="1" fill-rule="evenodd" transform="translate(237.5,39.5) translate(-1.5,-1.5)"/>
        <rect id="r-25" width="3" height="3" fill="#ffa900" stroke="none" stroke-width="1" fill-rule="evenodd" transform="translate(237.5,77.5) translate(-1.5,-1.5)"/>
        <rect id="r-23" width="3" height="3" fill="#ffa900" stroke="none" stroke-width="1" fill-rule="evenodd" transform="translate(218.5,96.5) translate(-1.5,-1.5)"/>
        <rect id="r-21" width="3" height="3" fill="#ffa900" stroke="none" stroke-width="1" fill-rule="evenodd" transform="translate(200.5,115.5) translate(-1.5,-1.5)"/>
        <rect id="r-19" width="3" height="3" fill="#ffa900" stroke="none" stroke-width="1" fill-rule="evenodd" transform="translate(182.5,134.5) translate(-1.5,-1.5)"/>
        <rect id="r-17" width="3" height="3" fill="#ffa900" stroke="none" stroke-width="1" fill-rule="evenodd" transform="translate(146.5,134.5) translate(-1.5,-1.5)"/>
        <rect id="r-15" width="3" height="3" fill="#ffa900" stroke="none" stroke-width="1" fill-rule="evenodd" transform="translate(110.5,134.5) translate(-1.5,-1.5)"/>
        <rect id="r-13" width="3" height="3" fill="#ffa900" stroke="none" stroke-width="1" fill-rule="evenodd" transform="translate(74.5,134.5) translate(-1.5,-1.5)"/>
        <rect id="r-11" width="3" height="3" fill="#ffa900" stroke="none" stroke-width="1" fill-rule="evenodd" transform="translate(38.5,134.5) translate(-1.5,-1.5)"/>
        <rect id="r-9" width="3" height="3" fill="#ffa900" stroke="none" stroke-width="1" fill-rule="evenodd" transform="translate(38.5,96.5) translate(-1.5,-1.5)"/>
        <rect id="r-7" width="3" height="3" fill="#ffa900" stroke="none" stroke-width="1" fill-rule="evenodd" transform="translate(1.5,96.5) translate(-1.5,-1.5)"/>
        <rect id="r-5" width="3" height="3" fill="#ffa900" stroke="none" stroke-width="1" fill-rule="evenodd" transform="translate(1.5,58.5) translate(-1.5,-1.5)"/>
        <rect id="r-3" fill="#ffa900" width="3" height="3" stroke="none" stroke-width="1" fill-rule="evenodd" transform="translate(1.5,20.5) translate(-1.5,-1.5)"/>
        <rect id="r-1" width="3" height="3" fill="#ffa900" stroke="none" stroke-width="1" fill-rule="evenodd" transform="translate(20.5,1.5) translate(-1.5,-1.5)"/>
    </g>
</svg>
