<svg xmlns="http://www.w3.org/2000/svg" width="36" height="36" viewBox="0 0 36 36">
    <path fill="#000" fill-rule="evenodd" d="M4 0h28a4 4 0 0 1 4 4v28a4 4 0 0 1-4 4H4a4 4 0 0 1-4-4V4a4 4 0 0 1 4-4zm26.997 24.656h.002c.375-.292.563-.657.563-1.094 0-.417-.573-1.583-1.719-3.5-1.23-2.042-2.125-3.063-2.688-3.063-.583 0-.99.23-1.219.688-.25.5-.229 1.156.063 1.969-1.48 2.25-4 3.375-7.563 3.375-3.542 0-6.073-1.115-7.594-3.344.209-1.083.313-1.573.313-1.469-.105-.813-.584-1.219-1.438-1.219-.48 0-1.334.948-2.563 2.844-1.23 1.854-1.844 3.073-1.844 3.656 0 .333.094.646.281.938.27.375.656.563 1.156.563.52 0 .969-.292 1.344-.875.771-1.23 1.136-1.813 1.094-1.75 2.125 2.437 5.208 3.656 9.25 3.656 3.77 0 6.864-1.219 9.281-3.656.062.104.197.344.406.719.229.375.406.666.531.875.479.687.947 1.031 1.406 1.031.333 0 .646-.115.938-.344zM11.496 8.844c-.437.438-.656.98-.656 1.625s.219 1.197.656 1.656c.458.437 1.01.656 1.656.656.646 0 1.188-.219 1.625-.656.459-.458.688-1.01.688-1.656 0-.646-.23-1.188-.688-1.625a2.157 2.157 0 0 0-1.625-.688c-.645 0-1.197.23-1.656.688zm10.16.031A2.312 2.312 0 0 0 21 10.531c0 .646.219 1.188.656 1.625.458.459 1.01.688 1.656.688.646 0 1.188-.23 1.625-.688.459-.438.688-.98.688-1.625s-.23-1.197-.688-1.656c-.438-.437-.98-.656-1.625-.656s-1.197.219-1.656.656z"/>
</svg>
