{
  "byProvider": {
    "betsoft": "16:9"
  },
  "byGameId": {
    "y-aristocrat-queen-of-the-nile-ii": "16:9",
    "y-aristocrat-moon-festival": "16:9",
    "y-aristocrat-50-dragons": "16:9",
    "y-aristocrat-50-lions": "16:9",
    "y-aristocrat-tiki-torch": "16:9",
    "y-aristocrat-dolphins-treasure": "16:9",
    "y-aristocrat-queen-of-the-nile": "16:9",
    "y-aristocrat-geisha": "16:9",
    "y-aristocrat-lucky-count": "16:9",
    "y-aristocrat-sun-and-moon": "16:9",
    "y-aristocrat-double-happiness": "16:9",
    "y-aristocrat-pelican-pete": "16:9",
    "y-aristocrat-werewolf-wild": "16:9",
    "y-aristocrat-big-red": "16:9",
    "y-aristocrat-miss-kitty": "16:9",
    "y-amatic-billyonaire": "4:3",
    "y-amatic-wild-diamonds": "4:3",
    "y-amatic-grandx": "4:3",
    "y-amatic-eye-of-ra": "4:3",
    "y-amatic-wolf-moon": "4:3",
    "y-amatic-merry-fruits": "4:3",
    "y-amatic-wild-7": "4:3",
    "y-amatic-hot-seven": "4:3",
    "y-amatic-hot-twenty": "4:3",
    "y-amatic-hot-27": "4:3",
    "y-amatic-fortunas-fruits": "4:3",
    "y-amatic-hot-star": "4:3",
    "y-amatic-lucky-bells": "4:3",
    "y-amatic-magic-owl": "4:3",
    "y-amatic-casanova": "4:3",
    "y-amatic-lucky-coin": "4:3",
    "y-amatic-lady-luck": "4:3",
    "y-amatic-hot-scatter": "4:3",
    "y-amatic-royal-unicorn": "4:3",
    "y-amatic-lucky-zodiac": "4:3",
    "y-amatic-hot-neon": "4:3",
    "y-amatic-magic-idol": "4:3",
    "y-amatic-blue-dolphin": "4:3",
    "y-amatic-mermaids-gold": "4:3",
    "y-amatic-dragons-pearl": "4:3",
    "y-amatic-wild-shark": "4:3",
    "y-amatic-all-ways-fruits": "4:3",
    "y-amatic-party-time": "4:3",
    "y-amatic-cool-diamonds-ii": "4:3",
    "y-amatic-hot-diamonds": "4:3",
    "y-amatic-admiral": "4:3",
    "y-amatic-diamond-cats": "4:3",
    "y-amatic-roman-legion": "4:3",
    "y-amatic-wild-respin": "4:3",
    "y-amatic-arising-phoenix": "4:3",
    "y-amatic-wild-stars": "4:3",
    "y-amatic-lady-joker": "4:3",
    "y-amatic-book-of-aztec": "4:3",
    "y-amatic-book-of-fortune": "4:3",
    "y-amatic-bingo": "4:3",
    "y-amatic-dragons-kingdom": "4:3",
    "y-amatic-bells-on-fire-rombo": "4:3",
    "y-amatic-diamond-monkey": "4:3",
    "y-amatic-gem-star": "4:3",
    "y-amatic-grand-tiger": "4:3",
    "y-amatic-golden-book": "4:3",
    "y-amatic-wild-dragon": "4:3",
    "y-amatic-aztec-secret": "4:3",
    "y-amatic-big-panda": "4:3",
    "y-amatic-diamonds-on-fire": "4:3",
    "y-amatic-tweety-birds": "4:3",
    "y-amatic-fire-and-ice": "4:3",
    "y-amatic-billys-game": "4:3",
    "y-amatic-casinova": "4:3",
    "y-amatic-bells-on-fire-hot": "4:3",
    "y-amatic-hot-81": "4:3",
    "y-amatic-red-chilli": "4:3",
    "y-amatic-magic-forest": "4:3",
    "y-amatic-lovely-lady": "4:3",
    "y-amatic-dynamite-7": "4:3",
    "y-amatic-fantastico": "4:3",
    "y-amatic-all-ways-win": "4:3",
    "y-amatic-vampires": "4:3",
    "y-amatic-light-ning-hot": "4:3",
    "y-amatic-la-gran-aventura": "4:3",
    "y-amatic-jacks-or-better": "4:3",
    "betsoft-max-quest-wrath-of-ra": "auto",
    "poker3-heads-up-holdem": "auto"
  }
}