<svg width="45" height="44" viewBox="0 0 45 44" fill="none" xmlns="http://www.w3.org/2000/svg">
<path d="M20.6054 0.740848C21.5272 0.214623 22.6584 0.214623 23.5801 0.740848L25.5433 1.86158C26.0898 2.1736 26.7206 2.30584 27.3465 2.23958L29.6049 2.00047C30.6656 1.88817 31.7061 2.34748 32.3379 3.20686L33.6449 4.98473C34.0213 5.49679 34.5507 5.87607 35.1566 6.06789L37.2836 6.74127C38.3122 7.06692 39.0868 7.91983 39.312 8.97498L39.7597 11.072C39.8942 11.7018 40.2278 12.2716 40.7111 12.6972L42.3371 14.1289C43.1554 14.8494 43.5184 15.9571 43.2852 17.0222L42.8328 19.0881C42.6939 19.7222 42.7645 20.3842 43.0338 20.9748L43.9136 22.9037C44.3672 23.8982 44.244 25.0607 43.592 25.9381L42.3165 27.6544C41.9304 28.174 41.7227 28.8044 41.7244 29.4517L41.73 31.5751C41.7328 32.6604 41.1493 33.6626 40.204 34.1959L38.2885 35.2765C37.7313 35.5909 37.2891 36.0752 37.0266 36.6587L36.1349 38.6411C35.695 39.6191 34.7666 40.2878 33.6997 40.3953L31.4546 40.6215C30.8259 40.6849 30.2333 40.9451 29.7613 41.365L28.0898 42.8521C27.2958 43.5585 26.1873 43.7921 25.1757 43.4662L23.0128 42.7693C22.4146 42.5766 21.771 42.5766 21.1728 42.7693L19.0098 43.4662C17.9983 43.7921 16.8898 43.5585 16.0958 42.8521L14.4243 41.365C13.9522 40.9451 13.3596 40.6849 12.7309 40.6215L10.4859 40.3953C9.41893 40.2878 8.49052 39.6191 8.05063 38.6411L7.15892 36.6587C6.89645 36.0752 6.45428 35.5909 5.897 35.2765L3.98152 34.1959C3.03626 33.6626 2.45271 32.6604 2.45556 31.5751L2.46113 29.4517C2.46283 28.8044 2.25512 28.174 1.86903 27.6544L0.593511 25.9381C-0.05848 25.0607 -0.181696 23.8982 0.271895 22.9037L1.15169 20.9748C1.42105 20.3842 1.49159 19.7222 1.35274 19.0881L0.900344 17.0222C0.667109 15.9571 1.03009 14.8494 1.84841 14.1289L3.4744 12.6972C3.95775 12.2716 4.29132 11.7018 4.42578 11.072L4.8735 8.97498C5.09878 7.91983 5.87331 7.06692 6.90192 6.74127L9.02897 6.06789C9.63487 5.87607 10.1642 5.49679 10.5406 4.98473L11.8476 3.20686C12.4794 2.34748 13.5199 1.88817 14.5806 2.00047L16.839 2.23958C17.4649 2.30584 18.0957 2.1736 18.6423 1.86158L20.6054 0.740848Z" fill="#DD1A1A"/>
</svg>
