<?xml version="1.0" encoding="UTF-8" standalone="no"?>
<svg xmlns:xlink="http://www.w3.org/1999/xlink" height="86.2px" width="114.4px" xmlns="http://www.w3.org/2000/svg">
  <g transform="matrix(1.0, 0.0, 0.0, 1.0, 0.35, 0.35)">
    <path d="M62.9 12.05 Q64.85 8.95 68.45 7.0 L69.05 6.7 Q72.95 4.8 76.85 4.95 L78.65 5.0 79.4 5.0 86.65 4.25 Q92.05 3.25 94.1 1.45 93.6 2.75 93.6 3.5 L95.05 9.3 Q96.45 14.55 96.45 16.2 96.45 20.65 93.95 23.15 91.0 25.45 88.8 27.75 L89.0 27.85 84.9 27.35 84.15 27.25 84.8 26.85 Q86.7 25.4 87.6 23.65 88.7 21.55 88.7 18.2 88.7 16.4 88.3 14.95 89.1 14.05 88.95 12.6 L88.25 12.6 87.7 13.35 86.35 11.4 87.25 9.9 87.3 9.8 87.1 9.8 85.65 10.8 Q83.55 9.0 80.1 8.9 L79.4 8.85 77.45 9.05 76.65 9.15 74.8 9.55 74.75 9.35 74.5 9.55 74.5 9.65 Q73.55 9.9 72.85 10.25 69.4 11.95 68.7 14.1 L68.65 14.3 Q68.45 14.9 68.55 15.4 L68.7 15.85 68.5 15.9 Q67.9 16.2 67.4 18.25 L66.55 22.1 65.7 18.8 65.25 17.4 Q64.15 14.2 62.85 12.0 L62.9 12.05" fill="url(#gradient0)" fill-rule="evenodd" stroke="none"/>
    <path d="M85.65 10.8 L87.1 9.8 87.25 9.9 86.35 11.4 Q84.55 13.85 81.8 15.6 L81.75 15.6 81.95 16.1 Q83.35 15.4 85.6 14.7 86.9 14.2 87.7 13.35 L88.25 12.6 88.95 12.6 Q89.1 14.05 88.3 14.95 87.55 15.85 85.9 16.25 L82.1 16.65 80.8 16.8 Q79.6 17.0 77.8 19.0 L75.9 21.25 74.95 22.2 75.7 22.2 76.2 22.15 76.25 22.15 Q77.3 21.95 78.75 21.05 L81.75 19.1 81.95 19.1 81.75 20.75 81.75 21.0 83.25 20.55 83.6 20.5 Q84.25 20.5 84.5 20.75 L84.5 21.0 83.45 21.25 76.25 23.15 76.0 23.2 Q73.25 24.05 71.1 27.1 L69.55 27.25 75.3 20.7 77.1 18.6 Q79.15 16.2 81.4 14.2 83.45 12.3 85.65 10.8 M78.6 9.4 L76.35 16.3 75.7 14.1 75.3 13.25 74.5 11.7 74.5 9.65 74.8 9.55 Q74.95 10.35 76.15 12.95 L76.2 13.05 76.35 13.05 Q76.15 11.75 78.45 9.35 L78.6 9.4 M70.05 20.5 L69.75 19.75 69.7 19.65 68.7 17.25 68.7 17.0 69.65 17.6 70.75 17.95 70.35 14.65 Q70.25 12.65 71.7 11.45 L71.95 11.45 Q71.0 13.35 71.0 14.25 L71.25 16.1 71.25 16.3 71.35 16.1 71.95 14.95 72.45 14.95 72.6 15.0 72.7 15.5 Q72.7 16.6 72.0 17.4 71.7 17.7 71.55 18.15 71.25 18.9 71.25 20.05 L71.25 20.15 71.2 22.35 70.9 23.4 70.05 20.5" fill="#208253" fill-rule="evenodd" stroke="none"/>
    <path d="M66.55 22.1 L67.4 18.25 Q67.9 16.2 68.5 15.9 L68.7 15.85 68.55 15.4 Q68.45 14.9 68.65 14.3 L68.7 14.1 Q69.4 11.95 72.85 10.25 73.55 9.9 74.5 9.65 L74.5 11.7 75.3 13.25 75.7 14.1 76.35 16.3 78.6 9.4 78.7 9.1 78.45 9.35 Q76.15 11.75 76.35 13.05 L76.2 13.05 76.15 12.95 Q74.95 10.35 74.8 9.55 L76.65 9.15 77.45 9.05 79.4 8.85 80.1 8.9 Q83.55 9.0 85.65 10.8 83.45 12.3 81.4 14.2 79.15 16.2 77.1 18.6 L75.3 20.7 Q74.35 20.05 72.5 20.05 L71.25 20.15 71.25 20.05 Q71.25 18.9 71.55 18.15 71.7 17.7 72.0 17.4 72.7 16.6 72.7 15.5 L72.6 15.0 72.45 14.95 71.95 14.95 71.35 16.1 71.25 16.1 71.0 14.25 Q71.0 13.35 71.95 11.45 L71.7 11.45 Q70.25 12.65 70.35 14.65 L70.75 17.95 69.65 17.6 68.7 17.0 68.7 17.25 69.7 19.65 69.75 19.75 70.05 20.5 68.85 21.2 Q67.85 22.1 66.95 24.3 L66.65 22.8 66.55 22.1 M86.35 11.4 L87.7 13.35 Q86.9 14.2 85.6 14.7 83.35 15.4 81.95 16.1 L81.75 15.6 81.8 15.6 Q84.55 13.85 86.35 11.4 M88.3 14.95 Q88.7 16.4 88.7 18.2 88.7 21.55 87.6 23.65 86.7 25.4 84.8 26.85 L84.15 27.25 82.5 27.15 76.0 26.85 76.25 23.15 83.45 21.25 84.5 21.0 84.5 20.75 Q84.25 20.5 83.6 20.5 L83.25 20.55 81.75 21.0 81.75 20.75 81.95 19.1 81.75 19.1 78.75 21.05 Q77.3 21.95 76.25 22.15 L76.2 22.1 75.9 21.25 77.8 19.0 Q79.6 17.0 80.8 16.8 L82.1 16.65 85.9 16.25 Q87.55 15.85 88.3 14.95" fill="#42c26a" fill-rule="evenodd" stroke="none"/>
    <path d="M89.65 28.0 L89.75 28.05 Q98.9 30.95 106.1 36.45 112.2 41.15 113.4 47.9 112.85 45.65 111.4 43.95 109.45 41.65 106.95 41.2 L106.8 41.75 Q107.45 44.3 107.55 46.1 L107.6 49.4 Q107.6 53.45 103.85 56.5 100.3 59.45 96.95 58.95 L96.7 59.15 Q97.25 60.6 99.9 61.0 L102.6 61.05 104.75 60.95 104.4 61.45 104.1 61.45 93.0 60.7 Q86.25 59.85 82.7 58.8 L79.5 57.7 Q76.5 56.45 72.2 54.3 68.15 52.3 65.7 50.4 63.9 49.0 63.0 47.7 62.5 41.25 57.7 38.1 L58.2 34.7 Q58.7 31.7 62.65 29.55 64.85 28.4 67.35 27.75 L67.45 29.3 Q65.7 30.15 63.75 31.9 60.25 35.15 60.25 37.25 60.25 40.05 64.05 45.35 67.85 50.6 70.3 51.5 69.05 48.15 67.2 45.75 66.1 44.35 66.1 41.7 66.1 37.75 67.85 35.6 L72.85 31.45 Q74.15 30.45 78.0 30.15 81.0 29.9 82.45 28.85 L82.95 28.4 84.15 27.25 84.9 27.35 89.0 27.85 89.65 28.0 M89.75 38.4 L88.55 38.05 85.85 37.4 Q80.45 36.2 76.05 36.7 70.5 37.3 69.85 39.7 69.4 41.45 71.65 43.75 L71.7 43.8 73.65 45.5 Q76.55 47.7 80.55 49.45 L81.6 49.9 84.05 50.8 85.0 51.15 Q91.9 53.4 97.9 52.15 103.85 50.95 104.2 48.85 104.5 46.75 100.05 43.35 96.0 40.3 89.75 38.4" fill="url(#gradient1)" fill-rule="evenodd" stroke="none"/>
    <path d="M113.7 51.85 Q113.6 54.65 112.65 57.45 L110.15 59.85 Q108.5 61.3 104.4 61.45 L104.75 60.95 Q108.95 60.55 111.1 58.45 113.4 56.25 113.7 51.85 M69.55 27.25 L71.1 27.1 71.6 27.05 75.95 26.85 76.0 26.85 82.5 27.15 84.15 27.25 82.95 28.4 82.45 28.85 80.65 28.4 78.7 28.15 70.85 28.4 70.2 28.45 68.6 28.8 Q68.0 29.0 67.45 29.3 L67.35 27.75 69.55 27.25" fill="#fff69b" fill-rule="evenodd" stroke="none"/>
    <path d="M89.75 38.4 Q89.45 39.5 89.45 40.3 89.45 42.3 91.1 43.6 92.7 44.95 92.7 46.15 92.7 47.3 90.65 47.5 L88.15 47.5 84.95 47.15 83.15 46.5 80.8 45.9 Q79.75 45.7 78.9 42.15 78.1 38.65 76.85 38.65 75.45 38.65 73.55 40.5 71.7 42.35 71.7 43.7 L71.65 43.75 Q69.4 41.45 69.85 39.7 70.5 37.3 76.05 36.7 80.45 36.2 85.85 37.4 L88.55 38.05 89.75 38.4 M80.55 49.45 L81.15 48.6 Q82.0 47.75 82.3 47.75 L82.55 47.75 Q84.05 47.95 84.05 50.55 L84.05 50.8 81.6 49.9 80.55 49.45" fill="#ffd84a" fill-rule="evenodd" stroke="none"/>
    <path d="M71.7 43.7 Q71.7 42.35 73.55 40.5 75.45 38.65 76.85 38.65 78.1 38.65 78.9 42.15 79.75 45.7 80.8 45.9 L83.15 46.5 84.95 47.15 88.15 47.5 90.65 47.5 Q92.7 47.3 92.7 46.15 92.7 44.95 91.1 43.6 89.45 42.3 89.45 40.3 89.45 39.5 89.75 38.4 96.0 40.3 100.05 43.35 104.5 46.75 104.2 48.85 103.85 50.95 97.9 52.15 91.9 53.4 85.0 51.15 L84.05 50.8 84.05 50.55 Q84.05 47.95 82.55 47.75 L82.3 47.75 Q82.0 47.75 81.15 48.6 L80.55 49.45 Q76.55 47.7 73.65 45.5 L71.7 43.8 71.7 43.7" fill="url(#gradient2)" fill-rule="evenodd" stroke="none"/>
    <path d="M113.4 47.9 L113.7 51.2 113.7 51.85 Q113.4 56.25 111.1 58.45 108.95 60.55 104.75 60.95 L102.6 61.05 99.9 61.0 Q97.25 60.6 96.7 59.15 L96.95 58.95 Q100.3 59.45 103.85 56.5 107.6 53.45 107.6 49.4 L107.55 46.1 Q107.45 44.3 106.8 41.75 L106.95 41.2 Q109.45 41.65 111.4 43.95 112.85 45.65 113.4 47.9" fill="url(#gradient3)" fill-rule="evenodd" stroke="none"/>
    <path d="M65.7 50.4 Q68.15 52.3 72.2 54.3 76.5 56.45 79.5 57.7 L82.7 58.8 Q86.25 59.85 93.0 60.7 L104.1 61.45 104.4 61.45 Q100.25 67.7 96.7 70.85 91.9 75.0 86.5 75.0 82.45 75.0 79.2 74.1 75.6 73.15 72.9 71.1 65.45 65.45 65.45 52.3 L65.7 50.4" fill="url(#gradient4)" fill-rule="evenodd" stroke="none"/>
    <path d="M112.65 57.45 Q110.8 62.95 105.45 68.15 97.15 76.2 87.55 76.2 L79.35 75.65 Q75.7 75.05 73.2 73.9 69.75 72.3 62.5 66.2 L62.45 66.2 62.8 64.7 63.25 60.45 62.95 50.45 63.05 49.15 63.0 47.7 Q63.9 49.0 65.7 50.4 L65.45 52.3 Q65.45 65.45 72.9 71.1 75.6 73.15 79.2 74.1 82.45 75.0 86.5 75.0 91.9 75.0 96.7 70.85 100.25 67.7 104.4 61.45 108.5 61.3 110.15 59.85 L112.65 57.45" fill="url(#gradient5)" fill-rule="evenodd" stroke="none"/>
    <path d="M9.9 45.2 L9.35 44.5 9.0 43.65 9.2 43.55 Q12.85 26.65 22.1 18.6 L22.45 18.3 Q31.4 10.45 37.55 7.9 43.8 5.35 49.55 4.15 L49.95 4.4 Q56.85 3.65 62.45 11.4 L62.75 11.9 62.85 12.0 Q64.15 14.2 65.25 17.4 65.25 22.15 60.95 25.6 56.4 29.25 50.45 29.55 L44.85 29.95 35.55 31.25 Q27.8 33.05 25.5 36.7 L22.4 37.75 Q15.15 40.5 9.9 45.2" fill="url(#gradient6)" fill-rule="evenodd" stroke="none"/>
    <path d="M65.25 17.4 L65.7 18.8 66.55 22.1 66.65 22.8 66.95 24.3 67.35 27.75 Q64.85 28.4 62.65 29.55 58.7 31.7 58.2 34.7 L57.7 38.1 Q56.3 37.2 54.65 36.55 51.05 35.2 44.15 34.85 L38.9 34.7 Q32.05 34.7 25.5 36.7 27.8 33.05 35.55 31.25 L44.85 29.95 50.45 29.55 Q56.4 29.25 60.95 25.6 65.25 22.15 65.25 17.4" fill="url(#gradient7)" fill-rule="evenodd" stroke="none"/>
    <path d="M76.2 22.15 L75.7 22.2 74.95 22.2 75.9 21.25 76.2 22.1 76.2 22.15 M75.3 20.7 L69.55 27.25 67.35 27.75 66.95 24.3 Q67.85 22.1 68.85 21.2 L70.05 20.5 70.9 23.4 71.2 22.35 71.25 20.15 72.5 20.05 Q74.35 20.05 75.3 20.7 M71.1 27.1 Q73.25 24.05 76.0 23.2 L76.25 23.15 76.0 26.85 75.95 26.85 71.6 27.05 71.1 27.1" fill="#22a256" fill-rule="evenodd" stroke="none"/>
    <path d="M8.95 43.6 L8.75 43.6 Q10.85 32.95 14.7 25.4 17.1 20.75 20.15 17.2 L20.2 17.15 Q25.05 11.6 32.1 8.05 38.9 4.6 47.7 3.0 L49.55 4.15 Q43.8 5.35 37.55 7.9 31.4 10.45 22.45 18.3 L22.1 18.6 Q12.85 26.65 9.2 43.55 L8.95 43.6" fill="#ffbd32" fill-rule="evenodd" stroke="none"/>
    <path d="M24.9 37.85 L25.7 37.6 25.75 37.55 26.8 37.55 27.0 37.5 30.5 36.9 37.35 36.05 43.25 36.25 45.25 36.3 50.0 36.75 Q52.2 37.2 53.55 38.15 60.55 43.1 60.55 47.6 60.55 52.25 58.85 56.4 56.7 61.6 52.0 65.45 45.95 70.35 39.0 72.6 33.2 74.45 26.75 74.45 L22.95 74.25 Q17.2 74.25 13.1 72.25 L11.6 71.4 Q6.0 67.75 6.0 60.1 6.0 53.75 10.8 47.7 16.0 41.05 24.9 37.85 M49.8 41.2 Q46.75 39.45 41.7 38.9 L36.05 38.6 Q31.05 38.6 27.7 39.65 24.15 40.8 20.35 43.75 15.0 47.85 12.95 50.85 10.45 54.5 10.45 59.4 10.45 61.8 11.15 63.75 11.25 64.35 11.5 64.95 12.15 66.6 13.8 68.25 17.8 72.25 25.6 72.25 L33.9 71.8 39.3 70.25 43.35 68.4 Q46.95 66.45 48.6 65.0 50.2 63.5 53.1 57.85 55.95 52.15 55.0 47.9 54.0 43.6 49.8 41.2" fill="#ffffed" fill-rule="evenodd" stroke="none"/>
    <path d="M57.7 38.1 Q62.5 41.25 63.0 47.7 L63.05 49.15 62.95 50.45 Q62.45 53.85 59.35 59.8 L58.8 60.85 58.5 61.4 Q55.0 67.3 50.25 70.15 44.85 73.35 40.75 74.5 L39.75 74.8 33.1 76.0 27.15 76.4 20.25 76.4 Q16.95 76.4 13.3 74.9 L11.65 74.15 Q11.4 72.9 11.6 71.4 L13.1 72.25 Q17.2 74.25 22.95 74.25 L26.75 74.45 Q33.2 74.45 39.0 72.6 45.95 70.35 52.0 65.45 56.7 61.6 58.85 56.4 60.55 52.25 60.55 47.6 60.55 43.1 53.55 38.15 52.2 37.2 50.0 36.75 L45.25 36.3 43.25 36.25 37.35 36.05 30.5 36.9 27.0 37.5 26.8 37.55 25.75 37.55 25.7 37.6 24.9 37.85 25.5 36.7 Q32.05 34.7 38.9 34.7 L44.15 34.85 Q51.05 35.2 54.65 36.55 56.3 37.2 57.7 38.1" fill="url(#gradient8)" fill-rule="evenodd" stroke="none"/>
    <path d="M49.8 41.2 Q54.0 43.6 55.0 47.9 55.95 52.15 53.1 57.85 50.2 63.5 48.6 65.0 46.95 66.45 43.35 68.4 L39.3 70.25 33.9 71.8 25.6 72.25 Q17.8 72.25 13.8 68.25 12.15 66.6 11.5 64.95 11.25 64.35 11.15 63.75 10.45 61.8 10.45 59.4 10.45 54.5 12.95 50.85 15.0 47.85 20.35 43.75 24.15 40.8 27.7 39.65 31.05 38.6 36.05 38.6 L41.7 38.9 Q46.75 39.45 49.8 41.2 M43.05 46.0 L41.55 45.85 41.4 45.8 38.3 45.65 Q29.6 45.65 24.05 49.6 17.8 54.05 15.0 63.9 L20.6 65.35 23.15 66.1 30.15 66.65 Q33.85 66.65 38.25 64.5 L41.65 62.5 Q48.8 57.75 48.8 52.3 48.8 50.3 46.05 47.95 L43.8 46.35 43.05 46.0" fill="url(#gradient9)" fill-rule="evenodd" stroke="none"/>
    <path d="M43.05 46.0 L43.8 46.35 46.05 47.95 Q48.8 50.3 48.8 52.3 48.8 57.75 41.65 62.5 L38.25 64.5 Q33.85 66.65 30.15 66.65 L23.15 66.1 20.6 65.35 15.0 63.9 Q17.8 54.05 24.05 49.6 29.6 45.65 38.3 45.65 L41.4 45.8 41.55 45.85 43.05 46.0 M25.9 65.25 L27.9 64.45 30.4 63.55 32.2 63.5 33.55 63.55 Q35.45 63.55 36.65 62.5 L37.2 62.05 40.3 59.05 45.3 54.85 Q47.05 53.15 47.05 51.7 47.05 50.15 46.6 49.65 L45.1 48.35 44.8 49.0 Q44.8 51.85 43.8 53.45 L39.85 57.35 38.9 58.2 Q40.3 56.3 40.3 53.6 40.3 52.15 39.6 51.0 38.95 49.9 37.65 49.15 L40.3 50.35 42.4 51.2 42.8 50.6 43.0 50.1 43.0 50.05 41.15 49.2 38.35 47.65 36.9 47.65 36.9 48.75 Q35.1 47.9 33.1 47.9 29.4 47.9 27.5 50.1 L27.45 50.1 27.4 50.05 27.3 49.95 27.3 49.9 Q25.95 49.95 22.45 54.95 L22.75 55.25 Q22.85 55.4 23.05 55.4 L23.95 54.65 Q23.75 55.05 23.7 55.5 L23.65 56.6 Q23.65 57.45 24.0 57.7 L24.4 57.85 23.6 58.15 23.2 58.3 22.75 59.05 22.7 59.2 22.65 59.35 22.65 59.6 22.8 59.7 22.85 59.75 23.1 59.75 25.45 58.85 26.0 58.65 26.1 58.6 Q27.6 60.45 29.7 60.35 L31.1 60.6 32.65 60.85 36.05 60.3 36.55 60.1 36.15 60.4 35.4 60.9 Q33.85 61.85 31.7 61.85 L29.45 61.5 27.45 61.15 Q26.75 61.15 25.3 61.95 23.8 62.75 23.35 62.75 L22.45 62.5 21.95 62.1 21.55 61.7 21.45 61.65 21.0 61.2 20.75 60.55 20.6 60.2 20.05 58.1 19.75 57.8 Q19.3 59.25 19.2 60.0 L19.15 61.8 Q19.15 64.55 20.6 65.15 L23.45 65.35 24.8 65.5 25.9 65.35 25.9 65.25" fill="#e89c45" fill-rule="evenodd" stroke="none"/>
    <path d="M38.9 58.2 L39.85 57.35 43.8 53.45 Q44.8 51.85 44.8 49.0 L45.1 48.35 46.6 49.65 Q47.05 50.15 47.05 51.7 47.05 53.15 45.3 54.85 L40.3 59.05 37.2 62.05 36.65 62.5 Q35.45 63.55 33.55 63.55 L32.2 63.5 30.4 63.55 27.9 64.45 25.9 65.25 25.5 65.35 25.9 65.35 24.8 65.5 23.45 65.35 20.6 65.15 Q19.15 64.55 19.15 61.8 L19.2 60.0 Q19.3 59.25 19.75 57.8 L20.05 58.1 20.6 60.2 20.75 60.55 21.0 61.2 21.45 61.65 21.55 61.7 21.95 62.1 22.45 62.5 23.35 62.75 Q23.8 62.75 25.3 61.95 26.75 61.15 27.45 61.15 L29.45 61.5 31.7 61.85 Q33.85 61.85 35.4 60.9 L36.15 60.4 36.55 60.1 38.5 58.6 38.8 58.3 38.9 58.2 M36.9 48.75 L36.9 47.65 38.35 47.65 41.15 49.2 43.0 50.05 43.0 50.1 42.8 50.6 42.4 51.2 40.3 50.35 37.65 49.15 37.55 49.1 36.9 48.75 M27.75 50.6 L27.75 50.65 24.4 54.25 23.95 54.65 23.05 55.4 Q22.85 55.4 22.75 55.25 L22.45 54.95 Q25.95 49.95 27.3 49.9 L27.3 49.95 27.4 50.05 27.45 50.1 27.45 50.15 27.5 50.2 27.75 50.6 M25.1 57.65 L28.15 56.65 29.05 56.65 29.05 57.2 26.1 58.6 26.0 58.65 25.45 58.85 23.1 59.75 22.85 59.75 22.8 59.7 22.65 59.6 22.65 59.35 22.7 59.2 22.75 59.05 23.2 58.3 23.6 58.15 24.4 57.85 Q24.7 57.95 25.1 57.65 M37.25 54.15 L37.45 54.15 37.5 54.1 38.05 54.2 38.1 54.25 38.25 54.55 38.35 55.3 Q38.35 55.75 36.75 56.75 L34.85 57.85 33.85 58.4 33.85 57.35 35.45 55.55 36.9 54.35 Q37.05 54.2 37.25 54.15 M31.05 50.8 L31.1 50.75 31.25 50.65 Q32.3 50.05 32.85 50.05 L34.7 50.45 Q35.65 50.8 35.8 51.2 L33.05 51.6 Q31.05 51.75 29.55 52.7 L29.55 51.7 29.7 51.45 29.8 51.25 31.05 50.8" fill="#cd7b27" fill-rule="evenodd" stroke="none"/>
    <path d="M82.45 28.85 Q81.0 29.9 78.0 30.15 74.15 30.45 72.85 31.45 L67.85 35.6 Q66.1 37.75 66.1 41.7 66.1 44.35 67.2 45.75 69.05 48.15 70.3 51.5 67.85 50.6 64.05 45.35 60.25 40.05 60.25 37.25 60.25 35.15 63.75 31.9 65.7 30.15 67.45 29.3 68.0 29.0 68.6 28.8 L70.2 28.45 70.85 28.4 78.7 28.15 80.65 28.4 82.45 28.85" fill="url(#gradient10)" fill-rule="evenodd" stroke="none"/>
    <path d="M26.5 1.0 Q30.7 0.0 35.3 0.0 42.4 0.0 47.7 3.0 38.9 4.6 32.1 8.05 L32.35 7.5 32.5 5.15 Q32.5 3.1 31.55 2.15 30.4 0.95 27.45 0.95 L26.5 1.0" fill="url(#gradient11)" fill-rule="evenodd" stroke="none"/>
    <path d="M19.45 3.45 Q22.8 1.85 26.5 1.0 L27.45 0.95 Q30.4 0.95 31.55 2.15 32.5 3.1 32.5 5.15 L32.35 7.5 32.1 8.05 Q25.05 11.6 20.2 17.15 L20.15 17.2 Q17.1 20.75 14.7 25.4 L14.0 24.85 13.35 24.7 Q12.05 24.7 10.5 27.7 8.95 30.75 7.3 30.75 5.9 30.75 5.45 29.6 5.2 28.85 5.2 26.95 5.2 24.95 6.75 20.9 8.55 16.3 11.25 12.15 L11.35 12.05 Q15.15 6.2 19.45 3.45" fill="url(#gradient12)" fill-rule="evenodd" stroke="none"/>
    <path d="M8.75 43.6 Q5.55 43.65 2.5 40.7 -0.8 37.55 0.3 27.35 1.3 18.4 9.3 10.65 L11.55 8.6 Q15.25 5.45 19.45 3.45 15.15 6.2 11.35 12.05 L11.25 12.15 Q8.55 16.3 6.75 20.9 5.2 24.95 5.2 26.95 5.2 28.85 5.45 29.6 5.9 30.75 7.3 30.75 8.95 30.75 10.5 27.7 12.05 24.7 13.35 24.7 L14.0 24.85 14.7 25.4 Q10.85 32.95 8.75 43.6" fill="url(#gradient13)" fill-rule="evenodd" stroke="none"/>
    <path d="M2.3 64.1 Q1.95 62.45 1.95 60.9 1.95 56.35 4.1 52.35 6.2 48.3 8.05 46.85 L9.9 45.2 Q15.15 40.5 22.4 37.75 L25.5 36.7 24.9 37.85 Q16.0 41.05 10.8 47.7 6.0 53.75 6.0 60.1 6.0 67.75 11.6 71.4 11.4 72.9 11.65 74.15 8.75 72.75 6.65 70.9 L3.55 66.1 2.3 64.1" fill="url(#gradient14)" fill-rule="evenodd" stroke="none"/>
    <path d="M38.9 58.2 L38.8 58.3 38.5 58.6 36.55 60.1 36.05 60.3 32.65 60.85 31.1 60.6 29.7 60.35 Q27.6 60.45 26.1 58.6 L29.05 57.2 29.05 56.65 28.15 56.65 25.1 57.65 24.6 57.8 24.4 57.85 24.0 57.7 Q23.65 57.45 23.65 56.6 L23.7 55.5 Q23.75 55.05 23.95 54.65 L24.4 54.25 27.75 50.65 27.75 50.6 27.5 50.1 Q29.4 47.9 33.1 47.9 35.1 47.9 36.9 48.75 L36.9 48.8 37.55 49.1 37.65 49.15 Q38.95 49.9 39.6 51.0 40.3 52.15 40.3 53.6 40.3 56.3 38.9 58.2 M37.5 54.1 L37.25 54.15 Q37.05 54.2 36.9 54.35 L35.45 55.55 33.85 57.35 33.85 58.4 34.85 57.85 36.75 56.75 Q38.35 55.75 38.35 55.3 L38.25 54.55 38.1 54.25 38.05 54.2 37.5 54.1 M31.05 50.8 L29.8 51.25 29.7 51.45 29.55 51.7 29.55 52.7 Q31.05 51.75 33.05 51.6 L35.8 51.2 Q35.65 50.8 34.7 50.45 L32.85 50.05 Q32.3 50.05 31.25 50.65 L31.1 50.75 31.05 50.8" fill="url(#gradient15)" fill-rule="evenodd" stroke="none"/>
    <path d="M21.2 84.35 Q15.75 83.0 12.2 80.15 8.6 77.25 5.55 72.05 3.05 67.8 2.3 64.1 L3.55 66.1 6.65 70.9 Q8.75 72.75 11.65 74.15 L13.9 78.0 Q14.65 79.2 17.15 81.3 18.9 83.05 21.2 84.3 L21.2 84.35" fill="url(#gradient16)" fill-rule="evenodd" stroke="none"/>
    <path d="M51.15 80.25 Q43.4 85.5 32.15 85.5 26.05 85.5 21.35 84.4 L21.2 84.3 Q18.9 83.05 17.15 81.3 14.65 79.2 13.9 78.0 L11.65 74.15 13.3 74.9 Q16.95 76.4 20.25 76.4 L27.15 76.4 33.1 76.0 39.75 74.8 40.75 74.5 Q44.85 73.35 50.25 70.15 55.0 67.3 58.5 61.4 L58.6 61.45 58.15 62.9 58.65 63.4 Q58.55 63.9 57.9 63.9 L56.2 70.4 Q55.0 73.7 53.3 76.8 L51.15 80.25" fill="url(#gradient17)" fill-rule="evenodd" stroke="none"/>
    <path d="M62.45 66.3 L61.55 68.15 Q58.9 73.2 55.3 76.8 L51.15 80.25 53.3 76.8 Q55.0 73.7 56.2 70.4 L57.9 63.9 Q58.55 63.9 58.65 63.4 L58.15 62.9 58.6 61.45 58.8 60.85 59.35 59.8 Q62.45 53.85 62.95 50.45 L63.25 60.45 62.8 64.7 62.45 66.2 62.45 66.3" fill="url(#gradient18)" fill-rule="evenodd" stroke="none"/>
    <path d="M62.9 12.05 Q64.85 8.95 68.45 7.0 L69.05 6.7 Q72.95 4.8 76.85 4.95 L78.65 5.0 79.4 5.0 86.65 4.25 Q92.05 3.25 94.1 1.45 93.6 2.75 93.6 3.5 L95.05 9.3 Q96.45 14.55 96.45 16.2 96.45 20.65 93.95 23.15 91.0 25.45 88.8 27.75 L89.65 28.0 89.75 28.05 Q98.9 30.95 106.1 36.45 112.2 41.15 113.4 47.9 L113.7 51.2 113.7 51.85 Q113.6 54.65 112.65 57.45 110.8 62.95 105.45 68.15 97.15 76.2 87.55 76.2 L79.35 75.65 Q75.7 75.05 73.2 73.9 69.75 72.3 62.5 66.2 L62.45 66.3 61.55 68.15 Q58.9 73.2 55.3 76.8 L51.15 80.25 Q43.4 85.5 32.15 85.5 26.05 85.5 21.35 84.4 L21.2 84.35 Q15.75 83.0 12.2 80.15 8.6 77.25 5.55 72.05 3.05 67.8 2.3 64.1 1.95 62.45 1.95 60.9 1.95 56.35 4.1 52.35 6.2 48.3 8.05 46.85 L9.9 45.2 9.35 44.5 9.0 43.65 8.95 43.6 8.75 43.6 Q5.55 43.65 2.5 40.7 -0.8 37.55 0.3 27.35 1.3 18.4 9.3 10.65 L11.55 8.6 Q15.25 5.45 19.45 3.45 22.8 1.85 26.5 1.0 30.7 0.0 35.3 0.0 42.4 0.0 47.7 3.0 L49.55 4.15 49.95 4.4 Q56.85 3.65 62.45 11.4 L62.8 11.9 62.9 12.05" fill="none" stroke="#2f2f2f" stroke-linecap="round" stroke-linejoin="round" stroke-width="0.75"/>
    <path d="M84.15 27.25 L84.9 27.35 89.0 27.85 89.65 28.0 M69.55 27.25 L71.1 27.1 71.6 27.05 75.95 26.85 M76.0 26.85 L82.5 27.15 84.15 27.25 M67.35 27.75 Q64.85 28.4 62.65 29.55 58.7 31.7 58.2 34.7 L57.7 38.1 Q62.5 41.25 63.0 47.7 63.9 49.0 65.7 50.4 68.15 52.3 72.2 54.3 76.5 56.45 79.5 57.7 L82.7 58.8 Q86.25 59.85 93.0 60.7 L104.1 61.45 104.4 61.45 Q108.5 61.3 110.15 59.85 L112.65 57.45 M89.75 38.4 L88.55 38.05 85.85 37.4 Q80.45 36.2 76.05 36.7 70.5 37.3 69.85 39.7 69.4 41.45 71.65 43.75 M71.7 43.8 L73.65 45.5 Q76.55 47.7 80.55 49.45 M84.05 50.8 L85.0 51.15 Q91.9 53.4 97.9 52.15 103.85 50.95 104.2 48.85 104.5 46.75 100.05 43.35 96.0 40.3 89.75 38.4 M84.05 50.8 L81.6 49.9 80.55 49.45 M25.5 36.7 Q32.05 34.7 38.9 34.7 L44.15 34.85 Q51.05 35.2 54.65 36.55 56.3 37.2 57.7 38.1 M11.65 74.15 L13.3 74.9 Q16.95 76.4 20.25 76.4 L27.15 76.4 33.1 76.0 39.75 74.8 40.75 74.5 Q44.85 73.35 50.25 70.15 55.0 67.3 58.5 61.4 L58.8 60.85 59.35 59.8 Q62.45 53.85 62.95 50.45 L63.05 49.15 63.0 47.7 M43.05 46.0 L41.55 45.85 41.4 45.8 38.3 45.65 Q29.6 45.65 24.05 49.6 17.8 54.05 15.0 63.9 L20.6 65.35 23.15 66.1 30.15 66.65 Q33.85 66.65 38.25 64.5 L41.65 62.5 Q48.8 57.75 48.8 52.3 48.8 50.3 46.05 47.95 L43.8 46.35 43.05 46.0 M67.35 27.75 L69.55 27.25 M71.7 43.8 L71.65 43.75 M25.5 36.7 L22.4 37.75 Q15.15 40.5 9.9 45.2 M11.65 74.15 Q8.75 72.75 6.65 70.9 L3.55 66.1 2.3 64.1 M62.95 50.45 L63.25 60.45 62.8 64.7 62.45 66.2 62.45 66.3" fill="none" stroke="#000000" stroke-linecap="round" stroke-linejoin="round" stroke-width="0.05"/>
  </g>
  <defs>
    <radialGradient cx="0" cy="0" gradientTransform="matrix(0.0365, 0.0, 0.0, 0.0364, 67.3, 11.15)" gradientUnits="userSpaceOnUse" id="gradient0" r="819.2" spreadMethod="pad">
      <stop offset="0.0" stop-color="#6cd996"/>
      <stop offset="1.0" stop-color="#6cd996"/>
    </radialGradient>
    <radialGradient cx="0" cy="0" gradientTransform="matrix(0.0451, 0.0, 0.0, 0.0451, 94.55, 36.35)" gradientUnits="userSpaceOnUse" id="gradient1" r="819.2" spreadMethod="pad">
      <stop offset="0.0" stop-color="#fff7a3"/>
      <stop offset="1.0" stop-color="#fff58d"/>
    </radialGradient>
    <radialGradient cx="0" cy="0" gradientTransform="matrix(0.0323, 0.0, 0.0, 0.0323, 97.55, 47.3)" gradientUnits="userSpaceOnUse" id="gradient2" r="819.2" spreadMethod="pad">
      <stop offset="0.0" stop-color="#ffce50"/>
      <stop offset="1.0" stop-color="#e7b13f"/>
    </radialGradient>
    <radialGradient cx="0" cy="0" gradientTransform="matrix(0.0164, 0.0, 0.0, 0.0163, 108.15, 52.25)" gradientUnits="userSpaceOnUse" id="gradient3" r="819.2" spreadMethod="pad">
      <stop offset="0.0" stop-color="#fffbc8"/>
      <stop offset="1.0" stop-color="#fffff0"/>
    </radialGradient>
    <radialGradient cx="0" cy="0" gradientTransform="matrix(0.0261, 0.0, 0.0, 0.0261, 83.95, 61.5)" gradientUnits="userSpaceOnUse" id="gradient4" r="819.2" spreadMethod="pad">
      <stop offset="0.0" stop-color="#ffffff"/>
      <stop offset="0.17254901960784313" stop-color="#fffbd5"/>
      <stop offset="1.0" stop-color="#ffe77b"/>
    </radialGradient>
    <radialGradient cx="0" cy="0" gradientTransform="matrix(0.055, 0.0, 0.0, 0.0549, 69.8, 70.2)" gradientUnits="userSpaceOnUse" id="gradient5" r="819.2" spreadMethod="pad">
      <stop offset="0.0" stop-color="#ffce50"/>
      <stop offset="1.0" stop-color="#e7b13f"/>
    </radialGradient>
    <radialGradient cx="0" cy="0" gradientTransform="matrix(0.0408, 0.0, 0.0, 0.0407, 32.35, 21.45)" gradientUnits="userSpaceOnUse" id="gradient6" r="819.2" spreadMethod="pad">
      <stop offset="0.0" stop-color="#ffffff"/>
      <stop offset="0.17254901960784313" stop-color="#fffbd5"/>
      <stop offset="1.0" stop-color="#ffe77b"/>
    </radialGradient>
    <radialGradient cx="0" cy="0" gradientTransform="matrix(0.0327, 0.0, 0.0, 0.0327, 43.0, 32.4)" gradientUnits="userSpaceOnUse" id="gradient7" r="819.2" spreadMethod="pad">
      <stop offset="0.0" stop-color="#ffda61"/>
      <stop offset="1.0" stop-color="#ffc541"/>
    </radialGradient>
    <radialGradient cx="0" cy="0" gradientTransform="matrix(0.0393, 0.0, 0.0, 0.0392, 37.25, 55.55)" gradientUnits="userSpaceOnUse" id="gradient8" r="819.2" spreadMethod="pad">
      <stop offset="0.0" stop-color="#ffffc5"/>
      <stop offset="1.0" stop-color="#fffff3"/>
    </radialGradient>
    <radialGradient cx="0" cy="0" gradientTransform="matrix(0.0294, 0.0, 0.0, 0.0293, 32.85, 55.45)" gradientUnits="userSpaceOnUse" id="gradient9" r="819.2" spreadMethod="pad">
      <stop offset="0.0" stop-color="#ffffc5"/>
      <stop offset="1.0" stop-color="#fffff3"/>
    </radialGradient>
    <radialGradient cx="0" cy="0" gradientTransform="matrix(0.023, 0.0, 0.0, 0.023, 67.9, 32.8)" gradientUnits="userSpaceOnUse" id="gradient10" r="819.2" spreadMethod="pad">
      <stop offset="0.0" stop-color="#fffbc8"/>
      <stop offset="1.0" stop-color="#fffff0"/>
    </radialGradient>
    <radialGradient cx="0" cy="0" gradientTransform="matrix(0.0185, 0.0, 0.0, 0.0185, 32.85, 2.2)" gradientUnits="userSpaceOnUse" id="gradient11" r="819.2" spreadMethod="pad">
      <stop offset="0.0" stop-color="#ffda61"/>
      <stop offset="1.0" stop-color="#ffc541"/>
    </radialGradient>
    <radialGradient cx="0" cy="0" gradientTransform="matrix(0.0285, 0.0, 0.0, 0.0285, 21.15, 12.45)" gradientUnits="userSpaceOnUse" id="gradient12" r="819.2" spreadMethod="pad">
      <stop offset="0.0" stop-color="#ffffa3"/>
      <stop offset="1.0" stop-color="#ffe475"/>
    </radialGradient>
    <radialGradient cx="0" cy="0" gradientTransform="matrix(0.0312, 0.0, 0.0, 0.0312, 11.7, 27.75)" gradientUnits="userSpaceOnUse" id="gradient13" r="819.2" spreadMethod="pad">
      <stop offset="0.0" stop-color="#ffda61"/>
      <stop offset="1.0" stop-color="#ffc541"/>
    </radialGradient>
    <radialGradient cx="0" cy="0" gradientTransform="matrix(0.0272, 0.0, 0.0, 0.0272, 13.7, 55.45)" gradientUnits="userSpaceOnUse" id="gradient14" r="819.2" spreadMethod="pad">
      <stop offset="0.0" stop-color="#ffffc5"/>
      <stop offset="1.0" stop-color="#fffff3"/>
    </radialGradient>
    <radialGradient cx="0" cy="0" gradientTransform="matrix(0.0117, 0.0, 0.0, 0.0117, 31.95, 53.55)" gradientUnits="userSpaceOnUse" id="gradient15" r="819.2" spreadMethod="pad">
      <stop offset="0.3176470588235294" stop-color="#ffffa6"/>
      <stop offset="0.44313725490196076" stop-color="#ffde85"/>
      <stop offset="1.0" stop-color="#ffde84"/>
    </radialGradient>
    <radialGradient cx="0" cy="0" gradientTransform="matrix(0.0211, 0.0, 0.0, 0.021, 12.1, 78.3)" gradientUnits="userSpaceOnUse" id="gradient16" r="819.2" spreadMethod="pad">
      <stop offset="0.0" stop-color="#ffce50"/>
      <stop offset="1.0" stop-color="#e7b13f"/>
    </radialGradient>
    <radialGradient cx="0" cy="0" gradientTransform="matrix(0.035, 0.0, 0.0, 0.035, 35.15, 77.95)" gradientUnits="userSpaceOnUse" id="gradient17" r="819.2" spreadMethod="pad">
      <stop offset="0.0" stop-color="#ffffff"/>
      <stop offset="0.17254901960784313" stop-color="#fffbd5"/>
      <stop offset="1.0" stop-color="#ffe77b"/>
    </radialGradient>
    <radialGradient cx="0" cy="0" gradientTransform="matrix(0.0297, 0.0, 0.0, 0.0297, 55.35, 73.6)" gradientUnits="userSpaceOnUse" id="gradient18" r="819.2" spreadMethod="pad">
      <stop offset="0.0" stop-color="#ffce50"/>
      <stop offset="1.0" stop-color="#e7b13f"/>
    </radialGradient>
  </defs>
</svg>
