<?xml version="1.0" encoding="UTF-8" standalone="no"?>
<svg xmlns:xlink="http://www.w3.org/1999/xlink" height="99.45px" width="115.9px" xmlns="http://www.w3.org/2000/svg">
  <g transform="matrix(1.0, 0.0, 0.0, 1.0, 0.0, 0.0)">
    <path d="M100.35 23.7 L100.7 23.55 102.6 22.65 Q106.95 28.9 108.95 36.4 109.85 39.65 110.25 43.2 110.85 48.35 110.4 53.25 L110.35 53.75 Q109.9 58.05 108.6 62.2 107.55 57.1 106.6 54.85 L106.75 54.05 106.75 53.85 Q107.3 50.6 107.3 47.7 107.3 40.85 106.3 38.7 L105.35 37.05 Q103.65 33.9 101.8 29.2 L101.65 28.85 101.65 29.2 Q101.7 34.35 101.25 38.6 L100.55 43.15 Q99.35 48.85 96.45 54.95 L96.45 55.0 87.55 56.85 89.55 55.1 94.45 50.35 Q95.15 49.6 97.35 43.2 L98.4 40.1 Q99.4 36.75 99.0 36.75 98.45 36.75 98.6 34.8 L98.65 33.7 Q100.05 29.0 99.8 24.0 L100.35 23.7 M97.0 16.0 Q88.7 12.9 84.45 11.7 75.95 9.2 65.4 9.2 56.75 9.2 46.2 12.1 L44.15 12.65 Q32.55 16.0 25.0 20.9 18.85 24.9 17.0 26.65 13.8 29.65 11.05 35.25 10.45 36.5 7.75 43.9 6.35 47.85 4.6 50.25 3.3 27.05 24.6 14.55 33.5 9.3 43.85 6.9 52.95 4.7 63.15 4.7 67.7 4.7 81.0 8.25 L89.9 10.65 90.9 10.9 Q94.2 13.3 97.0 16.0 M23.25 90.9 L21.3 89.65 20.6 89.15 17.9 87.15 22.5 88.4 26.35 89.35 Q36.75 91.85 40.65 91.85 46.6 91.85 52.95 90.5 L54.85 90.05 57.85 91.45 58.75 91.85 57.15 92.75 Q54.2 94.25 51.8 95.0 L51.3 95.1 Q47.85 96.0 41.6 96.0 36.15 96.0 30.75 93.7 26.7 92.0 23.25 90.9 M7.5 76.05 L5.45 72.6 7.3 72.6 Q9.15 73.5 15.55 75.25 L21.55 76.65 25.75 77.15 34.65 76.5 41.4 81.6 39.25 82.0 34.25 82.05 Q28.55 82.05 22.1 80.85 L19.7 80.35 Q12.0 78.65 7.5 76.05" fill="#cfff7b" fill-rule="evenodd" stroke="none"/>
    <path d="M90.0 10.25 L89.9 10.65 81.0 8.25 Q67.7 4.7 63.15 4.7 52.95 4.7 43.85 6.9 33.5 9.3 24.6 14.55 3.3 27.05 4.6 50.25 6.35 47.85 7.75 43.9 10.45 36.5 11.05 35.25 13.8 29.65 17.0 26.65 18.85 24.9 25.0 20.9 32.55 16.0 44.15 12.65 L46.2 12.1 Q56.75 9.2 65.4 9.2 75.95 9.2 84.45 11.7 88.7 12.9 97.0 16.0 100.15 19.15 102.6 22.65 L100.7 23.55 100.35 23.7 99.8 23.45 Q84.3 16.3 70.25 16.0 L47.85 17.2 44.15 17.8 Q32.35 19.95 23.45 29.25 14.5 38.55 10.45 46.0 6.35 53.4 5.35 59.2 4.35 64.8 4.8 68.1 L4.8 68.35 3.65 68.85 4.8 68.35 4.85 68.5 5.25 69.0 Q7.05 71.25 11.85 72.4 15.9 73.35 21.25 73.4 L21.6 73.4 25.5 73.3 29.3 72.1 29.5 72.05 34.65 76.5 25.75 77.15 21.55 76.65 15.55 75.25 Q9.15 73.5 7.3 72.6 L5.45 72.6 3.65 68.85 Q1.15 63.0 0.35 56.3 -2.05 35.9 12.3 19.55 26.7 3.2 49.45 0.5 72.2 -2.2 90.0 10.25 M98.6 34.8 Q98.45 36.75 99.0 36.75 99.4 36.75 98.4 40.1 L97.35 43.2 Q95.15 49.6 94.45 50.35 L89.55 55.1 87.55 56.85 78.3 58.65 74.95 59.25 73.55 59.5 Q77.9 57.15 81.55 54.7 86.65 51.15 90.35 47.3 L94.0 43.0 Q96.85 39.0 98.35 34.7 L98.6 34.8 M96.45 54.95 Q99.35 48.85 100.55 43.15 L101.25 38.6 Q101.7 34.35 101.65 29.2 L101.8 29.2 Q103.65 33.9 105.35 37.05 L106.3 38.7 Q107.3 40.85 107.3 47.7 107.3 50.6 106.75 53.85 L106.75 54.05 106.2 54.0 105.85 53.95 Q102.65 53.6 96.5 55.0 L96.45 54.95 M73.25 96.4 Q67.55 98.2 61.2 98.95 L53.55 99.45 50.35 99.35 Q35.65 98.65 23.25 90.9 26.7 92.0 30.75 93.7 36.15 96.0 41.6 96.0 47.85 96.0 51.3 95.1 L51.8 95.0 Q54.2 94.25 57.15 92.75 L58.75 91.85 Q65.45 94.6 73.1 95.95 L73.25 96.4 M17.9 87.15 Q11.6 82.2 7.5 76.05 12.0 78.65 19.7 80.35 L22.1 80.85 Q28.55 82.05 34.25 82.05 L39.25 82.0 41.4 81.6 48.8 86.6 Q50.95 88.0 53.2 89.25 L54.85 90.05 52.95 90.5 Q46.6 91.85 40.65 91.85 36.75 91.85 26.35 89.35 L22.5 88.4 17.9 87.15" fill="#06874a" fill-rule="evenodd" stroke="none"/>
    <path d="M4.8 68.1 Q4.35 64.8 5.35 59.2 6.35 53.4 10.45 46.0 14.5 38.55 23.45 29.25 32.35 19.95 44.15 17.8 L47.85 17.2 70.25 16.0 Q84.3 16.3 99.8 23.45 L99.8 24.0 96.8 25.35 99.8 24.0 Q100.05 29.0 98.65 33.7 L98.35 34.7 Q96.85 39.0 94.0 43.0 L90.35 47.3 Q86.65 51.15 81.55 54.7 77.9 57.15 73.55 59.5 L66.75 60.05 76.2 54.2 Q82.45 50.2 86.2 46.75 96.0 37.8 96.75 25.4 L96.8 25.35 96.75 25.25 96.75 24.7 79.85 21.3 Q68.0 19.05 60.85 19.05 54.85 19.05 48.75 20.45 45.45 21.15 42.1 22.3 31.65 25.8 26.15 31.5 16.4 41.65 13.25 46.45 7.65 55.05 7.65 64.7 L7.85 66.7 7.9 66.9 8.0 67.9 15.95 69.4 21.3 69.6 23.5 69.6 26.9 69.3 24.55 66.45 Q22.45 63.6 21.1 60.7 19.0 56.3 18.65 51.85 L20.85 51.75 Q25.4 62.45 32.2 70.15 38.95 77.85 46.45 82.1 49.6 83.9 53.85 85.6 L59.95 87.7 67.55 89.9 Q81.2 93.4 95.2 93.4 L102.75 93.0 102.75 97.3 98.05 97.55 74.05 96.1 73.1 95.95 Q65.45 94.6 58.75 91.85 L57.85 91.45 54.85 90.05 53.2 89.25 Q50.95 88.0 48.8 86.6 L41.4 81.6 34.65 76.5 29.5 72.05 29.2 71.75 26.9 69.3 29.2 71.75 29.3 72.1 25.5 73.3 21.6 73.4 21.25 73.4 Q15.9 73.35 11.85 72.4 7.05 71.25 5.25 69.0 L4.85 68.5 4.9 68.3 4.8 68.1 M115.15 85.6 L115.9 90.5 Q113.7 93.9 109.0 95.75 106.2 96.85 102.75 97.3 L102.75 93.0 106.15 92.1 Q108.9 90.9 115.15 85.6 M4.9 68.3 L7.9 66.9 4.9 68.3" fill="#ffffde" fill-rule="evenodd" stroke="none"/>
    <path d="M96.75 25.25 L96.75 25.4 93.25 27.0 96.75 25.4 Q96.0 37.8 86.2 46.75 82.45 50.2 76.2 54.2 L66.75 60.05 63.2 59.95 69.05 56.4 Q75.65 52.45 80.3 48.9 94.45 38.15 94.45 29.2 94.45 28.0 93.25 27.0 90.1 24.4 78.6 23.2 70.65 22.4 55.5 22.95 L49.55 23.7 Q37.45 26.3 25.6 37.9 10.85 52.35 11.05 65.4 L10.05 65.85 7.95 66.85 10.05 65.85 10.9 65.95 13.1 66.4 16.3 66.95 24.55 66.45 26.9 69.3 23.5 69.6 21.3 69.6 15.95 69.4 8.0 67.9 7.9 66.9 7.95 66.85 7.85 66.7 7.65 64.7 Q7.65 55.05 13.25 46.45 16.4 41.65 26.15 31.5 31.65 25.8 42.1 22.3 45.45 21.15 48.75 20.45 54.85 19.05 60.85 19.05 68.0 19.05 79.85 21.3 L96.75 24.7 96.75 25.25 M114.15 80.55 L114.75 83.5 115.15 85.6 Q108.9 90.9 106.15 92.1 L102.75 93.0 102.75 89.9 102.75 93.0 95.2 93.4 Q81.2 93.4 67.55 89.9 L59.95 87.7 53.85 85.6 Q49.6 83.9 46.45 82.1 38.95 77.85 32.2 70.15 25.4 62.45 20.85 51.75 L23.25 51.65 Q34.85 72.95 52.8 81.0 L54.4 81.75 Q58.1 83.35 61.7 84.6 74.65 89.1 86.25 89.25 L102.75 89.9 107.5 86.85 114.15 80.55" fill="#ffd681" fill-rule="evenodd" stroke="none"/>
    <path d="M87.55 56.85 L96.45 55.0 96.5 55.0 Q102.65 53.6 105.85 53.95 L106.2 54.0 106.6 54.85 Q107.55 57.1 108.6 62.2 L108.75 62.9 Q110.2 70.15 111.85 73.4 113.05 75.7 114.15 80.55 L107.5 86.85 102.75 89.9 Q102.8 77.95 102.95 75.0 L103.05 73.75 Q103.6 63.55 105.85 53.95 103.6 63.55 103.05 73.75 L102.95 75.0 Q102.8 77.95 102.75 89.9 L86.25 89.25 Q74.65 89.1 61.7 84.6 58.1 83.35 54.4 81.75 L52.8 81.0 Q34.85 72.95 23.25 51.65 L25.75 51.5 Q31.8 51.5 36.6 52.8 L37.45 53.05 93.25 27.0 Q94.45 28.0 94.45 29.2 94.45 38.15 80.3 48.9 75.65 52.45 69.05 56.4 L63.2 59.95 66.75 60.05 73.55 59.5 74.95 59.25 78.3 58.65 87.55 56.85 M10.05 65.85 L11.05 65.4 Q10.85 52.35 25.6 37.9 37.45 26.3 49.55 23.7 L55.5 22.95 Q70.65 22.4 78.6 23.2 90.1 24.4 93.25 27.0 L37.45 53.05 36.6 52.8 Q31.8 51.5 25.75 51.5 L23.25 51.65 20.85 51.75 18.65 51.85 Q19.0 56.3 21.1 60.7 22.45 63.6 24.55 66.45 L16.3 66.95 13.1 66.4 10.9 65.95 10.05 65.85 M87.9 64.55 L87.1 66.2 87.1 68.2 88.6 68.2 89.55 66.95 89.75 65.5 89.65 64.2 Q88.15 63.8 87.9 64.55 M85.75 73.65 L85.5 72.45 Q83.65 71.55 83.1 72.75 82.85 73.4 82.95 74.2 L83.05 75.5 Q83.4 76.2 84.65 76.7 L85.95 75.0 85.75 73.65 M81.8 83.1 L81.75 81.95 Q80.05 81.55 79.45 82.65 79.2 83.2 79.2 84.4 79.2 84.8 79.35 84.9 L80.5 85.65 Q81.4 85.1 81.65 84.4 L81.8 83.1 M95.3 71.75 Q91.9 71.2 91.9 74.05 L92.1 75.35 92.95 75.55 Q95.4 75.55 95.4 72.9 L95.3 71.75 M55.2 26.2 L55.1 25.65 55.0 25.8 52.95 25.8 Q52.2 26.3 52.2 27.3 52.2 27.75 52.5 28.2 52.9 28.85 53.7 28.85 L54.5 28.65 54.75 28.35 55.2 26.2 M54.45 33.45 L54.35 32.2 52.55 32.15 52.4 33.5 52.2 34.8 52.4 35.9 52.55 36.65 54.0 36.4 Q54.45 35.2 54.45 33.45 M47.55 29.4 L47.35 28.25 47.1 27.4 46.0 27.8 Q45.45 28.05 45.0 28.75 L45.0 30.75 45.65 31.0 46.55 31.1 Q47.25 31.1 47.45 30.65 L47.55 29.4 M46.65 36.95 Q46.65 34.6 45.05 36.0 43.4 37.4 43.4 38.55 L43.5 39.25 44.35 39.4 Q46.6 38.6 46.65 36.95 M62.05 28.05 L61.6 28.0 60.85 28.1 60.8 29.35 60.8 30.5 Q61.0 31.5 61.95 31.5 62.95 31.5 62.85 31.2 L63.05 30.45 63.25 29.35 63.15 28.65 Q62.85 28.15 62.1 28.05 L62.05 28.0 62.05 28.05 M65.75 46.75 Q64.45 46.5 64.45 48.75 64.45 49.8 65.95 50.75 L66.8 49.9 67.0 48.9 Q67.0 46.95 65.75 46.75 M77.85 43.3 L78.45 43.15 78.35 43.0 78.35 41.3 Q76.2 39.3 74.75 39.3 L74.65 40.75 74.85 42.05 Q75.5 43.3 77.85 43.3 M69.0 45.0 L69.1 46.0 Q69.55 47.45 71.2 47.45 72.2 47.45 72.75 46.9 L73.15 46.3 Q72.75 44.8 70.9 44.05 69.0 43.3 69.0 45.0 M74.55 45.9 Q74.55 46.6 75.05 47.4 75.65 48.35 76.55 48.35 78.4 47.65 78.4 47.05 78.4 45.55 76.65 45.5 75.25 45.45 74.55 45.9 M32.95 36.35 L32.85 34.8 Q32.55 34.05 31.15 34.1 30.2 36.6 30.2 37.3 L30.4 38.2 31.05 38.35 Q32.5 38.5 32.85 37.75 L32.95 36.35 M39.35 31.85 L39.05 31.55 37.85 30.55 Q36.35 30.8 36.35 32.85 L36.55 33.95 Q36.9 34.9 37.65 34.9 L38.65 34.65 39.0 34.4 39.35 31.85 M26.1 39.85 L25.95 39.9 Q24.55 40.5 24.55 41.75 24.55 42.45 24.7 42.65 25.0 43.15 26.35 43.2 L26.9 42.35 Q27.3 41.8 27.3 41.2 27.3 39.45 26.1 39.85 M26.05 47.5 L26.25 48.5 Q26.5 49.05 27.3 49.6 28.15 48.6 28.15 47.75 L28.05 45.9 Q26.55 45.5 26.2 46.2 26.05 46.45 26.05 47.5 M38.95 37.95 Q38.4 38.05 38.0 38.5 37.4 39.1 37.4 39.9 37.4 40.95 37.65 41.2 L39.55 41.95 Q40.5 41.0 40.5 39.95 L40.3 38.8 39.95 38.0 39.3 37.95 39.3 37.8 38.95 37.95 M33.7 41.5 L33.6 41.25 33.4 41.45 33.3 41.4 32.8 42.65 Q32.45 43.55 32.45 44.1 L32.65 44.9 Q33.0 45.55 33.75 45.55 L34.55 45.4 34.85 45.25 35.0 42.45 Q35.0 41.75 33.7 41.5 M11.05 65.4 L21.1 60.7 11.05 65.4 M69.0 65.45 Q69.0 63.6 67.1 65.0 65.2 66.4 65.2 67.8 65.2 68.8 65.3 68.65 66.05 69.05 66.9 69.05 67.6 69.05 68.35 67.45 L69.0 65.45 M75.15 66.5 Q74.65 67.25 74.65 67.45 74.65 68.4 75.95 69.4 76.65 69.05 78.05 66.7 L77.5 65.7 76.9 64.7 Q76.25 65.0 75.65 65.8 75.15 66.1 75.15 66.5 M46.7 65.0 Q47.1 64.05 47.1 63.1 47.1 61.0 45.2 61.75 43.3 62.5 43.3 64.7 L43.5 65.6 Q43.9 66.4 45.0 66.4 46.15 66.4 46.7 65.0 M46.35 71.25 L46.35 72.7 47.3 72.8 Q48.15 72.45 48.8 71.6 L49.35 70.65 Q49.35 70.05 49.15 69.95 L48.9 69.8 48.2 69.7 Q47.45 68.7 46.8 69.5 L46.75 69.6 46.35 69.6 46.35 70.3 Q46.2 70.65 46.2 71.05 46.2 71.4 46.35 71.25 M55.15 71.05 L54.5 71.1 Q53.15 71.45 53.15 72.85 53.15 73.85 53.25 73.3 54.3 73.9 55.05 73.95 L55.2 73.95 Q55.8 73.95 56.3 73.1 L56.9 71.95 Q56.1 71.1 55.15 71.05 M55.2 64.05 L54.95 63.7 54.25 62.7 52.45 64.1 Q51.65 64.8 51.65 65.35 51.65 65.85 52.0 66.3 52.65 67.15 54.1 67.15 L54.95 66.1 55.2 65.65 55.5 64.85 55.2 64.05 M63.2 59.95 L54.95 58.75 Q50.05 57.65 45.05 55.65 40.25 53.9 37.45 53.05 40.25 53.9 45.05 55.65 50.05 57.65 54.95 58.75 L63.2 59.95 M71.55 78.4 Q73.5 77.25 73.5 76.4 73.5 73.6 72.0 73.9 70.5 74.2 70.5 76.55 70.5 77.5 71.55 78.4 M58.8 75.25 Q58.8 76.25 59.35 75.85 L60.25 76.1 Q61.25 76.1 61.8 75.0 62.2 74.25 62.2 73.55 62.2 71.45 60.5 72.35 58.8 73.25 58.8 75.25 M66.5 82.75 L66.35 83.45 66.45 84.45 67.0 85.15 Q67.9 84.8 68.8 83.4 L69.65 81.6 69.6 81.0 69.35 80.9 67.7 81.15 Q67.15 81.25 66.8 81.65 66.45 82.05 66.45 82.6 L66.5 82.75" fill="#ff4910" fill-rule="evenodd" stroke="none"/>
    <path d="M88.1 65.2 Q87.6 65.8 87.6 66.3 87.6 66.6 87.75 66.75 88.05 66.15 89.25 64.8 88.7 64.55 88.1 65.2 M87.9 64.55 Q88.15 63.8 89.65 64.2 L89.75 65.5 89.55 66.95 88.6 68.2 87.1 68.2 87.1 66.2 87.9 64.55 M83.1 72.9 L83.1 73.7 83.2 74.3 83.55 74.9 83.85 74.75 83.55 74.05 84.35 73.05 84.3 72.9 83.65 72.85 83.1 72.9 M85.75 73.65 L85.95 75.0 84.65 76.7 Q83.4 76.2 83.05 75.5 L82.95 74.2 Q82.85 73.4 83.1 72.75 83.65 71.55 85.5 72.45 L85.75 73.65 M93.3 72.5 Q92.85 72.9 92.7 73.35 L94.4 72.15 Q93.85 72.05 93.3 72.5 M95.3 71.75 L95.4 72.9 Q95.4 75.55 92.95 75.55 L92.1 75.35 91.9 74.05 Q91.9 71.2 95.3 71.75 M81.8 83.1 L81.65 84.4 Q81.4 85.1 80.5 85.65 L79.35 84.9 Q79.2 84.8 79.2 84.4 79.2 83.2 79.45 82.65 80.05 81.55 81.75 81.95 L81.8 83.1 M55.2 26.2 L54.75 28.35 54.5 28.65 53.7 28.85 Q52.9 28.85 52.5 28.2 52.2 27.75 52.2 27.3 52.2 26.3 52.95 25.8 L55.0 25.8 55.1 25.65 55.2 26.2 M54.0 26.15 L54.0 25.95 Q52.5 26.3 52.5 27.4 L52.95 27.95 53.15 27.75 Q53.05 27.3 53.5 26.8 L54.0 26.15 M54.45 33.45 Q54.45 35.2 54.0 36.4 L52.55 36.65 52.4 35.9 52.2 34.8 52.4 33.5 52.55 32.15 54.35 32.2 54.45 33.45 M46.5 27.75 Q46.2 27.95 45.85 28.5 45.5 29.0 45.5 29.25 45.5 29.6 45.6 29.45 46.65 28.6 46.5 27.75 M53.45 32.45 L53.4 32.2 53.3 32.25 52.7 33.0 52.5 33.75 52.55 34.1 52.7 34.05 53.45 32.45 M47.55 29.4 L47.45 30.65 Q47.25 31.1 46.55 31.1 L45.65 31.0 45.0 30.75 45.0 28.75 Q45.45 28.05 46.0 27.8 L47.1 27.4 47.35 28.25 47.55 29.4 M44.95 36.4 L44.55 37.0 44.6 37.2 Q45.6 36.55 45.75 35.85 45.35 35.9 44.95 36.4 M46.65 36.95 Q46.6 38.6 44.35 39.4 L43.5 39.25 43.4 38.55 Q43.4 37.4 45.05 36.0 46.65 34.6 46.65 36.95 M62.05 28.05 L61.95 28.05 Q61.55 28.15 61.3 28.75 L61.1 29.35 61.2 29.85 61.4 29.85 62.1 28.25 62.1 28.05 Q62.85 28.15 63.15 28.65 L63.25 29.35 63.05 30.45 62.85 31.2 Q62.95 31.5 61.95 31.5 61.0 31.5 60.8 30.5 L60.8 29.35 60.85 28.1 61.6 28.0 62.05 28.05 M65.5 46.75 L65.4 46.8 Q64.55 47.35 64.55 48.25 64.55 49.05 64.95 49.25 L65.15 49.1 Q65.0 48.3 65.25 47.8 L65.55 47.0 65.5 46.75 M65.75 46.75 Q67.0 46.95 67.0 48.9 L66.8 49.9 65.95 50.75 Q64.45 49.8 64.45 48.75 64.45 46.5 65.75 46.75 M69.8 45.5 L70.55 46.35 70.65 46.05 70.65 45.2 70.1 44.0 69.8 44.0 69.8 45.5 M69.0 45.0 Q69.0 43.3 70.9 44.05 72.75 44.8 73.15 46.3 L72.75 46.9 Q72.2 47.45 71.2 47.45 69.55 47.45 69.1 46.0 L69.0 45.0 M77.85 43.3 Q75.5 43.3 74.85 42.05 L74.65 40.75 74.75 39.3 Q76.2 39.3 78.35 41.3 L78.35 43.0 78.45 43.15 77.85 43.3 M75.35 40.9 L75.4 41.4 76.1 41.7 75.85 40.8 75.75 39.9 Q75.35 40.1 75.35 40.9 M74.55 45.9 Q75.25 45.45 76.65 45.5 78.4 45.55 78.4 47.05 78.4 47.65 76.55 48.35 75.65 48.35 75.05 47.4 74.55 46.6 74.55 45.9 M75.15 46.05 L75.65 46.8 76.5 47.4 76.65 47.25 75.5 45.75 75.3 45.85 75.15 46.05 M32.95 36.35 L32.85 37.75 Q32.5 38.5 31.05 38.35 L30.4 38.2 30.2 37.3 Q30.2 36.6 31.15 34.1 32.55 34.05 32.85 34.8 L32.95 36.35 M31.35 36.15 L31.5 36.15 31.65 35.35 31.5 34.55 Q31.25 34.7 31.25 35.35 L31.35 36.15 M39.35 31.85 L39.0 34.4 38.65 34.65 37.65 34.9 Q36.9 34.9 36.55 33.95 L36.35 32.85 Q36.35 30.8 37.85 30.55 L39.05 31.55 39.35 31.85 M26.1 39.85 L26.0 39.9 Q25.55 40.05 25.35 40.7 L25.2 41.4 25.65 41.85 25.8 41.75 Q25.7 41.4 25.9 40.9 L26.15 40.1 26.1 39.85 Q27.3 39.45 27.3 41.2 27.3 41.8 26.9 42.35 L26.35 43.2 Q25.0 43.15 24.7 42.65 24.55 42.45 24.55 41.75 24.55 40.5 25.95 39.9 L26.1 39.85 M37.75 31.5 L37.7 31.55 Q37.25 32.0 37.25 32.85 L37.35 33.3 37.65 33.2 37.8 31.75 37.75 31.5 M27.5 46.35 L27.45 46.05 Q27.0 46.05 26.6 46.6 26.25 47.1 26.25 47.45 26.25 47.8 26.55 48.15 L27.25 47.25 27.5 46.35 M26.05 47.5 Q26.05 46.45 26.2 46.2 26.55 45.5 28.05 45.9 L28.15 47.75 Q28.15 48.6 27.3 49.6 26.5 49.05 26.25 48.5 L26.05 47.5 M38.95 37.95 Q38.55 38.2 38.25 38.7 37.9 39.35 37.95 39.8 L38.35 39.9 38.6 39.85 38.6 39.75 Q38.45 39.45 38.85 38.85 L39.3 38.1 39.3 37.95 39.95 38.0 40.3 38.8 40.5 39.95 Q40.5 41.0 39.55 41.95 L37.65 41.2 Q37.4 40.95 37.4 39.9 37.4 39.1 38.0 38.5 38.4 38.05 38.95 37.95 M33.7 41.5 Q35.0 41.75 35.0 42.45 L34.85 45.25 34.55 45.4 33.75 45.55 Q33.0 45.55 32.65 44.9 L32.45 44.1 Q32.45 43.55 32.8 42.65 L33.3 41.4 33.4 41.45 33.3 41.9 Q33.3 42.55 33.65 43.05 L33.85 43.1 33.9 42.8 33.7 41.5 M69.0 65.45 L68.35 67.45 Q67.6 69.05 66.9 69.05 66.05 69.05 65.3 68.65 65.2 68.8 65.2 67.8 65.2 66.4 67.1 65.0 69.0 63.6 69.0 65.45 M68.55 65.4 L68.55 65.3 67.4 65.45 Q66.95 65.8 66.95 66.2 L67.0 66.5 67.2 66.6 68.55 65.4 M75.65 65.8 Q76.25 65.0 76.9 64.7 L77.5 65.7 78.05 66.7 Q76.65 69.05 75.95 69.4 74.65 68.4 74.65 67.45 74.65 67.25 75.15 66.5 L75.2 67.2 75.5 67.2 Q75.5 66.9 75.95 66.5 L76.85 65.55 Q76.35 65.3 75.7 65.75 L75.65 65.8 M72.4 74.0 L72.3 74.0 71.6 74.75 Q71.1 75.4 71.1 75.8 L71.3 76.35 Q71.45 76.3 71.55 76.2 71.55 75.75 72.05 75.1 L72.5 74.25 72.4 74.0 M46.7 65.0 Q46.15 66.4 45.0 66.4 43.9 66.4 43.5 65.6 L43.3 64.7 Q43.3 62.5 45.2 61.75 47.1 61.0 47.1 63.1 47.1 64.05 46.7 65.0 M44.25 64.1 L44.4 64.05 Q44.45 63.6 44.95 63.0 L45.45 62.4 45.4 62.15 45.3 62.15 Q44.0 62.8 44.0 63.4 L44.25 64.1 M48.2 69.7 L48.9 69.8 49.15 69.95 Q49.35 70.05 49.35 70.65 L48.8 71.6 Q48.15 72.45 47.3 72.8 L46.35 72.7 46.35 71.25 46.5 71.25 Q46.95 70.85 46.95 69.95 L48.05 70.25 48.35 70.2 48.35 69.9 48.2 69.7 M46.35 70.3 L46.35 69.6 46.75 69.6 46.35 70.3 M53.25 64.7 L53.25 64.9 53.4 64.95 53.55 64.95 54.6 63.6 Q54.05 63.4 53.6 63.9 53.25 64.3 53.25 64.7 M55.2 64.05 L55.5 64.85 55.2 65.65 54.95 66.1 54.1 67.15 Q52.65 67.15 52.0 66.3 51.65 65.85 51.65 65.35 51.65 64.8 52.45 64.1 L54.25 62.7 54.95 63.7 55.2 64.05 M55.15 71.05 Q56.1 71.1 56.9 71.95 L56.3 73.1 Q55.8 73.95 55.2 73.95 L55.05 73.95 Q54.3 73.9 53.25 73.3 53.15 73.85 53.15 72.85 53.15 71.45 54.5 71.1 L55.15 71.05 M60.05 72.95 Q59.7 73.45 59.7 73.7 L59.85 73.8 60.8 72.75 Q60.45 72.3 60.05 72.95 M54.55 72.0 L55.2 71.6 55.05 71.4 Q54.55 71.05 54.0 71.65 53.55 72.15 53.55 72.5 L53.6 72.75 53.9 72.65 Q54.05 72.3 54.55 72.0 M58.8 75.25 Q58.8 73.25 60.5 72.35 62.2 71.45 62.2 73.55 62.2 74.25 61.8 75.0 61.25 76.1 60.25 76.1 L59.35 75.85 Q58.8 76.25 58.8 75.25 M71.55 78.4 Q70.5 77.5 70.5 76.55 70.5 74.2 72.0 73.9 73.5 73.6 73.5 76.4 73.5 77.25 71.55 78.4 M79.8 83.85 Q80.0 83.05 80.85 82.4 80.5 82.4 79.5 83.0 L79.5 83.85 79.8 83.85 M67.7 81.15 L69.35 80.9 69.6 81.0 69.65 81.6 68.8 83.4 Q67.9 84.8 67.0 85.15 L66.45 84.45 66.35 83.45 66.5 82.75 66.65 83.25 66.9 83.15 67.25 82.35 Q67.6 81.85 68.85 81.2 L67.7 81.15" fill="#000000" fill-rule="evenodd" stroke="none"/>
    <path d="M88.1 65.2 Q88.7 64.55 89.25 64.8 88.05 66.15 87.75 66.75 87.6 66.6 87.6 66.3 87.6 65.8 88.1 65.2 M83.1 72.9 L83.65 72.85 84.3 72.9 84.35 73.05 83.55 74.05 83.85 74.75 83.55 74.9 83.2 74.3 83.1 73.7 83.1 72.9 M93.3 72.5 Q93.85 72.05 94.4 72.15 L92.7 73.35 Q92.85 72.9 93.3 72.5 M54.0 26.15 L53.5 26.8 Q53.05 27.3 53.15 27.75 L52.95 27.95 52.5 27.4 Q52.5 26.3 54.0 25.95 L54.0 26.15 M53.45 32.45 L52.7 34.05 52.55 34.1 52.5 33.75 52.7 33.0 53.3 32.25 53.4 32.2 53.45 32.45 M46.5 27.75 Q46.65 28.6 45.6 29.45 45.5 29.6 45.5 29.25 45.5 29.0 45.85 28.5 46.2 27.95 46.5 27.75 M44.95 36.4 Q45.35 35.9 45.75 35.85 45.6 36.55 44.6 37.2 L44.55 37.0 44.95 36.4 M62.1 28.05 L62.1 28.25 61.4 29.85 61.2 29.85 61.1 29.35 61.3 28.75 Q61.55 28.15 61.95 28.05 L62.05 28.05 62.05 28.0 62.1 28.05 M65.5 46.75 L65.55 47.0 65.25 47.8 Q65.0 48.3 65.15 49.1 L64.95 49.25 Q64.55 49.05 64.55 48.25 64.55 47.35 65.4 46.8 L65.5 46.75 M69.8 45.5 L69.8 44.0 70.1 44.0 70.65 45.2 70.65 46.05 70.55 46.35 69.8 45.5 M75.35 40.9 Q75.35 40.1 75.75 39.9 L75.85 40.8 76.1 41.7 75.4 41.4 75.35 40.9 M75.15 46.05 L75.3 45.85 75.5 45.75 76.65 47.25 76.5 47.4 75.65 46.8 75.15 46.05 M31.35 36.15 L31.25 35.35 Q31.25 34.7 31.5 34.55 L31.65 35.35 31.5 36.15 31.35 36.15 M37.75 31.5 L37.8 31.75 37.65 33.2 37.35 33.3 37.25 32.85 Q37.25 32.0 37.7 31.55 L37.75 31.5 M26.1 39.85 L26.15 40.1 25.9 40.9 Q25.7 41.4 25.8 41.75 L25.65 41.85 25.2 41.4 25.35 40.7 Q25.55 40.05 26.0 39.9 L26.1 39.85 M27.5 46.35 L27.25 47.25 26.55 48.15 Q26.25 47.8 26.25 47.45 26.25 47.1 26.6 46.6 27.0 46.05 27.45 46.05 L27.5 46.35 M39.3 37.95 L39.3 38.1 38.85 38.85 Q38.45 39.45 38.6 39.75 L38.6 39.85 38.35 39.9 37.95 39.8 Q37.9 39.35 38.25 38.7 38.55 38.2 38.95 37.95 L39.3 37.8 39.3 37.95 M33.4 41.45 L33.6 41.25 33.7 41.5 33.9 42.8 33.85 43.1 33.65 43.05 Q33.3 42.55 33.3 41.9 L33.4 41.45 M68.55 65.4 L67.2 66.6 67.0 66.5 66.95 66.2 Q66.95 65.8 67.4 65.45 L68.55 65.3 68.55 65.4 M75.65 65.8 L75.7 65.75 Q76.35 65.3 76.85 65.55 L75.95 66.5 Q75.5 66.9 75.5 67.2 L75.2 67.2 75.15 66.5 Q75.15 66.1 75.65 65.8 M72.4 74.0 L72.5 74.25 72.05 75.1 Q71.55 75.75 71.55 76.2 71.45 76.3 71.3 76.35 L71.1 75.8 Q71.1 75.4 71.6 74.75 L72.3 74.0 72.4 74.0 M44.25 64.1 L44.0 63.4 Q44.0 62.8 45.3 62.15 L45.4 62.15 45.45 62.4 44.95 63.0 Q44.45 63.6 44.4 64.05 L44.25 64.1 M48.2 69.7 L48.35 69.9 48.35 70.2 48.05 70.25 46.95 69.95 Q46.95 70.85 46.5 71.25 L46.35 71.25 Q46.2 71.4 46.2 71.05 46.2 70.65 46.35 70.3 L46.75 69.6 46.8 69.5 Q47.45 68.7 48.2 69.7 M53.25 64.7 Q53.25 64.3 53.6 63.9 54.05 63.4 54.6 63.6 L53.55 64.95 53.4 64.95 53.25 64.9 53.25 64.7 M54.55 72.0 Q54.05 72.3 53.9 72.65 L53.6 72.75 53.55 72.5 Q53.55 72.15 54.0 71.65 54.55 71.05 55.05 71.4 L55.2 71.6 54.55 72.0 M60.05 72.95 Q60.45 72.3 60.8 72.75 L59.85 73.8 59.7 73.7 Q59.7 73.45 60.05 72.95 M79.8 83.85 L79.5 83.85 79.5 83.0 Q80.5 82.4 80.85 82.4 80.0 83.05 79.8 83.85 M67.7 81.15 L68.85 81.2 Q67.6 81.85 67.25 82.35 L66.9 83.15 66.65 83.25 66.5 82.75 66.45 82.6 Q66.45 82.05 66.8 81.65 67.15 81.25 67.7 81.15" fill="#ffffff" fill-rule="evenodd" stroke="none"/>
    <path d="M90.0 10.25 Q72.2 -2.2 49.45 0.5 26.7 3.2 12.3 19.55 -2.05 35.9 0.35 56.3 1.15 63.0 3.65 68.85 L4.8 68.35 4.85 68.3 4.9 68.3 M100.7 23.55 L102.6 22.65 Q100.15 19.15 97.0 16.0 M90.9 10.9 L90.0 10.25 M99.8 24.0 L100.35 23.7 M90.9 10.9 Q94.2 13.3 97.0 16.0 M96.8 25.35 L99.8 24.0 M87.55 56.85 L96.45 55.0 96.5 55.0 Q102.65 53.6 105.85 53.95 L106.2 54.0 106.75 54.05 M106.6 54.85 Q107.55 57.1 108.6 62.2 109.9 58.05 110.35 53.75 L110.4 53.25 Q110.85 48.35 110.25 43.2 109.85 39.65 108.95 36.4 106.95 28.9 102.6 22.65 M7.95 66.85 L10.05 65.85 11.05 65.4 M93.25 27.0 L96.75 25.4 96.8 25.35 M63.2 59.95 L66.75 60.05 73.55 59.5 74.95 59.25 78.3 58.65 87.55 56.85 M106.2 54.0 L106.6 54.85 M108.6 62.2 L108.75 62.9 Q110.2 70.15 111.85 73.4 113.05 75.7 114.15 80.55 L114.75 83.5 115.15 85.6 115.9 90.5 Q113.7 93.9 109.0 95.75 106.2 96.85 102.75 97.3 L98.05 97.55 74.05 96.1 73.25 96.4 Q67.55 98.2 61.2 98.95 L53.55 99.45 50.35 99.35 Q35.65 98.65 23.25 90.9 L21.3 89.65 20.6 89.15 17.9 87.15 Q11.6 82.2 7.5 76.05 L5.45 72.6 3.65 68.85 M105.85 53.95 Q103.6 63.55 103.05 73.75 L102.95 75.0 Q102.8 77.95 102.75 89.9 L102.75 93.0 102.75 97.3 M20.85 51.75 L18.65 51.85 Q19.0 56.3 21.1 60.7 22.45 63.6 24.55 66.45 L26.9 69.3 29.2 71.75 29.5 72.05 34.65 76.5 41.4 81.6 48.8 86.6 Q50.95 88.0 53.2 89.25 L54.85 90.05 57.85 91.45 58.75 91.85 Q65.45 94.6 73.1 95.95 L74.05 96.1 M23.25 51.65 L25.75 51.5 Q31.8 51.5 36.6 52.8 L37.45 53.05 93.25 27.0 M20.85 51.75 L23.25 51.65 M7.9 66.9 L4.9 68.3 M7.9 66.9 L7.95 66.85 M21.1 60.7 L11.05 65.4 M37.45 53.05 Q40.25 53.9 45.05 55.65 50.05 57.65 54.95 58.75 L63.2 59.95" fill="none" stroke="#000000" stroke-linecap="round" stroke-linejoin="round" stroke-width="0.05"/>
  </g>
</svg>
