<svg width="32" height="32" viewBox="0 0 32 32" fill="none" xmlns="http://www.w3.org/2000/svg">
<path d="M12 9C12 7.89543 12.8954 7 14 7H24C25.1046 7 26 7.89543 26 9V21.98C26 24.1892 24.2091 25.98 22 25.98H9C9 25.98 12 26.4795 12 22.4837V9Z" stroke="#EDF1FA" stroke-width="1.5" stroke-linejoin="round"/>
<path d="M6 22H12V23C12 24.6569 10.6569 26 9 26V26C7.34315 26 6 24.6569 6 23V22Z" stroke="#EDF1FA" stroke-width="1.5" stroke-linejoin="round"/>
<path d="M23.5 13.125C23.5 14.1605 22.6046 15 21.5 15C20.3954 15 19.5 14.1605 19.5 13.125C19.5 12.0895 21.5 10 21.5 10C21.5 10 23.5 12.0895 23.5 13.125Z" fill="#EDF1FA"/>
<path d="M14.7073 12.6891L16.4406 10.0891C16.4777 10.0334 16.5402 10 16.607 10H18.1468C18.3022 10 18.3982 10.1696 18.3183 10.3029L17.1817 12.1971C17.1018 12.3304 17.1978 12.5 17.3532 12.5H17.9593C18.145 12.5 18.2305 12.731 18.0895 12.8519L15.6183 14.97C15.4595 15.1061 15.2248 14.938 15.3024 14.7439L15.8903 13.2743C15.9428 13.1429 15.8461 13 15.7046 13H14.8737C14.714 13 14.6187 12.822 14.7073 12.6891Z" fill="#EDF1FA"/>
</svg>
